# 1 "./deneme2.cil.c"
# 1 "<command-line>"
# 1 "/usr/include/stdc-predef.h" 1 3 4
# 1 "<command-line>" 2
# 1 "./deneme2.cil.c"
# 4 "deneme2.c"
void __globinit_deneme2(void) ;
extern void __CrestInit(void) __attribute__((__crest_skip__)) ;
extern void __CrestHandleReturn(int id , long long val ) __attribute__((__crest_skip__)) ;
extern void __CrestReturn(int id ) __attribute__((__crest_skip__)) ;
extern void __CrestCall(int id , unsigned int fid ) __attribute__((__crest_skip__)) ;
extern void __CrestBranch(int id , int bid , unsigned char b ) __attribute__((__crest_skip__)) ;
extern void __CrestApply2(int id , int op , long long val ) __attribute__((__crest_skip__)) ;
extern void __CrestApply1(int id , int op , long long val ) __attribute__((__crest_skip__)) ;
extern void __CrestClearStack(int id ) __attribute__((__crest_skip__)) ;
extern void __CrestStore(int id , unsigned long addr ) __attribute__((__crest_skip__)) ;
extern void __CrestLoad(int id , unsigned long addr , long long val ) __attribute__((__crest_skip__)) ;
# 212 "/usr/lib/gcc/x86_64-linux-gnu/4.8/include/stddef.h"
typedef unsigned long size_t;
# 131 "/usr/include/x86_64-linux-gnu/bits/types.h"
typedef long __off_t;
# 132 "/usr/include/x86_64-linux-gnu/bits/types.h"
typedef long __off64_t;
# 44 "/usr/include/stdio.h"
struct _IO_FILE;
# 44 "/usr/include/stdio.h"
struct _IO_FILE;
# 48 "/usr/include/stdio.h"
typedef struct _IO_FILE FILE;
# 144 "/usr/include/libio.h"
struct _IO_FILE;
# 154 "/usr/include/libio.h"
typedef void _IO_lock_t;
# 160 "/usr/include/libio.h"
struct _IO_marker {
   struct _IO_marker *_next ;
   struct _IO_FILE *_sbuf ;
   int _pos ;
};
# 245 "/usr/include/libio.h"
struct _IO_FILE {
   int _flags ;
   char *_IO_read_ptr ;
   char *_IO_read_end ;
   char *_IO_read_base ;
   char *_IO_write_base ;
   char *_IO_write_ptr ;
   char *_IO_write_end ;
   char *_IO_buf_base ;
   char *_IO_buf_end ;
   char *_IO_save_base ;
   char *_IO_backup_base ;
   char *_IO_save_end ;
   struct _IO_marker *_markers ;
   struct _IO_FILE *_chain ;
   int _fileno ;
   int _flags2 ;
   __off_t _old_offset ;
   unsigned short _cur_column ;
   signed char _vtable_offset ;
   char _shortbuf[1] ;
   _IO_lock_t *_lock ;
   __off64_t _offset ;
   void *__pad1 ;
   void *__pad2 ;
   void *__pad3 ;
   void *__pad4 ;
   size_t __pad5 ;
   int _mode ;
   char _unused2[(15UL * sizeof(int ) - 4UL * sizeof(void *)) - sizeof(size_t )] ;
};
# 200 "../bin/../include/crest.h"
extern void __CrestChar(char *x ) __attribute__((__crest_skip__)) ;
# 170 "/usr/include/stdio.h"
extern struct _IO_FILE *stderr ;
# 356 "/usr/include/stdio.h"
extern int fprintf(FILE * __restrict __stream , char const * __restrict __format
                   , ...) ;
# 4 "deneme2.c"
int main(void)
{
  char n[10] ;
  int __retres3 ;

  {
  __globinit_deneme2();
  __CrestCall(1, 1);
# 9 "deneme2.c"
  __CrestChar(& n[0]);
# 10 "deneme2.c"
  __CrestChar(& n[1]);
# 11 "deneme2.c"
  __CrestChar(& n[2]);
# 12 "deneme2.c"
  __CrestChar(& n[3]);
# 13 "deneme2.c"
  __CrestChar(& n[4]);
# 14 "deneme2.c"
  __CrestChar(& n[5]);
# 15 "deneme2.c"
  __CrestChar(& n[6]);
# 16 "deneme2.c"
  __CrestChar(& n[7]);
# 17 "deneme2.c"
  __CrestChar(& n[8]);
# 18 "deneme2.c"
  __CrestChar(& n[9]);
  __CrestLoad(4, (unsigned long )(& n[0]), (long long )n[0]);
  __CrestLoad(3, (unsigned long )0, (long long )65);
  __CrestApply2(2, 12, (long long )((int )n[0] == 65));
# 20 "deneme2.c"
  if ((int )n[0] == 65) {
    __CrestBranch(5, 3, 1);
# 21 "deneme2.c"
    fprintf((FILE * __restrict )stderr, (char const * __restrict )"TEXT = %s\n",
            n);
    __CrestClearStack(7);
  } else {
    __CrestBranch(6, 4, 0);
    {
    __CrestLoad(10, (unsigned long )(& n[0]), (long long )n[0]);
    __CrestLoad(9, (unsigned long )0, (long long )66);
    __CrestApply2(8, 12, (long long )((int )n[0] == 66));
# 22 "deneme2.c"
    if ((int )n[0] == 66) {
      __CrestBranch(11, 5, 1);
# 23 "deneme2.c"
      fprintf((FILE * __restrict )stderr, (char const * __restrict )"STR = %s\n",
              n);
      __CrestClearStack(13);
    } else {
      __CrestBranch(12, 6, 0);
# 25 "deneme2.c"
      fprintf((FILE * __restrict )stderr, (char const * __restrict )"WORD = %s\n",
              n);
      __CrestClearStack(14);
    }
    }
  }
  __CrestLoad(15, (unsigned long )0, (long long )0);
  __CrestStore(16, (unsigned long )(& __retres3));
# 27 "deneme2.c"
  __retres3 = 0;
  __CrestLoad(17, (unsigned long )(& __retres3), (long long )__retres3);
  __CrestReturn(18);
# 4 "deneme2.c"
  return (__retres3);
}
}
void __globinit_deneme2(void)
{


  {
  __CrestInit();
}
}
