# 1 "rectangle.c"
# 1 "/home/yavuz/crest-ppc3/test//"
# 1 "<command-line>"
# 1 "/usr/include/stdc-predef.h" 1 3 4
# 1 "<command-line>" 2
# 1 "rectangle.c"







# 1 "../bin/../include/crest.h" 1
# 136 "../bin/../include/crest.h"
typedef enum {

  __CREST_ADD = 0,
  __CREST_SUBTRACT = 1,
  __CREST_MULTIPLY = 2,
  __CREST_DIVIDE = 3,
  __CREST_MOD = 4,

  __CREST_AND = 5,
  __CREST_OR = 6,
  __CREST_XOR = 7,
  __CREST_SHIFT_L = 8,
  __CREST_SHIFT_R = 9,

  __CREST_L_AND = 10,
  __CREST_L_OR = 11,

  __CREST_EQ = 12,
  __CREST_NEQ = 13,
  __CREST_GT = 14,
  __CREST_LEQ = 15,
  __CREST_LT = 16,
  __CREST_GEQ = 17,

  __CREST_CONCRETE = 18,

  __CREST_NEGATE = 19,
  __CREST_NOT = 20,
  __CREST_L_NOT = 21,
};
# 176 "../bin/../include/crest.h"
extern void __CrestInit() __attribute__((crest_skip));
extern void __CrestLoad(int, unsigned long int, long long int) __attribute__((crest_skip));
extern void __CrestStore(int, unsigned long int) __attribute__((crest_skip));
extern void __CrestClearStack(int) __attribute__((crest_skip));
extern void __CrestApply1(int, int, long long int) __attribute__((crest_skip));
extern void __CrestApply2(int, int, long long int) __attribute__((crest_skip));
extern void __CrestBranch(int, int, unsigned char) __attribute__((crest_skip));
extern void __CrestCall(int, unsigned int) __attribute__((crest_skip));
extern void __CrestReturn(int) __attribute__((crest_skip));
extern void __CrestHandleReturn(int, long long int) __attribute__((crest_skip));
# 197 "../bin/../include/crest.h"
extern void __CrestUChar(unsigned char* x) __attribute__((crest_skip));
extern void __CrestUShort(unsigned short* x) __attribute__((crest_skip));
extern void __CrestUInt(unsigned int* x) __attribute__((crest_skip));
extern void __CrestChar(char* x) __attribute__((crest_skip));
extern void __CrestShort(short* x) __attribute__((crest_skip));
extern void __CrestInt(int* x) __attribute__((crest_skip));
# 9 "rectangle.c" 2
# 1 "/usr/include/stdio.h" 1 3 4
# 27 "/usr/include/stdio.h" 3 4
# 1 "/usr/include/features.h" 1 3 4
# 374 "/usr/include/features.h" 3 4
# 1 "/usr/include/x86_64-linux-gnu/sys/cdefs.h" 1 3 4
# 385 "/usr/include/x86_64-linux-gnu/sys/cdefs.h" 3 4
# 1 "/usr/include/x86_64-linux-gnu/bits/wordsize.h" 1 3 4
# 386 "/usr/include/x86_64-linux-gnu/sys/cdefs.h" 2 3 4
# 375 "/usr/include/features.h" 2 3 4
# 398 "/usr/include/features.h" 3 4
# 1 "/usr/include/x86_64-linux-gnu/gnu/stubs.h" 1 3 4
# 10 "/usr/include/x86_64-linux-gnu/gnu/stubs.h" 3 4
# 1 "/usr/include/x86_64-linux-gnu/gnu/stubs-64.h" 1 3 4
# 11 "/usr/include/x86_64-linux-gnu/gnu/stubs.h" 2 3 4
# 399 "/usr/include/features.h" 2 3 4
# 28 "/usr/include/stdio.h" 2 3 4





# 1 "/usr/lib/gcc/x86_64-linux-gnu/4.8/include/stddef.h" 1 3 4
# 212 "/usr/lib/gcc/x86_64-linux-gnu/4.8/include/stddef.h" 3 4
typedef long unsigned int size_t;
# 34 "/usr/include/stdio.h" 2 3 4

# 1 "/usr/include/x86_64-linux-gnu/bits/types.h" 1 3 4
# 27 "/usr/include/x86_64-linux-gnu/bits/types.h" 3 4
# 1 "/usr/include/x86_64-linux-gnu/bits/wordsize.h" 1 3 4
# 28 "/usr/include/x86_64-linux-gnu/bits/types.h" 2 3 4


typedef unsigned char __u_char;
typedef unsigned short int __u_short;
typedef unsigned int __u_int;
typedef unsigned long int __u_long;


typedef signed char __int8_t;
typedef unsigned char __uint8_t;
typedef signed short int __int16_t;
typedef unsigned short int __uint16_t;
typedef signed int __int32_t;
typedef unsigned int __uint32_t;

typedef signed long int __int64_t;
typedef unsigned long int __uint64_t;







typedef long int __quad_t;
typedef unsigned long int __u_quad_t;
# 121 "/usr/include/x86_64-linux-gnu/bits/types.h" 3 4
# 1 "/usr/include/x86_64-linux-gnu/bits/typesizes.h" 1 3 4
# 122 "/usr/include/x86_64-linux-gnu/bits/types.h" 2 3 4


typedef unsigned long int __dev_t;
typedef unsigned int __uid_t;
typedef unsigned int __gid_t;
typedef unsigned long int __ino_t;
typedef unsigned long int __ino64_t;
typedef unsigned int __mode_t;
typedef unsigned long int __nlink_t;
typedef long int __off_t;
typedef long int __off64_t;
typedef int __pid_t;
typedef struct { int __val[2]; } __fsid_t;
typedef long int __clock_t;
typedef unsigned long int __rlim_t;
typedef unsigned long int __rlim64_t;
typedef unsigned int __id_t;
typedef long int __time_t;
typedef unsigned int __useconds_t;
typedef long int __suseconds_t;

typedef int __daddr_t;
typedef int __key_t;


typedef int __clockid_t;


typedef void * __timer_t;


typedef long int __blksize_t;




typedef long int __blkcnt_t;
typedef long int __blkcnt64_t;


typedef unsigned long int __fsblkcnt_t;
typedef unsigned long int __fsblkcnt64_t;


typedef unsigned long int __fsfilcnt_t;
typedef unsigned long int __fsfilcnt64_t;


typedef long int __fsword_t;

typedef long int __ssize_t;


typedef long int __syscall_slong_t;

typedef unsigned long int __syscall_ulong_t;



typedef __off64_t __loff_t;
typedef __quad_t *__qaddr_t;
typedef char *__caddr_t;


typedef long int __intptr_t;


typedef unsigned int __socklen_t;
# 36 "/usr/include/stdio.h" 2 3 4
# 44 "/usr/include/stdio.h" 3 4
struct _IO_FILE;



typedef struct _IO_FILE FILE;





# 64 "/usr/include/stdio.h" 3 4
typedef struct _IO_FILE __FILE;
# 74 "/usr/include/stdio.h" 3 4
# 1 "/usr/include/libio.h" 1 3 4
# 31 "/usr/include/libio.h" 3 4
# 1 "/usr/include/_G_config.h" 1 3 4
# 15 "/usr/include/_G_config.h" 3 4
# 1 "/usr/lib/gcc/x86_64-linux-gnu/4.8/include/stddef.h" 1 3 4
# 16 "/usr/include/_G_config.h" 2 3 4




# 1 "/usr/include/wchar.h" 1 3 4
# 82 "/usr/include/wchar.h" 3 4
typedef struct
{
  int __count;
  union
  {

    unsigned int __wch;



    char __wchb[4];
  } __value;
} __mbstate_t;
# 21 "/usr/include/_G_config.h" 2 3 4
typedef struct
{
  __off_t __pos;
  __mbstate_t __state;
} _G_fpos_t;
typedef struct
{
  __off64_t __pos;
  __mbstate_t __state;
} _G_fpos64_t;
# 32 "/usr/include/libio.h" 2 3 4
# 49 "/usr/include/libio.h" 3 4
# 1 "/usr/lib/gcc/x86_64-linux-gnu/4.8/include/stdarg.h" 1 3 4
# 40 "/usr/lib/gcc/x86_64-linux-gnu/4.8/include/stdarg.h" 3 4
typedef __builtin_va_list __gnuc_va_list;
# 50 "/usr/include/libio.h" 2 3 4
# 144 "/usr/include/libio.h" 3 4
struct _IO_jump_t; struct _IO_FILE;
# 154 "/usr/include/libio.h" 3 4
typedef void _IO_lock_t;





struct _IO_marker {
  struct _IO_marker *_next;
  struct _IO_FILE *_sbuf;



  int _pos;
# 177 "/usr/include/libio.h" 3 4
};


enum __codecvt_result
{
  __codecvt_ok,
  __codecvt_partial,
  __codecvt_error,
  __codecvt_noconv
};
# 245 "/usr/include/libio.h" 3 4
struct _IO_FILE {
  int _flags;




  char* _IO_read_ptr;
  char* _IO_read_end;
  char* _IO_read_base;
  char* _IO_write_base;
  char* _IO_write_ptr;
  char* _IO_write_end;
  char* _IO_buf_base;
  char* _IO_buf_end;

  char *_IO_save_base;
  char *_IO_backup_base;
  char *_IO_save_end;

  struct _IO_marker *_markers;

  struct _IO_FILE *_chain;

  int _fileno;



  int _flags2;

  __off_t _old_offset;



  unsigned short _cur_column;
  signed char _vtable_offset;
  char _shortbuf[1];



  _IO_lock_t *_lock;
# 293 "/usr/include/libio.h" 3 4
  __off64_t _offset;
# 302 "/usr/include/libio.h" 3 4
  void *__pad1;
  void *__pad2;
  void *__pad3;
  void *__pad4;
  size_t __pad5;

  int _mode;

  char _unused2[15 * sizeof (int) - 4 * sizeof (void *) - sizeof (size_t)];

};


typedef struct _IO_FILE _IO_FILE;


struct _IO_FILE_plus;

extern struct _IO_FILE_plus _IO_2_1_stdin_;
extern struct _IO_FILE_plus _IO_2_1_stdout_;
extern struct _IO_FILE_plus _IO_2_1_stderr_;
# 338 "/usr/include/libio.h" 3 4
typedef __ssize_t __io_read_fn (void *__cookie, char *__buf, size_t __nbytes);







typedef __ssize_t __io_write_fn (void *__cookie, const char *__buf,
     size_t __n);







typedef int __io_seek_fn (void *__cookie, __off64_t *__pos, int __w);


typedef int __io_close_fn (void *__cookie);
# 390 "/usr/include/libio.h" 3 4
extern int __underflow (_IO_FILE *);
extern int __uflow (_IO_FILE *);
extern int __overflow (_IO_FILE *, int);
# 434 "/usr/include/libio.h" 3 4
extern int _IO_getc (_IO_FILE *__fp);
extern int _IO_putc (int __c, _IO_FILE *__fp);
extern int _IO_feof (_IO_FILE *__fp) __attribute__ ((__nothrow__ , __leaf__));
extern int _IO_ferror (_IO_FILE *__fp) __attribute__ ((__nothrow__ , __leaf__));

extern int _IO_peekc_locked (_IO_FILE *__fp);





extern void _IO_flockfile (_IO_FILE *) __attribute__ ((__nothrow__ , __leaf__));
extern void _IO_funlockfile (_IO_FILE *) __attribute__ ((__nothrow__ , __leaf__));
extern int _IO_ftrylockfile (_IO_FILE *) __attribute__ ((__nothrow__ , __leaf__));
# 464 "/usr/include/libio.h" 3 4
extern int _IO_vfscanf (_IO_FILE * __restrict, const char * __restrict,
   __gnuc_va_list, int *__restrict);
extern int _IO_vfprintf (_IO_FILE *__restrict, const char *__restrict,
    __gnuc_va_list);
extern __ssize_t _IO_padn (_IO_FILE *, int, __ssize_t);
extern size_t _IO_sgetn (_IO_FILE *, void *, size_t);

extern __off64_t _IO_seekoff (_IO_FILE *, __off64_t, int, int);
extern __off64_t _IO_seekpos (_IO_FILE *, __off64_t, int);

extern void _IO_free_backup_area (_IO_FILE *) __attribute__ ((__nothrow__ , __leaf__));
# 75 "/usr/include/stdio.h" 2 3 4




typedef __gnuc_va_list va_list;
# 90 "/usr/include/stdio.h" 3 4
typedef __off_t off_t;
# 102 "/usr/include/stdio.h" 3 4
typedef __ssize_t ssize_t;







typedef _G_fpos_t fpos_t;




# 164 "/usr/include/stdio.h" 3 4
# 1 "/usr/include/x86_64-linux-gnu/bits/stdio_lim.h" 1 3 4
# 165 "/usr/include/stdio.h" 2 3 4



extern struct _IO_FILE *stdin;
extern struct _IO_FILE *stdout;
extern struct _IO_FILE *stderr;







extern int remove (const char *__filename) __attribute__ ((__nothrow__ , __leaf__));

extern int rename (const char *__old, const char *__new) __attribute__ ((__nothrow__ , __leaf__));




extern int renameat (int __oldfd, const char *__old, int __newfd,
       const char *__new) __attribute__ ((__nothrow__ , __leaf__));








extern FILE *tmpfile (void) ;
# 209 "/usr/include/stdio.h" 3 4
extern char *tmpnam (char *__s) __attribute__ ((__nothrow__ , __leaf__)) ;





extern char *tmpnam_r (char *__s) __attribute__ ((__nothrow__ , __leaf__)) ;
# 227 "/usr/include/stdio.h" 3 4
extern char *tempnam (const char *__dir, const char *__pfx)
     __attribute__ ((__nothrow__ , __leaf__)) __attribute__ ((__malloc__)) ;








extern int fclose (FILE *__stream);




extern int fflush (FILE *__stream);

# 252 "/usr/include/stdio.h" 3 4
extern int fflush_unlocked (FILE *__stream);
# 266 "/usr/include/stdio.h" 3 4






extern FILE *fopen (const char *__restrict __filename,
      const char *__restrict __modes) ;




extern FILE *freopen (const char *__restrict __filename,
        const char *__restrict __modes,
        FILE *__restrict __stream) ;
# 295 "/usr/include/stdio.h" 3 4

# 306 "/usr/include/stdio.h" 3 4
extern FILE *fdopen (int __fd, const char *__modes) __attribute__ ((__nothrow__ , __leaf__)) ;
# 319 "/usr/include/stdio.h" 3 4
extern FILE *fmemopen (void *__s, size_t __len, const char *__modes)
  __attribute__ ((__nothrow__ , __leaf__)) ;




extern FILE *open_memstream (char **__bufloc, size_t *__sizeloc) __attribute__ ((__nothrow__ , __leaf__)) ;






extern void setbuf (FILE *__restrict __stream, char *__restrict __buf) __attribute__ ((__nothrow__ , __leaf__));



extern int setvbuf (FILE *__restrict __stream, char *__restrict __buf,
      int __modes, size_t __n) __attribute__ ((__nothrow__ , __leaf__));





extern void setbuffer (FILE *__restrict __stream, char *__restrict __buf,
         size_t __size) __attribute__ ((__nothrow__ , __leaf__));


extern void setlinebuf (FILE *__stream) __attribute__ ((__nothrow__ , __leaf__));








extern int fprintf (FILE *__restrict __stream,
      const char *__restrict __format, ...);




extern int printf (const char *__restrict __format, ...);

extern int sprintf (char *__restrict __s,
      const char *__restrict __format, ...) __attribute__ ((__nothrow__));





extern int vfprintf (FILE *__restrict __s, const char *__restrict __format,
       __gnuc_va_list __arg);




extern int vprintf (const char *__restrict __format, __gnuc_va_list __arg);

extern int vsprintf (char *__restrict __s, const char *__restrict __format,
       __gnuc_va_list __arg) __attribute__ ((__nothrow__));





extern int snprintf (char *__restrict __s, size_t __maxlen,
       const char *__restrict __format, ...)
     __attribute__ ((__nothrow__)) __attribute__ ((__format__ (__printf__, 3, 4)));

extern int vsnprintf (char *__restrict __s, size_t __maxlen,
        const char *__restrict __format, __gnuc_va_list __arg)
     __attribute__ ((__nothrow__)) __attribute__ ((__format__ (__printf__, 3, 0)));

# 412 "/usr/include/stdio.h" 3 4
extern int vdprintf (int __fd, const char *__restrict __fmt,
       __gnuc_va_list __arg)
     __attribute__ ((__format__ (__printf__, 2, 0)));
extern int dprintf (int __fd, const char *__restrict __fmt, ...)
     __attribute__ ((__format__ (__printf__, 2, 3)));








extern int fscanf (FILE *__restrict __stream,
     const char *__restrict __format, ...) ;




extern int scanf (const char *__restrict __format, ...) ;

extern int sscanf (const char *__restrict __s,
     const char *__restrict __format, ...) __attribute__ ((__nothrow__ , __leaf__));
# 443 "/usr/include/stdio.h" 3 4
extern int fscanf (FILE *__restrict __stream, const char *__restrict __format, ...) __asm__ ("" "__isoc99_fscanf")

                               ;
extern int scanf (const char *__restrict __format, ...) __asm__ ("" "__isoc99_scanf")
                              ;
extern int sscanf (const char *__restrict __s, const char *__restrict __format, ...) __asm__ ("" "__isoc99_sscanf") __attribute__ ((__nothrow__ , __leaf__))

                      ;
# 463 "/usr/include/stdio.h" 3 4








extern int vfscanf (FILE *__restrict __s, const char *__restrict __format,
      __gnuc_va_list __arg)
     __attribute__ ((__format__ (__scanf__, 2, 0))) ;





extern int vscanf (const char *__restrict __format, __gnuc_va_list __arg)
     __attribute__ ((__format__ (__scanf__, 1, 0))) ;


extern int vsscanf (const char *__restrict __s,
      const char *__restrict __format, __gnuc_va_list __arg)
     __attribute__ ((__nothrow__ , __leaf__)) __attribute__ ((__format__ (__scanf__, 2, 0)));
# 494 "/usr/include/stdio.h" 3 4
extern int vfscanf (FILE *__restrict __s, const char *__restrict __format, __gnuc_va_list __arg) __asm__ ("" "__isoc99_vfscanf")



     __attribute__ ((__format__ (__scanf__, 2, 0))) ;
extern int vscanf (const char *__restrict __format, __gnuc_va_list __arg) __asm__ ("" "__isoc99_vscanf")

     __attribute__ ((__format__ (__scanf__, 1, 0))) ;
extern int vsscanf (const char *__restrict __s, const char *__restrict __format, __gnuc_va_list __arg) __asm__ ("" "__isoc99_vsscanf") __attribute__ ((__nothrow__ , __leaf__))



     __attribute__ ((__format__ (__scanf__, 2, 0)));
# 522 "/usr/include/stdio.h" 3 4









extern int fgetc (FILE *__stream);
extern int getc (FILE *__stream);





extern int getchar (void);

# 550 "/usr/include/stdio.h" 3 4
extern int getc_unlocked (FILE *__stream);
extern int getchar_unlocked (void);
# 561 "/usr/include/stdio.h" 3 4
extern int fgetc_unlocked (FILE *__stream);











extern int fputc (int __c, FILE *__stream);
extern int putc (int __c, FILE *__stream);





extern int putchar (int __c);

# 594 "/usr/include/stdio.h" 3 4
extern int fputc_unlocked (int __c, FILE *__stream);







extern int putc_unlocked (int __c, FILE *__stream);
extern int putchar_unlocked (int __c);






extern int getw (FILE *__stream);


extern int putw (int __w, FILE *__stream);








extern char *fgets (char *__restrict __s, int __n, FILE *__restrict __stream)
     ;
# 638 "/usr/include/stdio.h" 3 4
extern char *gets (char *__s) __attribute__ ((__deprecated__));


# 665 "/usr/include/stdio.h" 3 4
extern __ssize_t __getdelim (char **__restrict __lineptr,
          size_t *__restrict __n, int __delimiter,
          FILE *__restrict __stream) ;
extern __ssize_t getdelim (char **__restrict __lineptr,
        size_t *__restrict __n, int __delimiter,
        FILE *__restrict __stream) ;







extern __ssize_t getline (char **__restrict __lineptr,
       size_t *__restrict __n,
       FILE *__restrict __stream) ;








extern int fputs (const char *__restrict __s, FILE *__restrict __stream);





extern int puts (const char *__s);






extern int ungetc (int __c, FILE *__stream);






extern size_t fread (void *__restrict __ptr, size_t __size,
       size_t __n, FILE *__restrict __stream) ;




extern size_t fwrite (const void *__restrict __ptr, size_t __size,
        size_t __n, FILE *__restrict __s);

# 737 "/usr/include/stdio.h" 3 4
extern size_t fread_unlocked (void *__restrict __ptr, size_t __size,
         size_t __n, FILE *__restrict __stream) ;
extern size_t fwrite_unlocked (const void *__restrict __ptr, size_t __size,
          size_t __n, FILE *__restrict __stream);








extern int fseek (FILE *__stream, long int __off, int __whence);




extern long int ftell (FILE *__stream) ;




extern void rewind (FILE *__stream);

# 773 "/usr/include/stdio.h" 3 4
extern int fseeko (FILE *__stream, __off_t __off, int __whence);




extern __off_t ftello (FILE *__stream) ;
# 792 "/usr/include/stdio.h" 3 4






extern int fgetpos (FILE *__restrict __stream, fpos_t *__restrict __pos);




extern int fsetpos (FILE *__stream, const fpos_t *__pos);
# 815 "/usr/include/stdio.h" 3 4

# 824 "/usr/include/stdio.h" 3 4


extern void clearerr (FILE *__stream) __attribute__ ((__nothrow__ , __leaf__));

extern int feof (FILE *__stream) __attribute__ ((__nothrow__ , __leaf__)) ;

extern int ferror (FILE *__stream) __attribute__ ((__nothrow__ , __leaf__)) ;




extern void clearerr_unlocked (FILE *__stream) __attribute__ ((__nothrow__ , __leaf__));
extern int feof_unlocked (FILE *__stream) __attribute__ ((__nothrow__ , __leaf__)) ;
extern int ferror_unlocked (FILE *__stream) __attribute__ ((__nothrow__ , __leaf__)) ;








extern void perror (const char *__s);






# 1 "/usr/include/x86_64-linux-gnu/bits/sys_errlist.h" 1 3 4
# 26 "/usr/include/x86_64-linux-gnu/bits/sys_errlist.h" 3 4
extern int sys_nerr;
extern const char *const sys_errlist[];
# 854 "/usr/include/stdio.h" 2 3 4




extern int fileno (FILE *__stream) __attribute__ ((__nothrow__ , __leaf__)) ;




extern int fileno_unlocked (FILE *__stream) __attribute__ ((__nothrow__ , __leaf__)) ;
# 873 "/usr/include/stdio.h" 3 4
extern FILE *popen (const char *__command, const char *__modes) ;





extern int pclose (FILE *__stream);





extern char *ctermid (char *__s) __attribute__ ((__nothrow__ , __leaf__));
# 913 "/usr/include/stdio.h" 3 4
extern void flockfile (FILE *__stream) __attribute__ ((__nothrow__ , __leaf__));



extern int ftrylockfile (FILE *__stream) __attribute__ ((__nothrow__ , __leaf__)) ;


extern void funlockfile (FILE *__stream) __attribute__ ((__nothrow__ , __leaf__));
# 943 "/usr/include/stdio.h" 3 4

# 10 "rectangle.c" 2
# 1 "/usr/include/pthread.h" 1 3 4
# 22 "/usr/include/pthread.h" 3 4
# 1 "/usr/include/endian.h" 1 3 4
# 36 "/usr/include/endian.h" 3 4
# 1 "/usr/include/x86_64-linux-gnu/bits/endian.h" 1 3 4
# 37 "/usr/include/endian.h" 2 3 4
# 60 "/usr/include/endian.h" 3 4
# 1 "/usr/include/x86_64-linux-gnu/bits/byteswap.h" 1 3 4
# 28 "/usr/include/x86_64-linux-gnu/bits/byteswap.h" 3 4
# 1 "/usr/include/x86_64-linux-gnu/bits/wordsize.h" 1 3 4
# 29 "/usr/include/x86_64-linux-gnu/bits/byteswap.h" 2 3 4






# 1 "/usr/include/x86_64-linux-gnu/bits/byteswap-16.h" 1 3 4
# 36 "/usr/include/x86_64-linux-gnu/bits/byteswap.h" 2 3 4
# 44 "/usr/include/x86_64-linux-gnu/bits/byteswap.h" 3 4
static __inline unsigned int
__bswap_32 (unsigned int __bsx)
{
  return __builtin_bswap32 (__bsx);
}
# 108 "/usr/include/x86_64-linux-gnu/bits/byteswap.h" 3 4
static __inline __uint64_t
__bswap_64 (__uint64_t __bsx)
{
  return __builtin_bswap64 (__bsx);
}
# 61 "/usr/include/endian.h" 2 3 4
# 23 "/usr/include/pthread.h" 2 3 4
# 1 "/usr/include/sched.h" 1 3 4
# 28 "/usr/include/sched.h" 3 4
# 1 "/usr/lib/gcc/x86_64-linux-gnu/4.8/include/stddef.h" 1 3 4
# 29 "/usr/include/sched.h" 2 3 4



# 1 "/usr/include/time.h" 1 3 4
# 73 "/usr/include/time.h" 3 4


typedef __time_t time_t;



# 120 "/usr/include/time.h" 3 4
struct timespec
  {
    __time_t tv_sec;
    __syscall_slong_t tv_nsec;
  };
# 33 "/usr/include/sched.h" 2 3 4


typedef __pid_t pid_t;





# 1 "/usr/include/x86_64-linux-gnu/bits/sched.h" 1 3 4
# 72 "/usr/include/x86_64-linux-gnu/bits/sched.h" 3 4
struct sched_param
  {
    int __sched_priority;
  };


# 95 "/usr/include/x86_64-linux-gnu/bits/sched.h" 3 4








struct __sched_param
  {
    int __sched_priority;
  };
# 118 "/usr/include/x86_64-linux-gnu/bits/sched.h" 3 4
typedef unsigned long int __cpu_mask;






typedef struct
{
  __cpu_mask __bits[1024 / (8 * sizeof (__cpu_mask))];
} cpu_set_t;
# 201 "/usr/include/x86_64-linux-gnu/bits/sched.h" 3 4


extern int __sched_cpucount (size_t __setsize, const cpu_set_t *__setp)
  __attribute__ ((__nothrow__ , __leaf__));
extern cpu_set_t *__sched_cpualloc (size_t __count) __attribute__ ((__nothrow__ , __leaf__)) ;
extern void __sched_cpufree (cpu_set_t *__set) __attribute__ ((__nothrow__ , __leaf__));


# 42 "/usr/include/sched.h" 2 3 4







extern int sched_setparam (__pid_t __pid, const struct sched_param *__param)
     __attribute__ ((__nothrow__ , __leaf__));


extern int sched_getparam (__pid_t __pid, struct sched_param *__param) __attribute__ ((__nothrow__ , __leaf__));


extern int sched_setscheduler (__pid_t __pid, int __policy,
          const struct sched_param *__param) __attribute__ ((__nothrow__ , __leaf__));


extern int sched_getscheduler (__pid_t __pid) __attribute__ ((__nothrow__ , __leaf__));


extern int sched_yield (void) __attribute__ ((__nothrow__ , __leaf__));


extern int sched_get_priority_max (int __algorithm) __attribute__ ((__nothrow__ , __leaf__));


extern int sched_get_priority_min (int __algorithm) __attribute__ ((__nothrow__ , __leaf__));


extern int sched_rr_get_interval (__pid_t __pid, struct timespec *__t) __attribute__ ((__nothrow__ , __leaf__));
# 124 "/usr/include/sched.h" 3 4

# 24 "/usr/include/pthread.h" 2 3 4
# 1 "/usr/include/time.h" 1 3 4
# 29 "/usr/include/time.h" 3 4








# 1 "/usr/lib/gcc/x86_64-linux-gnu/4.8/include/stddef.h" 1 3 4
# 38 "/usr/include/time.h" 2 3 4



# 1 "/usr/include/x86_64-linux-gnu/bits/time.h" 1 3 4
# 42 "/usr/include/time.h" 2 3 4
# 57 "/usr/include/time.h" 3 4


typedef __clock_t clock_t;



# 91 "/usr/include/time.h" 3 4
typedef __clockid_t clockid_t;
# 103 "/usr/include/time.h" 3 4
typedef __timer_t timer_t;
# 131 "/usr/include/time.h" 3 4


struct tm
{
  int tm_sec;
  int tm_min;
  int tm_hour;
  int tm_mday;
  int tm_mon;
  int tm_year;
  int tm_wday;
  int tm_yday;
  int tm_isdst;


  long int tm_gmtoff;
  const char *tm_zone;




};








struct itimerspec
  {
    struct timespec it_interval;
    struct timespec it_value;
  };


struct sigevent;
# 186 "/usr/include/time.h" 3 4



extern clock_t clock (void) __attribute__ ((__nothrow__ , __leaf__));


extern time_t time (time_t *__timer) __attribute__ ((__nothrow__ , __leaf__));


extern double difftime (time_t __time1, time_t __time0)
     __attribute__ ((__nothrow__ , __leaf__)) __attribute__ ((__const__));


extern time_t mktime (struct tm *__tp) __attribute__ ((__nothrow__ , __leaf__));





extern size_t strftime (char *__restrict __s, size_t __maxsize,
   const char *__restrict __format,
   const struct tm *__restrict __tp) __attribute__ ((__nothrow__ , __leaf__));

# 221 "/usr/include/time.h" 3 4
# 1 "/usr/include/xlocale.h" 1 3 4
# 27 "/usr/include/xlocale.h" 3 4
typedef struct __locale_struct
{

  struct __locale_data *__locales[13];


  const unsigned short int *__ctype_b;
  const int *__ctype_tolower;
  const int *__ctype_toupper;


  const char *__names[13];
} *__locale_t;


typedef __locale_t locale_t;
# 222 "/usr/include/time.h" 2 3 4

extern size_t strftime_l (char *__restrict __s, size_t __maxsize,
     const char *__restrict __format,
     const struct tm *__restrict __tp,
     __locale_t __loc) __attribute__ ((__nothrow__ , __leaf__));
# 236 "/usr/include/time.h" 3 4



extern struct tm *gmtime (const time_t *__timer) __attribute__ ((__nothrow__ , __leaf__));



extern struct tm *localtime (const time_t *__timer) __attribute__ ((__nothrow__ , __leaf__));





extern struct tm *gmtime_r (const time_t *__restrict __timer,
       struct tm *__restrict __tp) __attribute__ ((__nothrow__ , __leaf__));



extern struct tm *localtime_r (const time_t *__restrict __timer,
          struct tm *__restrict __tp) __attribute__ ((__nothrow__ , __leaf__));





extern char *asctime (const struct tm *__tp) __attribute__ ((__nothrow__ , __leaf__));


extern char *ctime (const time_t *__timer) __attribute__ ((__nothrow__ , __leaf__));







extern char *asctime_r (const struct tm *__restrict __tp,
   char *__restrict __buf) __attribute__ ((__nothrow__ , __leaf__));


extern char *ctime_r (const time_t *__restrict __timer,
        char *__restrict __buf) __attribute__ ((__nothrow__ , __leaf__));




extern char *__tzname[2];
extern int __daylight;
extern long int __timezone;




extern char *tzname[2];



extern void tzset (void) __attribute__ ((__nothrow__ , __leaf__));



extern int daylight;
extern long int timezone;





extern int stime (const time_t *__when) __attribute__ ((__nothrow__ , __leaf__));
# 319 "/usr/include/time.h" 3 4
extern time_t timegm (struct tm *__tp) __attribute__ ((__nothrow__ , __leaf__));


extern time_t timelocal (struct tm *__tp) __attribute__ ((__nothrow__ , __leaf__));


extern int dysize (int __year) __attribute__ ((__nothrow__ , __leaf__)) __attribute__ ((__const__));
# 334 "/usr/include/time.h" 3 4
extern int nanosleep (const struct timespec *__requested_time,
        struct timespec *__remaining);



extern int clock_getres (clockid_t __clock_id, struct timespec *__res) __attribute__ ((__nothrow__ , __leaf__));


extern int clock_gettime (clockid_t __clock_id, struct timespec *__tp) __attribute__ ((__nothrow__ , __leaf__));


extern int clock_settime (clockid_t __clock_id, const struct timespec *__tp)
     __attribute__ ((__nothrow__ , __leaf__));






extern int clock_nanosleep (clockid_t __clock_id, int __flags,
       const struct timespec *__req,
       struct timespec *__rem);


extern int clock_getcpuclockid (pid_t __pid, clockid_t *__clock_id) __attribute__ ((__nothrow__ , __leaf__));




extern int timer_create (clockid_t __clock_id,
    struct sigevent *__restrict __evp,
    timer_t *__restrict __timerid) __attribute__ ((__nothrow__ , __leaf__));


extern int timer_delete (timer_t __timerid) __attribute__ ((__nothrow__ , __leaf__));


extern int timer_settime (timer_t __timerid, int __flags,
     const struct itimerspec *__restrict __value,
     struct itimerspec *__restrict __ovalue) __attribute__ ((__nothrow__ , __leaf__));


extern int timer_gettime (timer_t __timerid, struct itimerspec *__value)
     __attribute__ ((__nothrow__ , __leaf__));


extern int timer_getoverrun (timer_t __timerid) __attribute__ ((__nothrow__ , __leaf__));
# 430 "/usr/include/time.h" 3 4

# 25 "/usr/include/pthread.h" 2 3 4

# 1 "/usr/include/x86_64-linux-gnu/bits/pthreadtypes.h" 1 3 4
# 21 "/usr/include/x86_64-linux-gnu/bits/pthreadtypes.h" 3 4
# 1 "/usr/include/x86_64-linux-gnu/bits/wordsize.h" 1 3 4
# 22 "/usr/include/x86_64-linux-gnu/bits/pthreadtypes.h" 2 3 4
# 60 "/usr/include/x86_64-linux-gnu/bits/pthreadtypes.h" 3 4
typedef unsigned long int pthread_t;


union pthread_attr_t
{
  char __size[56];
  long int __align;
};

typedef union pthread_attr_t pthread_attr_t;





typedef struct __pthread_internal_list
{
  struct __pthread_internal_list *__prev;
  struct __pthread_internal_list *__next;
} __pthread_list_t;
# 90 "/usr/include/x86_64-linux-gnu/bits/pthreadtypes.h" 3 4
typedef union
{
  struct __pthread_mutex_s
  {
    int __lock;
    unsigned int __count;
    int __owner;

    unsigned int __nusers;



    int __kind;

    short __spins;
    short __elision;
    __pthread_list_t __list;
# 124 "/usr/include/x86_64-linux-gnu/bits/pthreadtypes.h" 3 4
  } __data;
  char __size[40];
  long int __align;
} pthread_mutex_t;

typedef union
{
  char __size[4];
  int __align;
} pthread_mutexattr_t;




typedef union
{
  struct
  {
    int __lock;
    unsigned int __futex;
    __extension__ unsigned long long int __total_seq;
    __extension__ unsigned long long int __wakeup_seq;
    __extension__ unsigned long long int __woken_seq;
    void *__mutex;
    unsigned int __nwaiters;
    unsigned int __broadcast_seq;
  } __data;
  char __size[48];
  __extension__ long long int __align;
} pthread_cond_t;

typedef union
{
  char __size[4];
  int __align;
} pthread_condattr_t;



typedef unsigned int pthread_key_t;



typedef int pthread_once_t;





typedef union
{

  struct
  {
    int __lock;
    unsigned int __nr_readers;
    unsigned int __readers_wakeup;
    unsigned int __writer_wakeup;
    unsigned int __nr_readers_queued;
    unsigned int __nr_writers_queued;
    int __writer;
    int __shared;
    unsigned long int __pad1;
    unsigned long int __pad2;


    unsigned int __flags;

  } __data;
# 211 "/usr/include/x86_64-linux-gnu/bits/pthreadtypes.h" 3 4
  char __size[56];
  long int __align;
} pthread_rwlock_t;

typedef union
{
  char __size[8];
  long int __align;
} pthread_rwlockattr_t;





typedef volatile int pthread_spinlock_t;




typedef union
{
  char __size[32];
  long int __align;
} pthread_barrier_t;

typedef union
{
  char __size[4];
  int __align;
} pthread_barrierattr_t;
# 27 "/usr/include/pthread.h" 2 3 4
# 1 "/usr/include/x86_64-linux-gnu/bits/setjmp.h" 1 3 4
# 26 "/usr/include/x86_64-linux-gnu/bits/setjmp.h" 3 4
# 1 "/usr/include/x86_64-linux-gnu/bits/wordsize.h" 1 3 4
# 27 "/usr/include/x86_64-linux-gnu/bits/setjmp.h" 2 3 4




typedef long int __jmp_buf[8];
# 28 "/usr/include/pthread.h" 2 3 4
# 1 "/usr/include/x86_64-linux-gnu/bits/wordsize.h" 1 3 4
# 29 "/usr/include/pthread.h" 2 3 4



enum
{
  PTHREAD_CREATE_JOINABLE,

  PTHREAD_CREATE_DETACHED

};



enum
{
  PTHREAD_MUTEX_TIMED_NP,
  PTHREAD_MUTEX_RECURSIVE_NP,
  PTHREAD_MUTEX_ERRORCHECK_NP,
  PTHREAD_MUTEX_ADAPTIVE_NP

  ,
  PTHREAD_MUTEX_NORMAL = PTHREAD_MUTEX_TIMED_NP,
  PTHREAD_MUTEX_RECURSIVE = PTHREAD_MUTEX_RECURSIVE_NP,
  PTHREAD_MUTEX_ERRORCHECK = PTHREAD_MUTEX_ERRORCHECK_NP,
  PTHREAD_MUTEX_DEFAULT = PTHREAD_MUTEX_NORMAL





};




enum
{
  PTHREAD_MUTEX_STALLED,
  PTHREAD_MUTEX_STALLED_NP = PTHREAD_MUTEX_STALLED,
  PTHREAD_MUTEX_ROBUST,
  PTHREAD_MUTEX_ROBUST_NP = PTHREAD_MUTEX_ROBUST
};





enum
{
  PTHREAD_PRIO_NONE,
  PTHREAD_PRIO_INHERIT,
  PTHREAD_PRIO_PROTECT
};
# 125 "/usr/include/pthread.h" 3 4
enum
{
  PTHREAD_RWLOCK_PREFER_READER_NP,
  PTHREAD_RWLOCK_PREFER_WRITER_NP,
  PTHREAD_RWLOCK_PREFER_WRITER_NONRECURSIVE_NP,
  PTHREAD_RWLOCK_DEFAULT_NP = PTHREAD_RWLOCK_PREFER_READER_NP
};
# 166 "/usr/include/pthread.h" 3 4
enum
{
  PTHREAD_INHERIT_SCHED,

  PTHREAD_EXPLICIT_SCHED

};



enum
{
  PTHREAD_SCOPE_SYSTEM,

  PTHREAD_SCOPE_PROCESS

};



enum
{
  PTHREAD_PROCESS_PRIVATE,

  PTHREAD_PROCESS_SHARED

};
# 201 "/usr/include/pthread.h" 3 4
struct _pthread_cleanup_buffer
{
  void (*__routine) (void *);
  void *__arg;
  int __canceltype;
  struct _pthread_cleanup_buffer *__prev;
};


enum
{
  PTHREAD_CANCEL_ENABLE,

  PTHREAD_CANCEL_DISABLE

};
enum
{
  PTHREAD_CANCEL_DEFERRED,

  PTHREAD_CANCEL_ASYNCHRONOUS

};
# 239 "/usr/include/pthread.h" 3 4





extern int pthread_create (pthread_t *__restrict __newthread,
      const pthread_attr_t *__restrict __attr,
      void *(*__start_routine) (void *),
      void *__restrict __arg) __attribute__ ((__nothrow__)) __attribute__ ((__nonnull__ (1, 3)));





extern void pthread_exit (void *__retval) __attribute__ ((__noreturn__));







extern int pthread_join (pthread_t __th, void **__thread_return);
# 282 "/usr/include/pthread.h" 3 4
extern int pthread_detach (pthread_t __th) __attribute__ ((__nothrow__ , __leaf__));



extern pthread_t pthread_self (void) __attribute__ ((__nothrow__ , __leaf__)) __attribute__ ((__const__));


extern int pthread_equal (pthread_t __thread1, pthread_t __thread2)
  __attribute__ ((__nothrow__ , __leaf__)) __attribute__ ((__const__));







extern int pthread_attr_init (pthread_attr_t *__attr) __attribute__ ((__nothrow__ , __leaf__)) __attribute__ ((__nonnull__ (1)));


extern int pthread_attr_destroy (pthread_attr_t *__attr)
     __attribute__ ((__nothrow__ , __leaf__)) __attribute__ ((__nonnull__ (1)));


extern int pthread_attr_getdetachstate (const pthread_attr_t *__attr,
     int *__detachstate)
     __attribute__ ((__nothrow__ , __leaf__)) __attribute__ ((__nonnull__ (1, 2)));


extern int pthread_attr_setdetachstate (pthread_attr_t *__attr,
     int __detachstate)
     __attribute__ ((__nothrow__ , __leaf__)) __attribute__ ((__nonnull__ (1)));



extern int pthread_attr_getguardsize (const pthread_attr_t *__attr,
          size_t *__guardsize)
     __attribute__ ((__nothrow__ , __leaf__)) __attribute__ ((__nonnull__ (1, 2)));


extern int pthread_attr_setguardsize (pthread_attr_t *__attr,
          size_t __guardsize)
     __attribute__ ((__nothrow__ , __leaf__)) __attribute__ ((__nonnull__ (1)));



extern int pthread_attr_getschedparam (const pthread_attr_t *__restrict __attr,
           struct sched_param *__restrict __param)
     __attribute__ ((__nothrow__ , __leaf__)) __attribute__ ((__nonnull__ (1, 2)));


extern int pthread_attr_setschedparam (pthread_attr_t *__restrict __attr,
           const struct sched_param *__restrict
           __param) __attribute__ ((__nothrow__ , __leaf__)) __attribute__ ((__nonnull__ (1, 2)));


extern int pthread_attr_getschedpolicy (const pthread_attr_t *__restrict
     __attr, int *__restrict __policy)
     __attribute__ ((__nothrow__ , __leaf__)) __attribute__ ((__nonnull__ (1, 2)));


extern int pthread_attr_setschedpolicy (pthread_attr_t *__attr, int __policy)
     __attribute__ ((__nothrow__ , __leaf__)) __attribute__ ((__nonnull__ (1)));


extern int pthread_attr_getinheritsched (const pthread_attr_t *__restrict
      __attr, int *__restrict __inherit)
     __attribute__ ((__nothrow__ , __leaf__)) __attribute__ ((__nonnull__ (1, 2)));


extern int pthread_attr_setinheritsched (pthread_attr_t *__attr,
      int __inherit)
     __attribute__ ((__nothrow__ , __leaf__)) __attribute__ ((__nonnull__ (1)));



extern int pthread_attr_getscope (const pthread_attr_t *__restrict __attr,
      int *__restrict __scope)
     __attribute__ ((__nothrow__ , __leaf__)) __attribute__ ((__nonnull__ (1, 2)));


extern int pthread_attr_setscope (pthread_attr_t *__attr, int __scope)
     __attribute__ ((__nothrow__ , __leaf__)) __attribute__ ((__nonnull__ (1)));


extern int pthread_attr_getstackaddr (const pthread_attr_t *__restrict
          __attr, void **__restrict __stackaddr)
     __attribute__ ((__nothrow__ , __leaf__)) __attribute__ ((__nonnull__ (1, 2))) __attribute__ ((__deprecated__));





extern int pthread_attr_setstackaddr (pthread_attr_t *__attr,
          void *__stackaddr)
     __attribute__ ((__nothrow__ , __leaf__)) __attribute__ ((__nonnull__ (1))) __attribute__ ((__deprecated__));


extern int pthread_attr_getstacksize (const pthread_attr_t *__restrict
          __attr, size_t *__restrict __stacksize)
     __attribute__ ((__nothrow__ , __leaf__)) __attribute__ ((__nonnull__ (1, 2)));




extern int pthread_attr_setstacksize (pthread_attr_t *__attr,
          size_t __stacksize)
     __attribute__ ((__nothrow__ , __leaf__)) __attribute__ ((__nonnull__ (1)));



extern int pthread_attr_getstack (const pthread_attr_t *__restrict __attr,
      void **__restrict __stackaddr,
      size_t *__restrict __stacksize)
     __attribute__ ((__nothrow__ , __leaf__)) __attribute__ ((__nonnull__ (1, 2, 3)));




extern int pthread_attr_setstack (pthread_attr_t *__attr, void *__stackaddr,
      size_t __stacksize) __attribute__ ((__nothrow__ , __leaf__)) __attribute__ ((__nonnull__ (1)));
# 440 "/usr/include/pthread.h" 3 4
extern int pthread_setschedparam (pthread_t __target_thread, int __policy,
      const struct sched_param *__param)
     __attribute__ ((__nothrow__ , __leaf__)) __attribute__ ((__nonnull__ (3)));


extern int pthread_getschedparam (pthread_t __target_thread,
      int *__restrict __policy,
      struct sched_param *__restrict __param)
     __attribute__ ((__nothrow__ , __leaf__)) __attribute__ ((__nonnull__ (2, 3)));


extern int pthread_setschedprio (pthread_t __target_thread, int __prio)
     __attribute__ ((__nothrow__ , __leaf__));
# 505 "/usr/include/pthread.h" 3 4
extern int pthread_once (pthread_once_t *__once_control,
    void (*__init_routine) (void)) __attribute__ ((__nonnull__ (1, 2)));
# 517 "/usr/include/pthread.h" 3 4
extern int pthread_setcancelstate (int __state, int *__oldstate);



extern int pthread_setcanceltype (int __type, int *__oldtype);


extern int pthread_cancel (pthread_t __th);




extern void pthread_testcancel (void);




typedef struct
{
  struct
  {
    __jmp_buf __cancel_jmp_buf;
    int __mask_was_saved;
  } __cancel_jmp_buf[1];
  void *__pad[4];
} __pthread_unwind_buf_t __attribute__ ((__aligned__));
# 551 "/usr/include/pthread.h" 3 4
struct __pthread_cleanup_frame
{
  void (*__cancel_routine) (void *);
  void *__cancel_arg;
  int __do_it;
  int __cancel_type;
};
# 691 "/usr/include/pthread.h" 3 4
extern void __pthread_register_cancel (__pthread_unwind_buf_t *__buf)
     ;
# 703 "/usr/include/pthread.h" 3 4
extern void __pthread_unregister_cancel (__pthread_unwind_buf_t *__buf)
  ;
# 744 "/usr/include/pthread.h" 3 4
extern void __pthread_unwind_next (__pthread_unwind_buf_t *__buf)
     __attribute__ ((__noreturn__))

     __attribute__ ((__weak__))

     ;



struct __jmp_buf_tag;
extern int __sigsetjmp (struct __jmp_buf_tag *__env, int __savemask) __attribute__ ((__nothrow__));





extern int pthread_mutex_init (pthread_mutex_t *__mutex,
          const pthread_mutexattr_t *__mutexattr)
     __attribute__ ((__nothrow__ , __leaf__)) __attribute__ ((__nonnull__ (1)));


extern int pthread_mutex_destroy (pthread_mutex_t *__mutex)
     __attribute__ ((__nothrow__ , __leaf__)) __attribute__ ((__nonnull__ (1)));


extern int pthread_mutex_trylock (pthread_mutex_t *__mutex)
     __attribute__ ((__nothrow__)) __attribute__ ((__nonnull__ (1)));


extern int pthread_mutex_lock (pthread_mutex_t *__mutex)
     __attribute__ ((__nothrow__)) __attribute__ ((__nonnull__ (1)));



extern int pthread_mutex_timedlock (pthread_mutex_t *__restrict __mutex,
        const struct timespec *__restrict
        __abstime) __attribute__ ((__nothrow__)) __attribute__ ((__nonnull__ (1, 2)));



extern int pthread_mutex_unlock (pthread_mutex_t *__mutex)
     __attribute__ ((__nothrow__)) __attribute__ ((__nonnull__ (1)));



extern int pthread_mutex_getprioceiling (const pthread_mutex_t *
      __restrict __mutex,
      int *__restrict __prioceiling)
     __attribute__ ((__nothrow__ , __leaf__)) __attribute__ ((__nonnull__ (1, 2)));



extern int pthread_mutex_setprioceiling (pthread_mutex_t *__restrict __mutex,
      int __prioceiling,
      int *__restrict __old_ceiling)
     __attribute__ ((__nothrow__ , __leaf__)) __attribute__ ((__nonnull__ (1, 3)));




extern int pthread_mutex_consistent (pthread_mutex_t *__mutex)
     __attribute__ ((__nothrow__ , __leaf__)) __attribute__ ((__nonnull__ (1)));
# 817 "/usr/include/pthread.h" 3 4
extern int pthread_mutexattr_init (pthread_mutexattr_t *__attr)
     __attribute__ ((__nothrow__ , __leaf__)) __attribute__ ((__nonnull__ (1)));


extern int pthread_mutexattr_destroy (pthread_mutexattr_t *__attr)
     __attribute__ ((__nothrow__ , __leaf__)) __attribute__ ((__nonnull__ (1)));


extern int pthread_mutexattr_getpshared (const pthread_mutexattr_t *
      __restrict __attr,
      int *__restrict __pshared)
     __attribute__ ((__nothrow__ , __leaf__)) __attribute__ ((__nonnull__ (1, 2)));


extern int pthread_mutexattr_setpshared (pthread_mutexattr_t *__attr,
      int __pshared)
     __attribute__ ((__nothrow__ , __leaf__)) __attribute__ ((__nonnull__ (1)));



extern int pthread_mutexattr_gettype (const pthread_mutexattr_t *__restrict
          __attr, int *__restrict __kind)
     __attribute__ ((__nothrow__ , __leaf__)) __attribute__ ((__nonnull__ (1, 2)));




extern int pthread_mutexattr_settype (pthread_mutexattr_t *__attr, int __kind)
     __attribute__ ((__nothrow__ , __leaf__)) __attribute__ ((__nonnull__ (1)));



extern int pthread_mutexattr_getprotocol (const pthread_mutexattr_t *
       __restrict __attr,
       int *__restrict __protocol)
     __attribute__ ((__nothrow__ , __leaf__)) __attribute__ ((__nonnull__ (1, 2)));



extern int pthread_mutexattr_setprotocol (pthread_mutexattr_t *__attr,
       int __protocol)
     __attribute__ ((__nothrow__ , __leaf__)) __attribute__ ((__nonnull__ (1)));


extern int pthread_mutexattr_getprioceiling (const pthread_mutexattr_t *
          __restrict __attr,
          int *__restrict __prioceiling)
     __attribute__ ((__nothrow__ , __leaf__)) __attribute__ ((__nonnull__ (1, 2)));


extern int pthread_mutexattr_setprioceiling (pthread_mutexattr_t *__attr,
          int __prioceiling)
     __attribute__ ((__nothrow__ , __leaf__)) __attribute__ ((__nonnull__ (1)));



extern int pthread_mutexattr_getrobust (const pthread_mutexattr_t *__attr,
     int *__robustness)
     __attribute__ ((__nothrow__ , __leaf__)) __attribute__ ((__nonnull__ (1, 2)));







extern int pthread_mutexattr_setrobust (pthread_mutexattr_t *__attr,
     int __robustness)
     __attribute__ ((__nothrow__ , __leaf__)) __attribute__ ((__nonnull__ (1)));
# 899 "/usr/include/pthread.h" 3 4
extern int pthread_rwlock_init (pthread_rwlock_t *__restrict __rwlock,
    const pthread_rwlockattr_t *__restrict
    __attr) __attribute__ ((__nothrow__ , __leaf__)) __attribute__ ((__nonnull__ (1)));


extern int pthread_rwlock_destroy (pthread_rwlock_t *__rwlock)
     __attribute__ ((__nothrow__ , __leaf__)) __attribute__ ((__nonnull__ (1)));


extern int pthread_rwlock_rdlock (pthread_rwlock_t *__rwlock)
     __attribute__ ((__nothrow__)) __attribute__ ((__nonnull__ (1)));


extern int pthread_rwlock_tryrdlock (pthread_rwlock_t *__rwlock)
  __attribute__ ((__nothrow__)) __attribute__ ((__nonnull__ (1)));



extern int pthread_rwlock_timedrdlock (pthread_rwlock_t *__restrict __rwlock,
           const struct timespec *__restrict
           __abstime) __attribute__ ((__nothrow__)) __attribute__ ((__nonnull__ (1, 2)));



extern int pthread_rwlock_wrlock (pthread_rwlock_t *__rwlock)
     __attribute__ ((__nothrow__)) __attribute__ ((__nonnull__ (1)));


extern int pthread_rwlock_trywrlock (pthread_rwlock_t *__rwlock)
     __attribute__ ((__nothrow__)) __attribute__ ((__nonnull__ (1)));



extern int pthread_rwlock_timedwrlock (pthread_rwlock_t *__restrict __rwlock,
           const struct timespec *__restrict
           __abstime) __attribute__ ((__nothrow__)) __attribute__ ((__nonnull__ (1, 2)));



extern int pthread_rwlock_unlock (pthread_rwlock_t *__rwlock)
     __attribute__ ((__nothrow__)) __attribute__ ((__nonnull__ (1)));





extern int pthread_rwlockattr_init (pthread_rwlockattr_t *__attr)
     __attribute__ ((__nothrow__ , __leaf__)) __attribute__ ((__nonnull__ (1)));


extern int pthread_rwlockattr_destroy (pthread_rwlockattr_t *__attr)
     __attribute__ ((__nothrow__ , __leaf__)) __attribute__ ((__nonnull__ (1)));


extern int pthread_rwlockattr_getpshared (const pthread_rwlockattr_t *
       __restrict __attr,
       int *__restrict __pshared)
     __attribute__ ((__nothrow__ , __leaf__)) __attribute__ ((__nonnull__ (1, 2)));


extern int pthread_rwlockattr_setpshared (pthread_rwlockattr_t *__attr,
       int __pshared)
     __attribute__ ((__nothrow__ , __leaf__)) __attribute__ ((__nonnull__ (1)));


extern int pthread_rwlockattr_getkind_np (const pthread_rwlockattr_t *
       __restrict __attr,
       int *__restrict __pref)
     __attribute__ ((__nothrow__ , __leaf__)) __attribute__ ((__nonnull__ (1, 2)));


extern int pthread_rwlockattr_setkind_np (pthread_rwlockattr_t *__attr,
       int __pref) __attribute__ ((__nothrow__ , __leaf__)) __attribute__ ((__nonnull__ (1)));







extern int pthread_cond_init (pthread_cond_t *__restrict __cond,
         const pthread_condattr_t *__restrict __cond_attr)
     __attribute__ ((__nothrow__ , __leaf__)) __attribute__ ((__nonnull__ (1)));


extern int pthread_cond_destroy (pthread_cond_t *__cond)
     __attribute__ ((__nothrow__ , __leaf__)) __attribute__ ((__nonnull__ (1)));


extern int pthread_cond_signal (pthread_cond_t *__cond)
     __attribute__ ((__nothrow__)) __attribute__ ((__nonnull__ (1)));


extern int pthread_cond_broadcast (pthread_cond_t *__cond)
     __attribute__ ((__nothrow__)) __attribute__ ((__nonnull__ (1)));






extern int pthread_cond_wait (pthread_cond_t *__restrict __cond,
         pthread_mutex_t *__restrict __mutex)
     __attribute__ ((__nonnull__ (1, 2)));
# 1011 "/usr/include/pthread.h" 3 4
extern int pthread_cond_timedwait (pthread_cond_t *__restrict __cond,
       pthread_mutex_t *__restrict __mutex,
       const struct timespec *__restrict __abstime)
     __attribute__ ((__nonnull__ (1, 2, 3)));




extern int pthread_condattr_init (pthread_condattr_t *__attr)
     __attribute__ ((__nothrow__ , __leaf__)) __attribute__ ((__nonnull__ (1)));


extern int pthread_condattr_destroy (pthread_condattr_t *__attr)
     __attribute__ ((__nothrow__ , __leaf__)) __attribute__ ((__nonnull__ (1)));


extern int pthread_condattr_getpshared (const pthread_condattr_t *
     __restrict __attr,
     int *__restrict __pshared)
     __attribute__ ((__nothrow__ , __leaf__)) __attribute__ ((__nonnull__ (1, 2)));


extern int pthread_condattr_setpshared (pthread_condattr_t *__attr,
     int __pshared) __attribute__ ((__nothrow__ , __leaf__)) __attribute__ ((__nonnull__ (1)));



extern int pthread_condattr_getclock (const pthread_condattr_t *
          __restrict __attr,
          __clockid_t *__restrict __clock_id)
     __attribute__ ((__nothrow__ , __leaf__)) __attribute__ ((__nonnull__ (1, 2)));


extern int pthread_condattr_setclock (pthread_condattr_t *__attr,
          __clockid_t __clock_id)
     __attribute__ ((__nothrow__ , __leaf__)) __attribute__ ((__nonnull__ (1)));
# 1055 "/usr/include/pthread.h" 3 4
extern int pthread_spin_init (pthread_spinlock_t *__lock, int __pshared)
     __attribute__ ((__nothrow__ , __leaf__)) __attribute__ ((__nonnull__ (1)));


extern int pthread_spin_destroy (pthread_spinlock_t *__lock)
     __attribute__ ((__nothrow__ , __leaf__)) __attribute__ ((__nonnull__ (1)));


extern int pthread_spin_lock (pthread_spinlock_t *__lock)
     __attribute__ ((__nothrow__)) __attribute__ ((__nonnull__ (1)));


extern int pthread_spin_trylock (pthread_spinlock_t *__lock)
     __attribute__ ((__nothrow__)) __attribute__ ((__nonnull__ (1)));


extern int pthread_spin_unlock (pthread_spinlock_t *__lock)
     __attribute__ ((__nothrow__)) __attribute__ ((__nonnull__ (1)));






extern int pthread_barrier_init (pthread_barrier_t *__restrict __barrier,
     const pthread_barrierattr_t *__restrict
     __attr, unsigned int __count)
     __attribute__ ((__nothrow__ , __leaf__)) __attribute__ ((__nonnull__ (1)));


extern int pthread_barrier_destroy (pthread_barrier_t *__barrier)
     __attribute__ ((__nothrow__ , __leaf__)) __attribute__ ((__nonnull__ (1)));


extern int pthread_barrier_wait (pthread_barrier_t *__barrier)
     __attribute__ ((__nothrow__)) __attribute__ ((__nonnull__ (1)));



extern int pthread_barrierattr_init (pthread_barrierattr_t *__attr)
     __attribute__ ((__nothrow__ , __leaf__)) __attribute__ ((__nonnull__ (1)));


extern int pthread_barrierattr_destroy (pthread_barrierattr_t *__attr)
     __attribute__ ((__nothrow__ , __leaf__)) __attribute__ ((__nonnull__ (1)));


extern int pthread_barrierattr_getpshared (const pthread_barrierattr_t *
        __restrict __attr,
        int *__restrict __pshared)
     __attribute__ ((__nothrow__ , __leaf__)) __attribute__ ((__nonnull__ (1, 2)));


extern int pthread_barrierattr_setpshared (pthread_barrierattr_t *__attr,
        int __pshared)
     __attribute__ ((__nothrow__ , __leaf__)) __attribute__ ((__nonnull__ (1)));
# 1122 "/usr/include/pthread.h" 3 4
extern int pthread_key_create (pthread_key_t *__key,
          void (*__destr_function) (void *))
     __attribute__ ((__nothrow__ , __leaf__)) __attribute__ ((__nonnull__ (1)));


extern int pthread_key_delete (pthread_key_t __key) __attribute__ ((__nothrow__ , __leaf__));


extern void *pthread_getspecific (pthread_key_t __key) __attribute__ ((__nothrow__ , __leaf__));


extern int pthread_setspecific (pthread_key_t __key,
    const void *__pointer) __attribute__ ((__nothrow__ , __leaf__)) ;




extern int pthread_getcpuclockid (pthread_t __thread_id,
      __clockid_t *__clock_id)
     __attribute__ ((__nothrow__ , __leaf__)) __attribute__ ((__nonnull__ (2)));
# 1156 "/usr/include/pthread.h" 3 4
extern int pthread_atfork (void (*__prepare) (void),
      void (*__parent) (void),
      void (*__child) (void)) __attribute__ ((__nothrow__ , __leaf__));
# 1170 "/usr/include/pthread.h" 3 4

# 11 "rectangle.c" 2
# 20 "rectangle.c"
int main(void) {
    int e1, a12, e2, a23, e3;
    __CrestInt(&e1);
    __CrestInt(&a12);
    __CrestInt(&e2);
    __CrestInt(&a23);
    __CrestInt(&e3);

    if (e1 <= 0) {
        fprintf(stderr, "NOT A QUADRILATERAL\n");
        return 1;
 } else if (e2 <= 0) {
        fprintf(stderr, "NOT A QUADRILATERAL\n");
        return 1;
 } else if (e3 <= 0) {
        fprintf(stderr, "NOT A QUADRILATERAL\n");
        return 1;
 } else if (a12 <= 0) {
        fprintf(stderr, "NOT A QUADRILATERAL\n");
        return 1;
 } else if (a23 <= 0) {
        fprintf(stderr, "NOT A QUADRILATERAL\n");
        return 1;
 } else {
  if (a12 + a23 > 360) {
   fprintf(stderr, "NOT A QUADRILATERAL\n");
   return 1;
  } else {
   if (a12 + a23 == 180) {
    if (e1 == e3) {
     if (e2 == e3) {
      if (a12 == 90) {
       fprintf(stderr, "SQUARE\n");
       return 0;
      } else {
       fprintf(stderr, "RHOMBUS\n");
       return 0;
      }
     } else {
      fprintf(stderr, "PARALLELOGRAM\n");
      return 0;
     }
    } else {
     fprintf(stderr, "TRAPEZOID\n");
     return 0;
    }
   } else {
    fprintf(stderr, "QUADRILATERAL\n");
    return 0;
   }
  }
 }
}
