        -:    0:Source:rectangle_cov.c
        -:    0:Graph:rectangle_cov.gcno
        -:    0:Data:rectangle_cov.gcda
        -:    0:Runs:10
        -:    0:Programs:1
        -:    1:/* Author: Yavuz Köroğlu
        -:    2: * Date: 2014 
        -:    3: *
        -:    4: * Categorizes a quadrilateral.
        -:    5: * 
        -:    6: */
        -:    7:
        -:    8:#include <crest.h>
        -:    9:#include <stdio.h>
        -:   10:#include <pthread.h>
        -:   11:
        -:   12:#define not_a_quadrilateral  "NOT A QUADRILATERAL\n"
        -:   13:#define square 			     "SQUARE\n"
        -:   14:#define rectangle 			 "RECTANGLE\n"
        -:   15:#define parallelogram      	 "PARALLELOGRAM\n"
        -:   16:#define trapezoid		   	 "TRAPEZOID\n"
        -:   17:#define quadrilateral        "QUADRILATERAL\n"
        -:   18:#define rhombus         	 "RHOMBUS\n"
        -:   19:
function main called 10 returned 100% blocks executed 94%
       10:   20:int main(int argc, char *argv[]) {
        -:   21:    int e1, a12, e2, a23, e3;
       10:   22:	sscanf(argv[1], "%d", &e1);
       10:   23:	sscanf(argv[2], "%d", &a12);
       10:   24:	sscanf(argv[3], "%d", &e2);
       10:   25:	sscanf(argv[4], "%d", &a23);
       10:   26:	sscanf(argv[5], "%d", &e3);
        -:   27:    
       10:   28:	fprintf(stderr,"%d,%d,%d,%d,%d\n", e1,a12,e2,a23,e3);
call    0 returned 100%
        -:   29:    
       10:   30:    if (e1 <= 0) {
branch  0 taken 10% (fallthrough)
branch  1 taken 90%
        1:   31:        fprintf(stderr, not_a_quadrilateral);
call    0 returned 100%
        1:   32:        return 1;
        9:   33:	} else if (e2 <= 0) {
branch  0 taken 11% (fallthrough)
branch  1 taken 89%
        1:   34:        fprintf(stderr, not_a_quadrilateral);
call    0 returned 100%
        1:   35:        return 1;
        8:   36:	} else if (e3 <= 0) {
branch  0 taken 13% (fallthrough)
branch  1 taken 88%
        1:   37:        fprintf(stderr, not_a_quadrilateral);
call    0 returned 100%
        1:   38:        return 1;
        7:   39:	} else if (a12 <= 0) {
branch  0 taken 14% (fallthrough)
branch  1 taken 86%
        1:   40:        fprintf(stderr, not_a_quadrilateral);
call    0 returned 100%
        1:   41:        return 1;
        6:   42:	} else if (a23 <= 0) {
branch  0 taken 17% (fallthrough)
branch  1 taken 83%
        1:   43:        fprintf(stderr, not_a_quadrilateral);
call    0 returned 100%
        1:   44:        return 1;
        -:   45:	} else {		
        5:   46:		if (a12 + a23 > 360) {
branch  0 taken 0% (fallthrough)
branch  1 taken 100%
    #####:   47:			fprintf(stderr, not_a_quadrilateral);
call    0 never executed
    #####:   48:			return 1;
        -:   49:		} else {
        5:   50:			if (a12 + a23 == 180) {
branch  0 taken 80% (fallthrough)
branch  1 taken 20%
        4:   51:				if (e1 == e3) {
branch  0 taken 75% (fallthrough)
branch  1 taken 25%
        3:   52:					if (e2 == e3) {
branch  0 taken 67% (fallthrough)
branch  1 taken 33%
        2:   53:						if (a12 == 90) {
branch  0 taken 50% (fallthrough)
branch  1 taken 50%
        1:   54:							fprintf(stderr, square);
call    0 returned 100%
        1:   55:							return 0;
        -:   56:						} else {
        1:   57:							fprintf(stderr, rhombus);
call    0 returned 100%
        1:   58:							return 0;							
        -:   59:						}
        -:   60:					} else {
        1:   61:						fprintf(stderr, parallelogram);
call    0 returned 100%
        1:   62:						return 0;
        -:   63:					}
        -:   64:				} else {
        1:   65:					fprintf(stderr, trapezoid);
call    0 returned 100%
        1:   66:					return 0;					
        -:   67:				}
        -:   68:			} else {
        1:   69:				fprintf(stderr, quadrilateral);
call    0 returned 100%
        1:   70:				return 0;					
        -:   71:			}
        -:   72:		}
        -:   73:	}
        -:   74:}
