# 1 "./replace.cil.c"
# 1 "/home/yavuz/crest-ppc3/test//"
# 1 "<command-line>"
# 1 "/usr/include/stdc-predef.h" 1 3 4
# 1 "<command-line>" 2
# 1 "./replace.cil.c"
# 553 "replace.c"
void __globinit_replace(void) ;
extern void __CrestInit(void) __attribute__((__crest_skip__)) ;
extern void __CrestHandleReturn(int id , long long val ) __attribute__((__crest_skip__)) ;
extern void __CrestReturn(int id ) __attribute__((__crest_skip__)) ;
extern void __CrestCall(int id , unsigned int fid ) __attribute__((__crest_skip__)) ;
extern void __CrestBranch(int id , int bid , unsigned char b ) __attribute__((__crest_skip__)) ;
extern void __CrestApply2(int id , int op , long long val ) __attribute__((__crest_skip__)) ;
extern void __CrestApply1(int id , int op , long long val ) __attribute__((__crest_skip__)) ;
extern void __CrestClearStack(int id ) __attribute__((__crest_skip__)) ;
extern void __CrestStore(int id , unsigned long addr ) __attribute__((__crest_skip__)) ;
extern void __CrestLoad(int id , unsigned long addr , long long val ) __attribute__((__crest_skip__)) ;
# 131 "/usr/include/x86_64-linux-gnu/bits/types.h"
typedef long __off_t;
# 132 "/usr/include/x86_64-linux-gnu/bits/types.h"
typedef long __off64_t;
# 212 "/usr/lib/gcc/x86_64-linux-gnu/4.8/include/stddef.h"
typedef unsigned long size_t;
# 44 "/usr/include/stdio.h"
struct _IO_FILE;
# 44 "/usr/include/stdio.h"
struct _IO_FILE;
# 48 "/usr/include/stdio.h"
typedef struct _IO_FILE FILE;
# 144 "/usr/include/libio.h"
struct _IO_FILE;
# 154 "/usr/include/libio.h"
typedef void _IO_lock_t;
# 160 "/usr/include/libio.h"
struct _IO_marker {
   struct _IO_marker *_next ;
   struct _IO_FILE *_sbuf ;
   int _pos ;
};
# 245 "/usr/include/libio.h"
struct _IO_FILE {
   int _flags ;
   char *_IO_read_ptr ;
   char *_IO_read_end ;
   char *_IO_read_base ;
   char *_IO_write_base ;
   char *_IO_write_ptr ;
   char *_IO_write_end ;
   char *_IO_buf_base ;
   char *_IO_buf_end ;
   char *_IO_save_base ;
   char *_IO_backup_base ;
   char *_IO_save_end ;
   struct _IO_marker *_markers ;
   struct _IO_FILE *_chain ;
   int _fileno ;
   int _flags2 ;
   __off_t _old_offset ;
   unsigned short _cur_column ;
   signed char _vtable_offset ;
   char _shortbuf[1] ;
   _IO_lock_t *_lock ;
   __off64_t _offset ;
   void *__pad1 ;
   void *__pad2 ;
   void *__pad3 ;
   void *__pad4 ;
   size_t __pad5 ;
   int _mode ;
   char _unused2[(15UL * sizeof(int ) - 4UL * sizeof(void *)) - sizeof(size_t )] ;
};
# 12 "replace.c"
typedef char bool;
# 41 "replace.c"
typedef char character;
# 42 "replace.c"
typedef char string[100];
# 79 "/usr/include/ctype.h"
extern __attribute__((__nothrow__)) unsigned short const **( __attribute__((__leaf__)) __ctype_b_loc)(void) __attribute__((__const__)) ;
# 169 "/usr/include/stdio.h"
extern struct _IO_FILE *stdout ;
# 356 "/usr/include/stdio.h"
extern int fprintf(FILE * __restrict __stream , char const * __restrict __format
                   , ...) ;
# 573 "/usr/include/stdio.h"
extern int fputc(int __c , FILE *__stream ) ;
# 515 "/usr/include/stdlib.h"
extern __attribute__((__nothrow__, __noreturn__)) void ( __attribute__((__leaf__)) abort)(void) ;
# 543 "/usr/include/stdlib.h"
extern __attribute__((__nothrow__, __noreturn__)) void ( __attribute__((__leaf__)) exit)(int __status ) ;
# 200 "../bin/../include/crest.h"
extern void __CrestChar(char *x ) __attribute__((__crest_skip__)) ;
# 10 "replace.c"
void Caseerror(int n ) ;
# 44 "replace.c"
bool getline2(char *s , int maxsize )
{
  char *mem_4 ;
  bool __retres5 ;

  {
  __CrestCall(2, 1);
  __CrestStore(1, (unsigned long )(& maxsize));
# 57 "replace.c"
  __CrestChar(s + 0);
# 58 "replace.c"
  __CrestChar(s + 1);
# 59 "replace.c"
  __CrestChar(s + 2);
# 60 "replace.c"
  __CrestChar(s + 3);
# 61 "replace.c"
  __CrestChar(s + 4);
# 62 "replace.c"
  __CrestChar(s + 5);
# 63 "replace.c"
  __CrestChar(s + 6);
# 64 "replace.c"
  __CrestChar(s + 7);
# 65 "replace.c"
  __CrestChar(s + 8);
# 66 "replace.c"
  __CrestChar(s + 9);
# 67 "replace.c"
  __CrestChar(s + 10);
# 68 "replace.c"
  __CrestChar(s + 11);
# 69 "replace.c"
  __CrestChar(s + 12);
# 70 "replace.c"
  __CrestChar(s + 13);
# 71 "replace.c"
  __CrestChar(s + 14);
# 72 "replace.c"
  __CrestChar(s + 15);
# 73 "replace.c"
  __CrestChar(s + 16);
# 74 "replace.c"
  __CrestChar(s + 17);
# 75 "replace.c"
  __CrestChar(s + 18);
# 77 "replace.c"
  mem_4 = s + 19;
  __CrestLoad(3, (unsigned long )0, (long long )((char )'\000'));
  __CrestStore(4, (unsigned long )mem_4);
# 77 "replace.c"
  *mem_4 = (char )'\000';
  __CrestLoad(5, (unsigned long )0, (long long )((bool )1));
  __CrestStore(6, (unsigned long )(& __retres5));
# 78 "replace.c"
  __retres5 = (bool )1;
  {
  __CrestLoad(7, (unsigned long )(& __retres5), (long long )__retres5);
  __CrestReturn(8);
# 44 "replace.c"
  return (__retres5);
  }
}
}
# 81 "replace.c"
int addstr(char c , char *outset , int *j , int maxset )
{
  bool result ;
  char *mem_6 ;
  int __retres7 ;

  {
  __CrestCall(11, 2);
  __CrestStore(10, (unsigned long )(& maxset));
  __CrestStore(9, (unsigned long )(& c));
  {
  __CrestLoad(14, (unsigned long )j, (long long )*j);
  __CrestLoad(13, (unsigned long )(& maxset), (long long )maxset);
  __CrestApply2(12, 17, (long long )(*j >= maxset));
# 89 "replace.c"
  if (*j >= maxset) {
    __CrestBranch(15, 5, 1);
    __CrestLoad(17, (unsigned long )0, (long long )((bool )0));
    __CrestStore(18, (unsigned long )(& result));
# 90 "replace.c"
    result = (bool )0;
  } else {
    __CrestBranch(16, 6, 0);
# 92 "replace.c"
    mem_6 = outset + *j;
    __CrestLoad(19, (unsigned long )(& c), (long long )c);
    __CrestStore(20, (unsigned long )mem_6);
# 92 "replace.c"
    *mem_6 = c;
    __CrestLoad(23, (unsigned long )j, (long long )*j);
    __CrestLoad(22, (unsigned long )0, (long long )1);
    __CrestApply2(21, 0, (long long )(*j + 1));
    __CrestStore(24, (unsigned long )j);
# 93 "replace.c"
    (*j) ++;
    __CrestLoad(25, (unsigned long )0, (long long )((bool )1));
    __CrestStore(26, (unsigned long )(& result));
# 94 "replace.c"
    result = (bool )1;
  }
  }
  __CrestLoad(27, (unsigned long )(& result), (long long )result);
  __CrestStore(28, (unsigned long )(& __retres7));
# 96 "replace.c"
  __retres7 = (int )result;
  {
  __CrestLoad(29, (unsigned long )(& __retres7), (long long )__retres7);
  __CrestReturn(30);
# 81 "replace.c"
  return (__retres7);
  }
}
}
# 99 "replace.c"
char esc(char *s , int *i )
{
  char result ;
  char *mem_4 ;
  char *mem_5 ;
  char *mem_6 ;
  char *mem_7 ;
  char *mem_8 ;
  char *mem_9 ;

  {
  __CrestCall(31, 3);

  {
# 105 "replace.c"
  mem_4 = s + *i;
  {
  __CrestLoad(34, (unsigned long )mem_4, (long long )*mem_4);
  __CrestLoad(33, (unsigned long )0, (long long )64);
  __CrestApply2(32, 13, (long long )((int )*mem_4 != 64));
# 105 "replace.c"
  if ((int )*mem_4 != 64) {
    __CrestBranch(35, 12, 1);
# 106 "replace.c"
    mem_5 = s + *i;
    __CrestLoad(37, (unsigned long )mem_5, (long long )*mem_5);
    __CrestStore(38, (unsigned long )(& result));
# 106 "replace.c"
    result = *mem_5;
  } else {
    __CrestBranch(36, 13, 0);
    {
# 108 "replace.c"
    mem_6 = s + (*i + 1);
    {
    __CrestLoad(41, (unsigned long )mem_6, (long long )*mem_6);
    __CrestLoad(40, (unsigned long )0, (long long )0);
    __CrestApply2(39, 12, (long long )((int )*mem_6 == 0));
# 108 "replace.c"
    if ((int )*mem_6 == 0) {
      __CrestBranch(42, 16, 1);
      __CrestLoad(44, (unsigned long )0, (long long )((char )'@'));
      __CrestStore(45, (unsigned long )(& result));
# 109 "replace.c"
      result = (char )'@';
    } else {
      __CrestBranch(43, 17, 0);
      __CrestLoad(48, (unsigned long )i, (long long )*i);
      __CrestLoad(47, (unsigned long )0, (long long )1);
      __CrestApply2(46, 0, (long long )(*i + 1));
      __CrestStore(49, (unsigned long )i);
# 112 "replace.c"
      (*i) ++;
      {
# 113 "replace.c"
      mem_7 = s + *i;
      {
      __CrestLoad(52, (unsigned long )mem_7, (long long )*mem_7);
      __CrestLoad(51, (unsigned long )0, (long long )110);
      __CrestApply2(50, 12, (long long )((int )*mem_7 == 110));
# 113 "replace.c"
      if ((int )*mem_7 == 110) {
        __CrestBranch(53, 21, 1);
        __CrestLoad(55, (unsigned long )0, (long long )(char)10);
        __CrestStore(56, (unsigned long )(& result));
# 114 "replace.c"
        result = (char)10;
      } else {
        __CrestBranch(54, 22, 0);
        {
# 116 "replace.c"
        mem_8 = s + *i;
        {
        __CrestLoad(59, (unsigned long )mem_8, (long long )*mem_8);
        __CrestLoad(58, (unsigned long )0, (long long )116);
        __CrestApply2(57, 12, (long long )((int )*mem_8 == 116));
# 116 "replace.c"
        if ((int )*mem_8 == 116) {
          __CrestBranch(60, 25, 1);
          __CrestLoad(62, (unsigned long )0, (long long )(char)9);
          __CrestStore(63, (unsigned long )(& result));
# 117 "replace.c"
          result = (char)9;
        } else {
          __CrestBranch(61, 26, 0);
# 119 "replace.c"
          mem_9 = s + *i;
          __CrestLoad(64, (unsigned long )mem_9, (long long )*mem_9);
          __CrestStore(65, (unsigned long )(& result));
# 119 "replace.c"
          result = *mem_9;
        }
        }
        }
      }
      }
      }
    }
    }
    }
  }
  }
  }
  {
  __CrestLoad(66, (unsigned long )(& result), (long long )result);
  __CrestReturn(67);
# 121 "replace.c"
  return (result);
  }
}
}
# 124 "replace.c"
void change(char *pat , char *sub ) ;
# 126 "replace.c"
void dodash(char delim , char *src , int *i , char *dest , int *j , int maxset )
{
  int k ;
  bool junk ;
  char escjunk ;
  int tmp ;
  int tmp___0 ;
  int tmp___1 ;
  int tmp___2 ;
  int tmp___3 ;
  unsigned short const **tmp___4 ;
  unsigned short const **tmp___5 ;
  char *mem_17 ;
  char *mem_18 ;
  char *mem_19 ;
  char *mem_20 ;
  char *mem_21 ;
  char *mem_22 ;
  char *mem_23 ;
  unsigned short const *mem_24 ;
  char *mem_25 ;
  unsigned short const *mem_26 ;
  char *mem_27 ;
  char *mem_28 ;
  char *mem_29 ;
  char *mem_30 ;

  {
  __CrestCall(70, 4);
  __CrestStore(69, (unsigned long )(& maxset));
  __CrestStore(68, (unsigned long )(& delim));
  {
# 139 "replace.c"
  while (1) {
    while_continue: ;
    {
# 139 "replace.c"
    mem_17 = src + *i;
    {
    __CrestLoad(73, (unsigned long )mem_17, (long long )*mem_17);
    __CrestLoad(72, (unsigned long )(& delim), (long long )delim);
    __CrestApply2(71, 13, (long long )((int )*mem_17 != (int )delim));
# 139 "replace.c"
    if ((int )*mem_17 != (int )delim) {
      __CrestBranch(74, 34, 1);
      {
# 139 "replace.c"
      mem_18 = src + *i;
      {
      __CrestLoad(78, (unsigned long )mem_18, (long long )*mem_18);
      __CrestLoad(77, (unsigned long )0, (long long )0);
      __CrestApply2(76, 13, (long long )((int )*mem_18 != 0));
# 139 "replace.c"
      if ((int )*mem_18 != 0) {
        __CrestBranch(79, 37, 1);

      } else {
        __CrestBranch(80, 38, 0);
# 139 "replace.c"
        goto while_break;
      }
      }
      }
    } else {
      __CrestBranch(75, 39, 0);
# 139 "replace.c"
      goto while_break;
    }
    }
    }
    {
# 141 "replace.c"
    mem_19 = src + (*i - 1);
    {
    __CrestLoad(83, (unsigned long )mem_19, (long long )*mem_19);
    __CrestLoad(82, (unsigned long )0, (long long )64);
    __CrestApply2(81, 12, (long long )((int )*mem_19 == 64));
# 141 "replace.c"
    if ((int )*mem_19 == 64) {
      __CrestBranch(84, 43, 1);
# 142 "replace.c"
      escjunk = esc(src, i);
      __CrestHandleReturn(87, (long long )escjunk);
      __CrestStore(86, (unsigned long )(& escjunk));
      __CrestLoad(88, (unsigned long )(& escjunk), (long long )escjunk);
      __CrestLoad(89, (unsigned long )(& maxset), (long long )maxset);
# 143 "replace.c"
      tmp = addstr(escjunk, dest, j, maxset);
      __CrestHandleReturn(91, (long long )tmp);
      __CrestStore(90, (unsigned long )(& tmp));
      __CrestLoad(92, (unsigned long )(& tmp), (long long )tmp);
      __CrestStore(93, (unsigned long )(& junk));
# 143 "replace.c"
      junk = (bool )tmp;
    } else {
      __CrestBranch(85, 44, 0);
      {
# 145 "replace.c"
      mem_20 = src + *i;
      {
      __CrestLoad(96, (unsigned long )mem_20, (long long )*mem_20);
      __CrestLoad(95, (unsigned long )0, (long long )45);
      __CrestApply2(94, 13, (long long )((int )*mem_20 != 45));
# 145 "replace.c"
      if ((int )*mem_20 != 45) {
        __CrestBranch(97, 47, 1);
# 146 "replace.c"
        mem_21 = src + *i;
        __CrestLoad(99, (unsigned long )mem_21, (long long )*mem_21);
        __CrestLoad(100, (unsigned long )(& maxset), (long long )maxset);
# 146 "replace.c"
        tmp___0 = addstr(*mem_21, dest, j, maxset);
        __CrestHandleReturn(102, (long long )tmp___0);
        __CrestStore(101, (unsigned long )(& tmp___0));
        __CrestLoad(103, (unsigned long )(& tmp___0), (long long )tmp___0);
        __CrestStore(104, (unsigned long )(& junk));
# 146 "replace.c"
        junk = (bool )tmp___0;
      } else {
        __CrestBranch(98, 48, 0);
        {
        __CrestLoad(107, (unsigned long )j, (long long )*j);
        __CrestLoad(106, (unsigned long )0, (long long )1);
        __CrestApply2(105, 15, (long long )(*j <= 1));
# 147 "replace.c"
        if (*j <= 1) {
          __CrestBranch(108, 49, 1);
          __CrestLoad(110, (unsigned long )0, (long long )((char )'-'));
          __CrestLoad(111, (unsigned long )(& maxset), (long long )maxset);
# 148 "replace.c"
          tmp___1 = addstr((char )'-', dest, j, maxset);
          __CrestHandleReturn(113, (long long )tmp___1);
          __CrestStore(112, (unsigned long )(& tmp___1));
          __CrestLoad(114, (unsigned long )(& tmp___1), (long long )tmp___1);
          __CrestStore(115, (unsigned long )(& junk));
# 148 "replace.c"
          junk = (bool )tmp___1;
        } else {
          __CrestBranch(109, 50, 0);
          {
# 147 "replace.c"
          mem_22 = src + (*i + 1);
          {
          __CrestLoad(118, (unsigned long )mem_22, (long long )*mem_22);
          __CrestLoad(117, (unsigned long )0, (long long )0);
          __CrestApply2(116, 12, (long long )((int )*mem_22 == 0));
# 147 "replace.c"
          if ((int )*mem_22 == 0) {
            __CrestBranch(119, 53, 1);
            __CrestLoad(121, (unsigned long )0, (long long )((char )'-'));
            __CrestLoad(122, (unsigned long )(& maxset), (long long )maxset);
# 148 "replace.c"
            tmp___1 = addstr((char )'-', dest, j, maxset);
            __CrestHandleReturn(124, (long long )tmp___1);
            __CrestStore(123, (unsigned long )(& tmp___1));
            __CrestLoad(125, (unsigned long )(& tmp___1), (long long )tmp___1);
            __CrestStore(126, (unsigned long )(& junk));
# 148 "replace.c"
            junk = (bool )tmp___1;
          } else {
            __CrestBranch(120, 54, 0);
# 149 "replace.c"
            tmp___4 = __ctype_b_loc();
            __CrestClearStack(127);
            {
# 149 "replace.c"
            mem_23 = src + (*i - 1);
# 149 "replace.c"
            mem_24 = *tmp___4 + (int )*mem_23;
            {
            __CrestLoad(132, (unsigned long )mem_24, (long long )*mem_24);
            __CrestLoad(131, (unsigned long )0, (long long )8);
            __CrestApply2(130, 5, (long long )((int const )*mem_24 & 8));
            __CrestLoad(129, (unsigned long )0, (long long )0);
            __CrestApply2(128, 13, (long long )(((int const )*mem_24 & 8) != 0));
# 149 "replace.c"
            if (((int const )*mem_24 & 8) != 0) {
              __CrestBranch(133, 58, 1);
# 149 "replace.c"
              tmp___5 = __ctype_b_loc();
              __CrestClearStack(135);
              {
# 149 "replace.c"
              mem_25 = src + (*i + 1);
# 149 "replace.c"
              mem_26 = *tmp___5 + (int )*mem_25;
              {
              __CrestLoad(140, (unsigned long )mem_26, (long long )*mem_26);
              __CrestLoad(139, (unsigned long )0, (long long )8);
              __CrestApply2(138, 5, (long long )((int const )*mem_26 & 8));
              __CrestLoad(137, (unsigned long )0, (long long )0);
              __CrestApply2(136, 13, (long long )(((int const )*mem_26 & 8) != 0));
# 149 "replace.c"
              if (((int const )*mem_26 & 8) != 0) {
                __CrestBranch(141, 62, 1);
                {
# 149 "replace.c"
                mem_27 = src + (*i - 1);
# 149 "replace.c"
                mem_28 = src + (*i + 1);
                {
                __CrestLoad(145, (unsigned long )mem_27, (long long )*mem_27);
                __CrestLoad(144, (unsigned long )mem_28, (long long )*mem_28);
                __CrestApply2(143, 15, (long long )((int )*mem_27 <= (int )*mem_28));
# 149 "replace.c"
                if ((int )*mem_27 <= (int )*mem_28) {
                  __CrestBranch(146, 65, 1);
# 152 "replace.c"
                  mem_29 = src + (*i - 1);
                  __CrestLoad(150, (unsigned long )mem_29, (long long )*mem_29);
                  __CrestLoad(149, (unsigned long )0, (long long )1);
                  __CrestApply2(148, 0, (long long )((int )*mem_29 + 1));
                  __CrestStore(151, (unsigned long )(& k));
# 152 "replace.c"
                  k = (int )*mem_29 + 1;
                  {
# 152 "replace.c"
                  while (1) {
                    while_continue___0: ;
                    {
# 152 "replace.c"
                    mem_30 = src + (*i + 1);
                    {
                    __CrestLoad(154, (unsigned long )(& k), (long long )k);
                    __CrestLoad(153, (unsigned long )mem_30, (long long )*mem_30);
                    __CrestApply2(152, 15, (long long )(k <= (int )*mem_30));
# 152 "replace.c"
                    if (k <= (int )*mem_30) {
                      __CrestBranch(155, 72, 1);

                    } else {
                      __CrestBranch(156, 73, 0);
# 152 "replace.c"
                      goto while_break___0;
                    }
                    }
                    }
                    __CrestLoad(157, (unsigned long )(& k), (long long )k);
                    __CrestLoad(158, (unsigned long )(& maxset), (long long )maxset);
# 154 "replace.c"
                    tmp___2 = addstr((char )k, dest, j, maxset);
                    __CrestHandleReturn(160, (long long )tmp___2);
                    __CrestStore(159, (unsigned long )(& tmp___2));
                    __CrestLoad(161, (unsigned long )(& tmp___2), (long long )tmp___2);
                    __CrestStore(162, (unsigned long )(& junk));
# 154 "replace.c"
                    junk = (bool )tmp___2;
                    __CrestLoad(165, (unsigned long )(& k), (long long )k);
                    __CrestLoad(164, (unsigned long )0, (long long )1);
                    __CrestApply2(163, 0, (long long )(k + 1));
                    __CrestStore(166, (unsigned long )(& k));
# 152 "replace.c"
                    k ++;
                  }
                  while_break___0: ;
                  }
                  __CrestLoad(169, (unsigned long )i, (long long )*i);
                  __CrestLoad(168, (unsigned long )0, (long long )1);
                  __CrestApply2(167, 0, (long long )(*i + 1));
                  __CrestStore(170, (unsigned long )i);
# 156 "replace.c"
                  (*i) ++;
                } else {
                  __CrestBranch(147, 77, 0);
                  __CrestLoad(171, (unsigned long )0, (long long )((char )'-'));
                  __CrestLoad(172, (unsigned long )(& maxset), (long long )maxset);
# 159 "replace.c"
                  tmp___3 = addstr((char )'-', dest, j, maxset);
                  __CrestHandleReturn(174, (long long )tmp___3);
                  __CrestStore(173, (unsigned long )(& tmp___3));
                  __CrestLoad(175, (unsigned long )(& tmp___3), (long long )tmp___3);
                  __CrestStore(176, (unsigned long )(& junk));
# 159 "replace.c"
                  junk = (bool )tmp___3;
                }
                }
                }
              } else {
                __CrestBranch(142, 78, 0);
                __CrestLoad(177, (unsigned long )0, (long long )((char )'-'));
                __CrestLoad(178, (unsigned long )(& maxset), (long long )maxset);
# 159 "replace.c"
                tmp___3 = addstr((char )'-', dest, j, maxset);
                __CrestHandleReturn(180, (long long )tmp___3);
                __CrestStore(179, (unsigned long )(& tmp___3));
                __CrestLoad(181, (unsigned long )(& tmp___3), (long long )tmp___3);
                __CrestStore(182, (unsigned long )(& junk));
# 159 "replace.c"
                junk = (bool )tmp___3;
              }
              }
              }
            } else {
              __CrestBranch(134, 79, 0);
              __CrestLoad(183, (unsigned long )0, (long long )((char )'-'));
              __CrestLoad(184, (unsigned long )(& maxset), (long long )maxset);
# 159 "replace.c"
              tmp___3 = addstr((char )'-', dest, j, maxset);
              __CrestHandleReturn(186, (long long )tmp___3);
              __CrestStore(185, (unsigned long )(& tmp___3));
              __CrestLoad(187, (unsigned long )(& tmp___3), (long long )tmp___3);
              __CrestStore(188, (unsigned long )(& junk));
# 159 "replace.c"
              junk = (bool )tmp___3;
            }
            }
            }
          }
          }
          }
        }
        }
      }
      }
      }
    }
    }
    }
    __CrestLoad(191, (unsigned long )i, (long long )*i);
    __CrestLoad(190, (unsigned long )0, (long long )1);
    __CrestApply2(189, 0, (long long )(*i + 1));
    __CrestStore(192, (unsigned long )i);
# 160 "replace.c"
    (*i) ++;
  }
  while_break: ;
  }

  {
  __CrestReturn(193);
# 126 "replace.c"
  return;
  }
}
}
# 164 "replace.c"
bool getccl(char *arg , int *i , char *pat , int *j )
{
  int jstart ;
  bool junk ;
  int tmp ;
  int tmp___0 ;
  int tmp___1 ;
  char *mem_10 ;
  char *mem_11 ;
  char *mem_12 ;
  bool __retres13 ;

  {
  __CrestCall(194, 5);

  __CrestLoad(197, (unsigned long )i, (long long )*i);
  __CrestLoad(196, (unsigned long )0, (long long )1);
  __CrestApply2(195, 0, (long long )(*i + 1));
  __CrestStore(198, (unsigned long )i);
# 174 "replace.c"
  (*i) ++;
  {
# 175 "replace.c"
  mem_10 = arg + *i;
  {
  __CrestLoad(201, (unsigned long )mem_10, (long long )*mem_10);
  __CrestLoad(200, (unsigned long )0, (long long )94);
  __CrestApply2(199, 12, (long long )((int )*mem_10 == 94));
# 175 "replace.c"
  if ((int )*mem_10 == 94) {
    __CrestBranch(202, 88, 1);
    __CrestLoad(204, (unsigned long )0, (long long )((char )'!'));
    __CrestLoad(205, (unsigned long )0, (long long )100);
# 176 "replace.c"
    tmp = addstr((char )'!', pat, j, 100);
    __CrestHandleReturn(207, (long long )tmp);
    __CrestStore(206, (unsigned long )(& tmp));
    __CrestLoad(208, (unsigned long )(& tmp), (long long )tmp);
    __CrestStore(209, (unsigned long )(& junk));
# 176 "replace.c"
    junk = (bool )tmp;
    __CrestLoad(212, (unsigned long )i, (long long )*i);
    __CrestLoad(211, (unsigned long )0, (long long )1);
    __CrestApply2(210, 0, (long long )(*i + 1));
    __CrestStore(213, (unsigned long )i);
# 177 "replace.c"
    (*i) ++;
  } else {
    __CrestBranch(203, 89, 0);
    __CrestLoad(214, (unsigned long )0, (long long )((char )'['));
    __CrestLoad(215, (unsigned long )0, (long long )100);
# 179 "replace.c"
    tmp___0 = addstr((char )'[', pat, j, 100);
    __CrestHandleReturn(217, (long long )tmp___0);
    __CrestStore(216, (unsigned long )(& tmp___0));
    __CrestLoad(218, (unsigned long )(& tmp___0), (long long )tmp___0);
    __CrestStore(219, (unsigned long )(& junk));
# 179 "replace.c"
    junk = (bool )tmp___0;
  }
  }
  }
  __CrestLoad(220, (unsigned long )j, (long long )*j);
  __CrestStore(221, (unsigned long )(& jstart));
# 180 "replace.c"
  jstart = *j;
  __CrestLoad(222, (unsigned long )0, (long long )(char)0);
  __CrestLoad(223, (unsigned long )0, (long long )100);
# 181 "replace.c"
  tmp___1 = addstr((char)0, pat, j, 100);
  __CrestHandleReturn(225, (long long )tmp___1);
  __CrestStore(224, (unsigned long )(& tmp___1));
  __CrestLoad(226, (unsigned long )(& tmp___1), (long long )tmp___1);
  __CrestStore(227, (unsigned long )(& junk));
# 181 "replace.c"
  junk = (bool )tmp___1;
  __CrestLoad(228, (unsigned long )0, (long long )((char )']'));
  __CrestLoad(229, (unsigned long )0, (long long )100);
# 182 "replace.c"
  dodash((char )']', arg, i, pat, j, 100);
  __CrestClearStack(230);
# 183 "replace.c"
  mem_11 = pat + jstart;
  __CrestLoad(235, (unsigned long )j, (long long )*j);
  __CrestLoad(234, (unsigned long )(& jstart), (long long )jstart);
  __CrestApply2(233, 1, (long long )(*j - jstart));
  __CrestLoad(232, (unsigned long )0, (long long )1);
  __CrestApply2(231, 1, (long long )((*j - jstart) - 1));
  __CrestStore(236, (unsigned long )mem_11);
# 183 "replace.c"
  *mem_11 = (char )((*j - jstart) - 1);
  {
# 184 "replace.c"
  mem_12 = arg + *i;
  __CrestLoad(239, (unsigned long )mem_12, (long long )*mem_12);
  __CrestLoad(238, (unsigned long )0, (long long )93);
  __CrestApply2(237, 12, (long long )((int )*mem_12 == 93));
  __CrestStore(240, (unsigned long )(& __retres13));
# 184 "replace.c"
  __retres13 = (bool )((int )*mem_12 == 93);
# 184 "replace.c"
  goto return_label;
  }
  return_label:
  {
  __CrestLoad(241, (unsigned long )(& __retres13), (long long )__retres13);
  __CrestReturn(242);
# 164 "replace.c"
  return (__retres13);
  }
}
}
# 187 "replace.c"
void stclose(char *pat , int *j , int lastj )
{
  int jt ;
  int jp ;
  bool junk ;
  int tmp ;
  char *mem_8 ;
  char *mem_9 ;

  {
  __CrestCall(244, 6);
  __CrestStore(243, (unsigned long )(& lastj));
  __CrestLoad(247, (unsigned long )j, (long long )*j);
  __CrestLoad(246, (unsigned long )0, (long long )1);
  __CrestApply2(245, 1, (long long )(*j - 1));
  __CrestStore(248, (unsigned long )(& jp));
# 198 "replace.c"
  jp = *j - 1;
  {
# 198 "replace.c"
  while (1) {
    while_continue: ;
    {
    __CrestLoad(251, (unsigned long )(& jp), (long long )jp);
    __CrestLoad(250, (unsigned long )(& lastj), (long long )lastj);
    __CrestApply2(249, 17, (long long )(jp >= lastj));
# 198 "replace.c"
    if (jp >= lastj) {
      __CrestBranch(252, 101, 1);

    } else {
      __CrestBranch(253, 102, 0);
# 198 "replace.c"
      goto while_break;
    }
    }
    __CrestLoad(256, (unsigned long )(& jp), (long long )jp);
    __CrestLoad(255, (unsigned long )0, (long long )1);
    __CrestApply2(254, 0, (long long )(jp + 1));
    __CrestStore(257, (unsigned long )(& jt));
# 200 "replace.c"
    jt = jp + 1;
# 201 "replace.c"
    mem_8 = pat + jp;
    __CrestLoad(258, (unsigned long )mem_8, (long long )*mem_8);
    __CrestLoad(259, (unsigned long )0, (long long )100);
# 201 "replace.c"
    tmp = addstr(*mem_8, pat, & jt, 100);
    __CrestHandleReturn(261, (long long )tmp);
    __CrestStore(260, (unsigned long )(& tmp));
    __CrestLoad(262, (unsigned long )(& tmp), (long long )tmp);
    __CrestStore(263, (unsigned long )(& junk));
# 201 "replace.c"
    junk = (bool )tmp;
    __CrestLoad(266, (unsigned long )(& jp), (long long )jp);
    __CrestLoad(265, (unsigned long )0, (long long )1);
    __CrestApply2(264, 1, (long long )(jp - 1));
    __CrestStore(267, (unsigned long )(& jp));
# 198 "replace.c"
    jp --;
  }
  while_break: ;
  }
  __CrestLoad(270, (unsigned long )j, (long long )*j);
  __CrestLoad(269, (unsigned long )0, (long long )1);
  __CrestApply2(268, 0, (long long )(*j + 1));
  __CrestStore(271, (unsigned long )j);
# 203 "replace.c"
  (*j) ++;
# 204 "replace.c"
  mem_9 = pat + lastj;
  __CrestLoad(272, (unsigned long )0, (long long )((char )'*'));
  __CrestStore(273, (unsigned long )mem_9);
# 204 "replace.c"
  *mem_9 = (char )'*';

  {
  __CrestReturn(274);
# 187 "replace.c"
  return;
  }
}
}
# 207 "replace.c"
bool in_set_2(char c )
{
  int tmp ;
  bool __retres3 ;

  {
  __CrestCall(276, 7);
  __CrestStore(275, (unsigned long )(& c));
  {
  __CrestLoad(279, (unsigned long )(& c), (long long )c);
  __CrestLoad(278, (unsigned long )0, (long long )37);
  __CrestApply2(277, 12, (long long )((int )c == 37));
# 210 "replace.c"
  if ((int )c == 37) {
    __CrestBranch(280, 109, 1);
    __CrestLoad(282, (unsigned long )0, (long long )1);
    __CrestStore(283, (unsigned long )(& tmp));
# 210 "replace.c"
    tmp = 1;
  } else {
    __CrestBranch(281, 110, 0);
    {
    __CrestLoad(286, (unsigned long )(& c), (long long )c);
    __CrestLoad(285, (unsigned long )0, (long long )36);
    __CrestApply2(284, 12, (long long )((int )c == 36));
# 210 "replace.c"
    if ((int )c == 36) {
      __CrestBranch(287, 111, 1);
      __CrestLoad(289, (unsigned long )0, (long long )1);
      __CrestStore(290, (unsigned long )(& tmp));
# 210 "replace.c"
      tmp = 1;
    } else {
      __CrestBranch(288, 112, 0);
      {
      __CrestLoad(293, (unsigned long )(& c), (long long )c);
      __CrestLoad(292, (unsigned long )0, (long long )42);
      __CrestApply2(291, 12, (long long )((int )c == 42));
# 210 "replace.c"
      if ((int )c == 42) {
        __CrestBranch(294, 113, 1);
        __CrestLoad(296, (unsigned long )0, (long long )1);
        __CrestStore(297, (unsigned long )(& tmp));
# 210 "replace.c"
        tmp = 1;
      } else {
        __CrestBranch(295, 114, 0);
        __CrestLoad(298, (unsigned long )0, (long long )0);
        __CrestStore(299, (unsigned long )(& tmp));
# 210 "replace.c"
        tmp = 0;
      }
      }
    }
    }
  }
  }
  __CrestLoad(300, (unsigned long )(& tmp), (long long )tmp);
  __CrestStore(301, (unsigned long )(& __retres3));
# 210 "replace.c"
  __retres3 = (bool )tmp;
  {
  __CrestLoad(302, (unsigned long )(& __retres3), (long long )__retres3);
  __CrestReturn(303);
# 207 "replace.c"
  return (__retres3);
  }
}
}
# 213 "replace.c"
bool in_pat_set(char c )
{
  int tmp ;
  bool __retres3 ;

  {
  __CrestCall(305, 8);
  __CrestStore(304, (unsigned long )(& c));
  {
  __CrestLoad(308, (unsigned long )(& c), (long long )c);
  __CrestLoad(307, (unsigned long )0, (long long )99);
  __CrestApply2(306, 12, (long long )((int )c == 99));
# 216 "replace.c"
  if ((int )c == 99) {
    __CrestBranch(309, 118, 1);
    __CrestLoad(311, (unsigned long )0, (long long )1);
    __CrestStore(312, (unsigned long )(& tmp));
# 216 "replace.c"
    tmp = 1;
  } else {
    __CrestBranch(310, 119, 0);
    {
    __CrestLoad(315, (unsigned long )(& c), (long long )c);
    __CrestLoad(314, (unsigned long )0, (long long )37);
    __CrestApply2(313, 12, (long long )((int )c == 37));
# 216 "replace.c"
    if ((int )c == 37) {
      __CrestBranch(316, 120, 1);
      __CrestLoad(318, (unsigned long )0, (long long )1);
      __CrestStore(319, (unsigned long )(& tmp));
# 216 "replace.c"
      tmp = 1;
    } else {
      __CrestBranch(317, 121, 0);
      {
      __CrestLoad(322, (unsigned long )(& c), (long long )c);
      __CrestLoad(321, (unsigned long )0, (long long )36);
      __CrestApply2(320, 12, (long long )((int )c == 36));
# 216 "replace.c"
      if ((int )c == 36) {
        __CrestBranch(323, 122, 1);
        __CrestLoad(325, (unsigned long )0, (long long )1);
        __CrestStore(326, (unsigned long )(& tmp));
# 216 "replace.c"
        tmp = 1;
      } else {
        __CrestBranch(324, 123, 0);
        {
        __CrestLoad(329, (unsigned long )(& c), (long long )c);
        __CrestLoad(328, (unsigned long )0, (long long )63);
        __CrestApply2(327, 12, (long long )((int )c == 63));
# 216 "replace.c"
        if ((int )c == 63) {
          __CrestBranch(330, 124, 1);
          __CrestLoad(332, (unsigned long )0, (long long )1);
          __CrestStore(333, (unsigned long )(& tmp));
# 216 "replace.c"
          tmp = 1;
        } else {
          __CrestBranch(331, 125, 0);
          {
          __CrestLoad(336, (unsigned long )(& c), (long long )c);
          __CrestLoad(335, (unsigned long )0, (long long )91);
          __CrestApply2(334, 12, (long long )((int )c == 91));
# 216 "replace.c"
          if ((int )c == 91) {
            __CrestBranch(337, 126, 1);
            __CrestLoad(339, (unsigned long )0, (long long )1);
            __CrestStore(340, (unsigned long )(& tmp));
# 216 "replace.c"
            tmp = 1;
          } else {
            __CrestBranch(338, 127, 0);
            {
            __CrestLoad(343, (unsigned long )(& c), (long long )c);
            __CrestLoad(342, (unsigned long )0, (long long )33);
            __CrestApply2(341, 12, (long long )((int )c == 33));
# 216 "replace.c"
            if ((int )c == 33) {
              __CrestBranch(344, 128, 1);
              __CrestLoad(346, (unsigned long )0, (long long )1);
              __CrestStore(347, (unsigned long )(& tmp));
# 216 "replace.c"
              tmp = 1;
            } else {
              __CrestBranch(345, 129, 0);
              {
              __CrestLoad(350, (unsigned long )(& c), (long long )c);
              __CrestLoad(349, (unsigned long )0, (long long )42);
              __CrestApply2(348, 12, (long long )((int )c == 42));
# 216 "replace.c"
              if ((int )c == 42) {
                __CrestBranch(351, 130, 1);
                __CrestLoad(353, (unsigned long )0, (long long )1);
                __CrestStore(354, (unsigned long )(& tmp));
# 216 "replace.c"
                tmp = 1;
              } else {
                __CrestBranch(352, 131, 0);
                __CrestLoad(355, (unsigned long )0, (long long )0);
                __CrestStore(356, (unsigned long )(& tmp));
# 216 "replace.c"
                tmp = 0;
              }
              }
            }
            }
          }
          }
        }
        }
      }
      }
    }
    }
  }
  }
  __CrestLoad(357, (unsigned long )(& tmp), (long long )tmp);
  __CrestStore(358, (unsigned long )(& __retres3));
# 216 "replace.c"
  __retres3 = (bool )tmp;
  {
  __CrestLoad(359, (unsigned long )(& __retres3), (long long )__retres3);
  __CrestReturn(360);
# 213 "replace.c"
  return (__retres3);
  }
}
}
# 220 "replace.c"
int makepat(char *arg , int start , char delim , char *pat )
{
  int result ;
  int i ;
  int j ;
  int lastj ;
  int lj ;
  bool done ;
  bool junk ;
  bool getres ;
  char escjunk ;
  int tmp ;
  int tmp___0 ;
  int tmp___1 ;
  bool tmp___2 ;
  int tmp___3 ;
  int tmp___4 ;
  int tmp___5 ;
  char *mem_21 ;
  char *mem_22 ;
  char *mem_23 ;
  char *mem_24 ;
  char *mem_25 ;
  char *mem_26 ;
  char *mem_27 ;
  char *mem_28 ;
  char *mem_29 ;
  char *mem_30 ;

  {
  __CrestCall(363, 9);
  __CrestStore(362, (unsigned long )(& delim));
  __CrestStore(361, (unsigned long )(& start));
  __CrestLoad(364, (unsigned long )0, (long long )0);
  __CrestStore(365, (unsigned long )(& j));
# 233 "replace.c"
  j = 0;
  __CrestLoad(366, (unsigned long )(& start), (long long )start);
  __CrestStore(367, (unsigned long )(& i));
# 234 "replace.c"
  i = start;
  __CrestLoad(368, (unsigned long )0, (long long )0);
  __CrestStore(369, (unsigned long )(& lastj));
# 235 "replace.c"
  lastj = 0;
  __CrestLoad(370, (unsigned long )0, (long long )((bool )0));
  __CrestStore(371, (unsigned long )(& done));
# 236 "replace.c"
  done = (bool )0;
  {
# 237 "replace.c"
  while (1) {
    while_continue: ;
    {
    __CrestLoad(374, (unsigned long )(& done), (long long )done);
    __CrestLoad(373, (unsigned long )0, (long long )0);
    __CrestApply2(372, 12, (long long )(done == 0));
# 237 "replace.c"
    if (done == 0) {
      __CrestBranch(375, 139, 1);
      {
# 237 "replace.c"
      mem_21 = arg + i;
      {
      __CrestLoad(379, (unsigned long )mem_21, (long long )*mem_21);
      __CrestLoad(378, (unsigned long )(& delim), (long long )delim);
      __CrestApply2(377, 13, (long long )((int )*mem_21 != (int )delim));
# 237 "replace.c"
      if ((int )*mem_21 != (int )delim) {
        __CrestBranch(380, 142, 1);
        {
# 237 "replace.c"
        mem_22 = arg + i;
        {
        __CrestLoad(384, (unsigned long )mem_22, (long long )*mem_22);
        __CrestLoad(383, (unsigned long )0, (long long )0);
        __CrestApply2(382, 13, (long long )((int )*mem_22 != 0));
# 237 "replace.c"
        if ((int )*mem_22 != 0) {
          __CrestBranch(385, 145, 1);

        } else {
          __CrestBranch(386, 146, 0);
# 237 "replace.c"
          goto while_break;
        }
        }
        }
      } else {
        __CrestBranch(381, 147, 0);
# 237 "replace.c"
        goto while_break;
      }
      }
      }
    } else {
      __CrestBranch(376, 148, 0);
# 237 "replace.c"
      goto while_break;
    }
    }
    __CrestLoad(387, (unsigned long )(& j), (long long )j);
    __CrestStore(388, (unsigned long )(& lj));
# 238 "replace.c"
    lj = j;
    {
# 239 "replace.c"
    mem_23 = arg + i;
    {
    __CrestLoad(391, (unsigned long )mem_23, (long long )*mem_23);
    __CrestLoad(390, (unsigned long )0, (long long )63);
    __CrestApply2(389, 12, (long long )((int )*mem_23 == 63));
# 239 "replace.c"
    if ((int )*mem_23 == 63) {
      __CrestBranch(392, 153, 1);
      __CrestLoad(394, (unsigned long )0, (long long )((char )'?'));
      __CrestLoad(395, (unsigned long )0, (long long )100);
# 240 "replace.c"
      tmp = addstr((char )'?', pat, & j, 100);
      __CrestHandleReturn(397, (long long )tmp);
      __CrestStore(396, (unsigned long )(& tmp));
      __CrestLoad(398, (unsigned long )(& tmp), (long long )tmp);
      __CrestStore(399, (unsigned long )(& junk));
# 240 "replace.c"
      junk = (bool )tmp;
    } else {
      __CrestBranch(393, 154, 0);
      {
# 241 "replace.c"
      mem_24 = arg + i;
      {
      __CrestLoad(402, (unsigned long )mem_24, (long long )*mem_24);
      __CrestLoad(401, (unsigned long )0, (long long )37);
      __CrestApply2(400, 12, (long long )((int )*mem_24 == 37));
# 241 "replace.c"
      if ((int )*mem_24 == 37) {
        __CrestBranch(403, 157, 1);
        {
        __CrestLoad(407, (unsigned long )(& i), (long long )i);
        __CrestLoad(406, (unsigned long )(& start), (long long )start);
        __CrestApply2(405, 12, (long long )(i == start));
# 241 "replace.c"
        if (i == start) {
          __CrestBranch(408, 158, 1);
          __CrestLoad(410, (unsigned long )0, (long long )((char )'%'));
          __CrestLoad(411, (unsigned long )0, (long long )100);
# 242 "replace.c"
          tmp___0 = addstr((char )'%', pat, & j, 100);
          __CrestHandleReturn(413, (long long )tmp___0);
          __CrestStore(412, (unsigned long )(& tmp___0));
          __CrestLoad(414, (unsigned long )(& tmp___0), (long long )tmp___0);
          __CrestStore(415, (unsigned long )(& junk));
# 242 "replace.c"
          junk = (bool )tmp___0;
        } else {
          __CrestBranch(409, 159, 0);
# 241 "replace.c"
          goto _L___0;
        }
        }
      } else {
        __CrestBranch(404, 160, 0);
        _L___0:
        {
# 243 "replace.c"
        mem_25 = arg + i;
        {
        __CrestLoad(418, (unsigned long )mem_25, (long long )*mem_25);
        __CrestLoad(417, (unsigned long )0, (long long )36);
        __CrestApply2(416, 12, (long long )((int )*mem_25 == 36));
# 243 "replace.c"
        if ((int )*mem_25 == 36) {
          __CrestBranch(419, 163, 1);
          {
# 243 "replace.c"
          mem_26 = arg + (i + 1);
          {
          __CrestLoad(423, (unsigned long )mem_26, (long long )*mem_26);
          __CrestLoad(422, (unsigned long )(& delim), (long long )delim);
          __CrestApply2(421, 12, (long long )((int )*mem_26 == (int )delim));
# 243 "replace.c"
          if ((int )*mem_26 == (int )delim) {
            __CrestBranch(424, 166, 1);
            __CrestLoad(426, (unsigned long )0, (long long )((char )'$'));
            __CrestLoad(427, (unsigned long )0, (long long )100);
# 244 "replace.c"
            tmp___1 = addstr((char )'$', pat, & j, 100);
            __CrestHandleReturn(429, (long long )tmp___1);
            __CrestStore(428, (unsigned long )(& tmp___1));
            __CrestLoad(430, (unsigned long )(& tmp___1), (long long )tmp___1);
            __CrestStore(431, (unsigned long )(& junk));
# 244 "replace.c"
            junk = (bool )tmp___1;
          } else {
            __CrestBranch(425, 167, 0);
# 243 "replace.c"
            goto _L;
          }
          }
          }
        } else {
          __CrestBranch(420, 168, 0);
          _L:
          {
# 245 "replace.c"
          mem_27 = arg + i;
          {
          __CrestLoad(434, (unsigned long )mem_27, (long long )*mem_27);
          __CrestLoad(433, (unsigned long )0, (long long )91);
          __CrestApply2(432, 12, (long long )((int )*mem_27 == 91));
# 245 "replace.c"
          if ((int )*mem_27 == 91) {
            __CrestBranch(435, 171, 1);
# 247 "replace.c"
            getres = getccl(arg, & i, pat, & j);
            __CrestHandleReturn(438, (long long )getres);
            __CrestStore(437, (unsigned long )(& getres));
            __CrestLoad(441, (unsigned long )(& getres), (long long )getres);
            __CrestLoad(440, (unsigned long )0, (long long )0);
            __CrestApply2(439, 12, (long long )((int )getres == 0));
            __CrestStore(442, (unsigned long )(& done));
# 248 "replace.c"
            done = (bool )((int )getres == 0);
          } else {
            __CrestBranch(436, 172, 0);
            {
# 250 "replace.c"
            mem_28 = arg + i;
            {
            __CrestLoad(445, (unsigned long )mem_28, (long long )*mem_28);
            __CrestLoad(444, (unsigned long )0, (long long )42);
            __CrestApply2(443, 12, (long long )((int )*mem_28 == 42));
# 250 "replace.c"
            if ((int )*mem_28 == 42) {
              __CrestBranch(446, 175, 1);
              {
              __CrestLoad(450, (unsigned long )(& i), (long long )i);
              __CrestLoad(449, (unsigned long )(& start), (long long )start);
              __CrestApply2(448, 14, (long long )(i > start));
# 250 "replace.c"
              if (i > start) {
                __CrestBranch(451, 176, 1);
                __CrestLoad(453, (unsigned long )(& lastj), (long long )lastj);
                __CrestStore(454, (unsigned long )(& lj));
# 252 "replace.c"
                lj = lastj;
# 253 "replace.c"
                mem_29 = pat + lj;
                __CrestLoad(455, (unsigned long )mem_29, (long long )*mem_29);
# 253 "replace.c"
                tmp___2 = in_set_2(*mem_29);
                __CrestHandleReturn(457, (long long )tmp___2);
                __CrestStore(456, (unsigned long )(& tmp___2));
                {
                __CrestLoad(460, (unsigned long )(& tmp___2), (long long )tmp___2);
                __CrestLoad(459, (unsigned long )0, (long long )0);
                __CrestApply2(458, 13, (long long )(tmp___2 != 0));
# 253 "replace.c"
                if (tmp___2 != 0) {
                  __CrestBranch(461, 178, 1);
                  __CrestLoad(463, (unsigned long )0, (long long )((bool )1));
                  __CrestStore(464, (unsigned long )(& done));
# 254 "replace.c"
                  done = (bool )1;
                } else {
                  __CrestBranch(462, 179, 0);
                  __CrestLoad(465, (unsigned long )(& lastj), (long long )lastj);
# 256 "replace.c"
                  stclose(pat, & j, lastj);
                  __CrestClearStack(466);
                }
                }
              } else {
                __CrestBranch(452, 180, 0);
                __CrestLoad(467, (unsigned long )0, (long long )((char )'c'));
                __CrestLoad(468, (unsigned long )0, (long long )100);
# 260 "replace.c"
                tmp___3 = addstr((char )'c', pat, & j, 100);
                __CrestHandleReturn(470, (long long )tmp___3);
                __CrestStore(469, (unsigned long )(& tmp___3));
                __CrestLoad(471, (unsigned long )(& tmp___3), (long long )tmp___3);
                __CrestStore(472, (unsigned long )(& junk));
# 260 "replace.c"
                junk = (bool )tmp___3;
# 261 "replace.c"
                escjunk = esc(arg, & i);
                __CrestHandleReturn(474, (long long )escjunk);
                __CrestStore(473, (unsigned long )(& escjunk));
                __CrestLoad(475, (unsigned long )(& escjunk), (long long )escjunk);
                __CrestLoad(476, (unsigned long )0, (long long )100);
# 262 "replace.c"
                tmp___4 = addstr(escjunk, pat, & j, 100);
                __CrestHandleReturn(478, (long long )tmp___4);
                __CrestStore(477, (unsigned long )(& tmp___4));
                __CrestLoad(479, (unsigned long )(& tmp___4), (long long )tmp___4);
                __CrestStore(480, (unsigned long )(& junk));
# 262 "replace.c"
                junk = (bool )tmp___4;
              }
              }
            } else {
              __CrestBranch(447, 181, 0);
              __CrestLoad(481, (unsigned long )0, (long long )((char )'c'));
              __CrestLoad(482, (unsigned long )0, (long long )100);
# 260 "replace.c"
              tmp___3 = addstr((char )'c', pat, & j, 100);
              __CrestHandleReturn(484, (long long )tmp___3);
              __CrestStore(483, (unsigned long )(& tmp___3));
              __CrestLoad(485, (unsigned long )(& tmp___3), (long long )tmp___3);
              __CrestStore(486, (unsigned long )(& junk));
# 260 "replace.c"
              junk = (bool )tmp___3;
# 261 "replace.c"
              escjunk = esc(arg, & i);
              __CrestHandleReturn(488, (long long )escjunk);
              __CrestStore(487, (unsigned long )(& escjunk));
              __CrestLoad(489, (unsigned long )(& escjunk), (long long )escjunk);
              __CrestLoad(490, (unsigned long )0, (long long )100);
# 262 "replace.c"
              tmp___4 = addstr(escjunk, pat, & j, 100);
              __CrestHandleReturn(492, (long long )tmp___4);
              __CrestStore(491, (unsigned long )(& tmp___4));
              __CrestLoad(493, (unsigned long )(& tmp___4), (long long )tmp___4);
              __CrestStore(494, (unsigned long )(& junk));
# 262 "replace.c"
              junk = (bool )tmp___4;
            }
            }
            }
          }
          }
          }
        }
        }
        }
      }
      }
      }
    }
    }
    }
    __CrestLoad(495, (unsigned long )(& lj), (long long )lj);
    __CrestStore(496, (unsigned long )(& lastj));
# 264 "replace.c"
    lastj = lj;
    {
    __CrestLoad(499, (unsigned long )(& done), (long long )done);
    __CrestLoad(498, (unsigned long )0, (long long )0);
    __CrestApply2(497, 12, (long long )(done == 0));
# 265 "replace.c"
    if (done == 0) {
      __CrestBranch(500, 184, 1);
      __CrestLoad(504, (unsigned long )(& i), (long long )i);
      __CrestLoad(503, (unsigned long )0, (long long )1);
      __CrestApply2(502, 0, (long long )(i + 1));
      __CrestStore(505, (unsigned long )(& i));
# 266 "replace.c"
      i ++;
    } else {
      __CrestBranch(501, 185, 0);

    }
    }
  }
  while_break: ;
  }
  __CrestLoad(506, (unsigned long )0, (long long )((char )'\000'));
  __CrestLoad(507, (unsigned long )0, (long long )100);
# 268 "replace.c"
  tmp___5 = addstr((char )'\000', pat, & j, 100);
  __CrestHandleReturn(509, (long long )tmp___5);
  __CrestStore(508, (unsigned long )(& tmp___5));
  __CrestLoad(510, (unsigned long )(& tmp___5), (long long )tmp___5);
  __CrestStore(511, (unsigned long )(& junk));
# 268 "replace.c"
  junk = (bool )tmp___5;
  {
  __CrestLoad(514, (unsigned long )(& done), (long long )done);
  __CrestLoad(513, (unsigned long )0, (long long )0);
  __CrestApply2(512, 13, (long long )(done != 0));
# 269 "replace.c"
  if (done != 0) {
    __CrestBranch(515, 189, 1);
    __CrestLoad(517, (unsigned long )0, (long long )0);
    __CrestStore(518, (unsigned long )(& result));
# 270 "replace.c"
    result = 0;
  } else {
    __CrestBranch(516, 190, 0);
    {
# 269 "replace.c"
    mem_30 = arg + i;
    {
    __CrestLoad(521, (unsigned long )mem_30, (long long )*mem_30);
    __CrestLoad(520, (unsigned long )(& delim), (long long )delim);
    __CrestApply2(519, 13, (long long )((int )*mem_30 != (int )delim));
# 269 "replace.c"
    if ((int )*mem_30 != (int )delim) {
      __CrestBranch(522, 193, 1);
      __CrestLoad(524, (unsigned long )0, (long long )0);
      __CrestStore(525, (unsigned long )(& result));
# 270 "replace.c"
      result = 0;
    } else {
      __CrestBranch(523, 194, 0);
      {
      __CrestLoad(528, (unsigned long )(& junk), (long long )junk);
      __CrestLoad(527, (unsigned long )0, (long long )0);
      __CrestApply2(526, 12, (long long )(junk == 0));
# 272 "replace.c"
      if (junk == 0) {
        __CrestBranch(529, 195, 1);
        __CrestLoad(531, (unsigned long )0, (long long )0);
        __CrestStore(532, (unsigned long )(& result));
# 273 "replace.c"
        result = 0;
      } else {
        __CrestBranch(530, 196, 0);
        __CrestLoad(533, (unsigned long )(& i), (long long )i);
        __CrestStore(534, (unsigned long )(& result));
# 275 "replace.c"
        result = i;
      }
      }
    }
    }
    }
  }
  }
  {
  __CrestLoad(535, (unsigned long )(& result), (long long )result);
  __CrestReturn(536);
# 276 "replace.c"
  return (result);
  }
}
}
# 279 "replace.c"
int getpat(char *arg , char *pat )
{
  int makeres ;
  int __retres4 ;

  {
  __CrestCall(537, 10);

  __CrestLoad(538, (unsigned long )0, (long long )0);
  __CrestLoad(539, (unsigned long )0, (long long )((char )'\000'));
# 286 "replace.c"
  makeres = makepat(arg, 0, (char )'\000', pat);
  __CrestHandleReturn(541, (long long )makeres);
  __CrestStore(540, (unsigned long )(& makeres));
  __CrestLoad(544, (unsigned long )(& makeres), (long long )makeres);
  __CrestLoad(543, (unsigned long )0, (long long )0);
  __CrestApply2(542, 14, (long long )(makeres > 0));
  __CrestStore(545, (unsigned long )(& __retres4));
# 287 "replace.c"
  __retres4 = makeres > 0;
  {
  __CrestLoad(546, (unsigned long )(& __retres4), (long long )__retres4);
  __CrestReturn(547);
# 279 "replace.c"
  return (__retres4);
  }
}
}
# 290 "replace.c"
int makesub(char *arg , int from , character delim , char *sub )
{
  int result ;
  int i ;
  int j ;
  bool junk ;
  character escjunk ;
  int tmp ;
  int tmp___0 ;
  int tmp___1 ;
  char *mem_13 ;
  char *mem_14 ;
  char *mem_15 ;
  char *mem_16 ;

  {
  __CrestCall(550, 11);
  __CrestStore(549, (unsigned long )(& delim));
  __CrestStore(548, (unsigned long )(& from));
  __CrestLoad(551, (unsigned long )0, (long long )0);
  __CrestStore(552, (unsigned long )(& j));
# 302 "replace.c"
  j = 0;
  __CrestLoad(553, (unsigned long )(& from), (long long )from);
  __CrestStore(554, (unsigned long )(& i));
# 303 "replace.c"
  i = from;
  {
# 304 "replace.c"
  while (1) {
    while_continue: ;
    {
# 304 "replace.c"
    mem_13 = arg + i;
    {
    __CrestLoad(557, (unsigned long )mem_13, (long long )*mem_13);
    __CrestLoad(556, (unsigned long )(& delim), (long long )delim);
    __CrestApply2(555, 13, (long long )((int )*mem_13 != (int )delim));
# 304 "replace.c"
    if ((int )*mem_13 != (int )delim) {
      __CrestBranch(558, 208, 1);
      {
# 304 "replace.c"
      mem_14 = arg + i;
      {
      __CrestLoad(562, (unsigned long )mem_14, (long long )*mem_14);
      __CrestLoad(561, (unsigned long )0, (long long )0);
      __CrestApply2(560, 13, (long long )((int )*mem_14 != 0));
# 304 "replace.c"
      if ((int )*mem_14 != 0) {
        __CrestBranch(563, 211, 1);

      } else {
        __CrestBranch(564, 212, 0);
# 304 "replace.c"
        goto while_break;
      }
      }
      }
    } else {
      __CrestBranch(559, 213, 0);
# 304 "replace.c"
      goto while_break;
    }
    }
    }
    {
# 305 "replace.c"
    mem_15 = arg + i;
    {
    __CrestLoad(567, (unsigned long )mem_15, (long long )*mem_15);
    __CrestLoad(566, (unsigned long )0, (long long )38U);
    __CrestApply2(565, 12, (long long )((unsigned int )*mem_15 == 38U));
# 305 "replace.c"
    if ((unsigned int )*mem_15 == 38U) {
      __CrestBranch(568, 217, 1);
      __CrestLoad(570, (unsigned long )0, (long long )(char)-1);
      __CrestLoad(571, (unsigned long )0, (long long )100);
# 306 "replace.c"
      tmp = addstr((char)-1, sub, & j, 100);
      __CrestHandleReturn(573, (long long )tmp);
      __CrestStore(572, (unsigned long )(& tmp));
      __CrestLoad(574, (unsigned long )(& tmp), (long long )tmp);
      __CrestStore(575, (unsigned long )(& junk));
# 306 "replace.c"
      junk = (bool )tmp;
    } else {
      __CrestBranch(569, 218, 0);
# 308 "replace.c"
      escjunk = esc(arg, & i);
      __CrestHandleReturn(577, (long long )escjunk);
      __CrestStore(576, (unsigned long )(& escjunk));
      __CrestLoad(578, (unsigned long )(& escjunk), (long long )escjunk);
      __CrestLoad(579, (unsigned long )0, (long long )100);
# 309 "replace.c"
      tmp___0 = addstr(escjunk, sub, & j, 100);
      __CrestHandleReturn(581, (long long )tmp___0);
      __CrestStore(580, (unsigned long )(& tmp___0));
      __CrestLoad(582, (unsigned long )(& tmp___0), (long long )tmp___0);
      __CrestStore(583, (unsigned long )(& junk));
# 309 "replace.c"
      junk = (bool )tmp___0;
    }
    }
    }
    __CrestLoad(586, (unsigned long )(& i), (long long )i);
    __CrestLoad(585, (unsigned long )0, (long long )1);
    __CrestApply2(584, 0, (long long )(i + 1));
    __CrestStore(587, (unsigned long )(& i));
# 311 "replace.c"
    i ++;
  }
  while_break: ;
  }
  {
# 313 "replace.c"
  mem_16 = arg + i;
  {
  __CrestLoad(590, (unsigned long )mem_16, (long long )*mem_16);
  __CrestLoad(589, (unsigned long )(& delim), (long long )delim);
  __CrestApply2(588, 13, (long long )((int )*mem_16 != (int )delim));
# 313 "replace.c"
  if ((int )*mem_16 != (int )delim) {
    __CrestBranch(591, 224, 1);
    __CrestLoad(593, (unsigned long )0, (long long )0);
    __CrestStore(594, (unsigned long )(& result));
# 314 "replace.c"
    result = 0;
  } else {
    __CrestBranch(592, 225, 0);
    __CrestLoad(595, (unsigned long )0, (long long )((char )'\000'));
    __CrestLoad(596, (unsigned long )0, (long long )100);
# 316 "replace.c"
    tmp___1 = addstr((char )'\000', sub, & j, 100);
    __CrestHandleReturn(598, (long long )tmp___1);
    __CrestStore(597, (unsigned long )(& tmp___1));
    __CrestLoad(599, (unsigned long )(& tmp___1), (long long )tmp___1);
    __CrestStore(600, (unsigned long )(& junk));
# 316 "replace.c"
    junk = (bool )tmp___1;
    {
    __CrestLoad(603, (unsigned long )(& junk), (long long )junk);
    __CrestLoad(602, (unsigned long )0, (long long )0);
    __CrestApply2(601, 12, (long long )(junk == 0));
# 317 "replace.c"
    if (junk == 0) {
      __CrestBranch(604, 227, 1);
      __CrestLoad(606, (unsigned long )0, (long long )0);
      __CrestStore(607, (unsigned long )(& result));
# 318 "replace.c"
      result = 0;
    } else {
      __CrestBranch(605, 228, 0);
      __CrestLoad(608, (unsigned long )(& i), (long long )i);
      __CrestStore(609, (unsigned long )(& result));
# 320 "replace.c"
      result = i;
    }
    }
  }
  }
  }
  {
  __CrestLoad(610, (unsigned long )(& result), (long long )result);
  __CrestReturn(611);
# 322 "replace.c"
  return (result);
  }
}
}
# 325 "replace.c"
bool getsub(char *arg , char *sub )
{
  int makeres ;
  bool __retres4 ;

  {
  __CrestCall(612, 12);

  __CrestLoad(613, (unsigned long )0, (long long )0);
  __CrestLoad(614, (unsigned long )0, (long long )((character )'\000'));
# 332 "replace.c"
  makeres = makesub(arg, 0, (character )'\000', sub);
  __CrestHandleReturn(616, (long long )makeres);
  __CrestStore(615, (unsigned long )(& makeres));
  __CrestLoad(619, (unsigned long )(& makeres), (long long )makeres);
  __CrestLoad(618, (unsigned long )0, (long long )0);
  __CrestApply2(617, 14, (long long )(makeres > 0));
  __CrestStore(620, (unsigned long )(& __retres4));
# 333 "replace.c"
  __retres4 = (bool )(makeres > 0);
  {
  __CrestLoad(621, (unsigned long )(& __retres4), (long long )__retres4);
  __CrestReturn(622);
# 325 "replace.c"
  return (__retres4);
  }
}
}
# 336 "replace.c"
void subline(char *lin , char *pat , char *sub ) ;
# 338 "replace.c"
bool locate(character c , char *pat , int offset )
{
  int i ;
  bool flag ;
  char *mem_6 ;
  char *mem_7 ;

  {
  __CrestCall(625, 13);
  __CrestStore(624, (unsigned long )(& offset));
  __CrestStore(623, (unsigned long )(& c));
  __CrestLoad(626, (unsigned long )0, (long long )((bool )0));
  __CrestStore(627, (unsigned long )(& flag));
# 347 "replace.c"
  flag = (bool )0;
# 348 "replace.c"
  mem_6 = pat + offset;
  __CrestLoad(630, (unsigned long )(& offset), (long long )offset);
  __CrestLoad(629, (unsigned long )mem_6, (long long )*mem_6);
  __CrestApply2(628, 0, (long long )(offset + (int )*mem_6));
  __CrestStore(631, (unsigned long )(& i));
# 348 "replace.c"
  i = offset + (int )*mem_6;
  {
# 349 "replace.c"
  while (1) {
    while_continue: ;
    {
    __CrestLoad(634, (unsigned long )(& i), (long long )i);
    __CrestLoad(633, (unsigned long )(& offset), (long long )offset);
    __CrestApply2(632, 14, (long long )(i > offset));
# 349 "replace.c"
    if (i > offset) {
      __CrestBranch(635, 238, 1);

    } else {
      __CrestBranch(636, 239, 0);
# 349 "replace.c"
      goto while_break;
    }
    }
    {
# 351 "replace.c"
    mem_7 = pat + i;
    {
    __CrestLoad(639, (unsigned long )(& c), (long long )c);
    __CrestLoad(638, (unsigned long )mem_7, (long long )*mem_7);
    __CrestApply2(637, 12, (long long )((int )c == (int )*mem_7));
# 351 "replace.c"
    if ((int )c == (int )*mem_7) {
      __CrestBranch(640, 243, 1);
      __CrestLoad(642, (unsigned long )0, (long long )((bool )1));
      __CrestStore(643, (unsigned long )(& flag));
# 352 "replace.c"
      flag = (bool )1;
      __CrestLoad(644, (unsigned long )(& offset), (long long )offset);
      __CrestStore(645, (unsigned long )(& i));
# 353 "replace.c"
      i = offset;
    } else {
      __CrestBranch(641, 244, 0);
      __CrestLoad(648, (unsigned long )(& i), (long long )i);
      __CrestLoad(647, (unsigned long )0, (long long )1);
      __CrestApply2(646, 1, (long long )(i - 1));
      __CrestStore(649, (unsigned long )(& i));
# 355 "replace.c"
      i --;
    }
    }
    }
  }
  while_break: ;
  }
  {
  __CrestLoad(650, (unsigned long )(& flag), (long long )flag);
  __CrestReturn(651);
# 357 "replace.c"
  return (flag);
  }
}
}
# 360 "replace.c"
bool omatch(char *lin , int *i , char *pat , int j )
{
  char advance ;
  bool result ;
  bool tmp ;
  bool tmp___0 ;
  bool tmp___1 ;
  char *mem_10 ;
  char *mem_11 ;
  char *mem_12 ;
  char *mem_13 ;
  char *mem_14 ;
  char *mem_15 ;
  char *mem_16 ;
  char *mem_17 ;
  char *mem_18 ;
  char *mem_19 ;
  char *mem_20 ;

  {
  __CrestCall(653, 14);
  __CrestStore(652, (unsigned long )(& j));
  __CrestLoad(654, (unsigned long )0, (long long )(char)-1);
  __CrestStore(655, (unsigned long )(& advance));
# 370 "replace.c"
  advance = (char)-1;
  {
# 371 "replace.c"
  mem_10 = lin + *i;
  {
  __CrestLoad(658, (unsigned long )mem_10, (long long )*mem_10);
  __CrestLoad(657, (unsigned long )0, (long long )0);
  __CrestApply2(656, 12, (long long )((int )*mem_10 == 0));
# 371 "replace.c"
  if ((int )*mem_10 == 0) {
    __CrestBranch(659, 251, 1);
    __CrestLoad(661, (unsigned long )0, (long long )((bool )0));
    __CrestStore(662, (unsigned long )(& result));
# 372 "replace.c"
    result = (bool )0;
  } else {
    __CrestBranch(660, 252, 0);
# 375 "replace.c"
    mem_11 = pat + j;
    __CrestLoad(663, (unsigned long )mem_11, (long long )*mem_11);
# 375 "replace.c"
    tmp___1 = in_pat_set(*mem_11);
    __CrestHandleReturn(665, (long long )tmp___1);
    __CrestStore(664, (unsigned long )(& tmp___1));
    {
    __CrestLoad(668, (unsigned long )(& tmp___1), (long long )tmp___1);
    __CrestLoad(667, (unsigned long )0, (long long )0);
    __CrestApply2(666, 13, (long long )(tmp___1 != 0));
# 375 "replace.c"
    if (tmp___1 != 0) {
      __CrestBranch(669, 254, 1);
      {
# 381 "replace.c"
      mem_12 = pat + j;
      {
      {
      __CrestLoad(673, (unsigned long )mem_12, (long long )*mem_12);
      __CrestLoad(672, (unsigned long )0, (long long )99);
      __CrestApply2(671, 12, (long long )((int )*mem_12 == 99));
# 383 "replace.c"
      if ((int )*mem_12 == 99) {
        __CrestBranch(674, 258, 1);
# 383 "replace.c"
        goto case_99;
      } else {
        __CrestBranch(675, 259, 0);

      }
      }
      {
      __CrestLoad(678, (unsigned long )mem_12, (long long )*mem_12);
      __CrestLoad(677, (unsigned long )0, (long long )37);
      __CrestApply2(676, 12, (long long )((int )*mem_12 == 37));
# 387 "replace.c"
      if ((int )*mem_12 == 37) {
        __CrestBranch(679, 261, 1);
# 387 "replace.c"
        goto case_37;
      } else {
        __CrestBranch(680, 262, 0);

      }
      }
      {
      __CrestLoad(683, (unsigned long )mem_12, (long long )*mem_12);
      __CrestLoad(682, (unsigned long )0, (long long )63);
      __CrestApply2(681, 12, (long long )((int )*mem_12 == 63));
# 391 "replace.c"
      if ((int )*mem_12 == 63) {
        __CrestBranch(684, 264, 1);
# 391 "replace.c"
        goto case_63;
      } else {
        __CrestBranch(685, 265, 0);

      }
      }
      {
      __CrestLoad(688, (unsigned long )mem_12, (long long )*mem_12);
      __CrestLoad(687, (unsigned long )0, (long long )36);
      __CrestApply2(686, 12, (long long )((int )*mem_12 == 36));
# 395 "replace.c"
      if ((int )*mem_12 == 36) {
        __CrestBranch(689, 267, 1);
# 395 "replace.c"
        goto case_36;
      } else {
        __CrestBranch(690, 268, 0);

      }
      }
      {
      __CrestLoad(693, (unsigned long )mem_12, (long long )*mem_12);
      __CrestLoad(692, (unsigned long )0, (long long )91);
      __CrestApply2(691, 12, (long long )((int )*mem_12 == 91));
# 399 "replace.c"
      if ((int )*mem_12 == 91) {
        __CrestBranch(694, 270, 1);
# 399 "replace.c"
        goto case_91;
      } else {
        __CrestBranch(695, 271, 0);

      }
      }
      {
      __CrestLoad(698, (unsigned long )mem_12, (long long )*mem_12);
      __CrestLoad(697, (unsigned long )0, (long long )33);
      __CrestApply2(696, 12, (long long )((int )*mem_12 == 33));
# 403 "replace.c"
      if ((int )*mem_12 == 33) {
        __CrestBranch(699, 273, 1);
# 403 "replace.c"
        goto case_33;
      } else {
        __CrestBranch(700, 274, 0);

      }
      }
# 407 "replace.c"
      goto switch_default;
      case_99:
      {
# 384 "replace.c"
      mem_13 = lin + *i;
# 384 "replace.c"
      mem_14 = pat + (j + 1);
      {
      __CrestLoad(703, (unsigned long )mem_13, (long long )*mem_13);
      __CrestLoad(702, (unsigned long )mem_14, (long long )*mem_14);
      __CrestApply2(701, 12, (long long )((int )*mem_13 == (int )*mem_14));
# 384 "replace.c"
      if ((int )*mem_13 == (int )*mem_14) {
        __CrestBranch(704, 279, 1);
        __CrestLoad(706, (unsigned long )0, (long long )(char)1);
        __CrestStore(707, (unsigned long )(& advance));
# 385 "replace.c"
        advance = (char)1;
      } else {
        __CrestBranch(705, 280, 0);

      }
      }
      }
# 386 "replace.c"
      goto switch_break;
      case_37:
      {
      __CrestLoad(710, (unsigned long )i, (long long )*i);
      __CrestLoad(709, (unsigned long )0, (long long )0);
      __CrestApply2(708, 12, (long long )(*i == 0));
# 388 "replace.c"
      if (*i == 0) {
        __CrestBranch(711, 283, 1);
        __CrestLoad(713, (unsigned long )0, (long long )(char)0);
        __CrestStore(714, (unsigned long )(& advance));
# 389 "replace.c"
        advance = (char)0;
      } else {
        __CrestBranch(712, 284, 0);

      }
      }
# 390 "replace.c"
      goto switch_break;
      case_63:
      {
# 392 "replace.c"
      mem_15 = lin + *i;
      {
      __CrestLoad(717, (unsigned long )mem_15, (long long )*mem_15);
      __CrestLoad(716, (unsigned long )0, (long long )10);
      __CrestApply2(715, 13, (long long )((int )*mem_15 != 10));
# 392 "replace.c"
      if ((int )*mem_15 != 10) {
        __CrestBranch(718, 289, 1);
        __CrestLoad(720, (unsigned long )0, (long long )(char)1);
        __CrestStore(721, (unsigned long )(& advance));
# 393 "replace.c"
        advance = (char)1;
      } else {
        __CrestBranch(719, 290, 0);

      }
      }
      }
# 394 "replace.c"
      goto switch_break;
      case_36:
      {
# 396 "replace.c"
      mem_16 = lin + *i;
      {
      __CrestLoad(724, (unsigned long )mem_16, (long long )*mem_16);
      __CrestLoad(723, (unsigned long )0, (long long )10);
      __CrestApply2(722, 12, (long long )((int )*mem_16 == 10));
# 396 "replace.c"
      if ((int )*mem_16 == 10) {
        __CrestBranch(725, 295, 1);
        __CrestLoad(727, (unsigned long )0, (long long )(char)0);
        __CrestStore(728, (unsigned long )(& advance));
# 397 "replace.c"
        advance = (char)0;
      } else {
        __CrestBranch(726, 296, 0);

      }
      }
      }
# 398 "replace.c"
      goto switch_break;
      case_91:
# 400 "replace.c"
      mem_17 = lin + *i;
      __CrestLoad(729, (unsigned long )mem_17, (long long )*mem_17);
      __CrestLoad(732, (unsigned long )(& j), (long long )j);
      __CrestLoad(731, (unsigned long )0, (long long )1);
      __CrestApply2(730, 0, (long long )(j + 1));
# 400 "replace.c"
      tmp = locate(*mem_17, pat, j + 1);
      __CrestHandleReturn(734, (long long )tmp);
      __CrestStore(733, (unsigned long )(& tmp));
      {
      __CrestLoad(737, (unsigned long )(& tmp), (long long )tmp);
      __CrestLoad(736, (unsigned long )0, (long long )0);
      __CrestApply2(735, 13, (long long )(tmp != 0));
# 400 "replace.c"
      if (tmp != 0) {
        __CrestBranch(738, 300, 1);
        __CrestLoad(740, (unsigned long )0, (long long )(char)1);
        __CrestStore(741, (unsigned long )(& advance));
# 401 "replace.c"
        advance = (char)1;
      } else {
        __CrestBranch(739, 301, 0);

      }
      }
# 402 "replace.c"
      goto switch_break;
      case_33:
      {
# 404 "replace.c"
      mem_18 = lin + *i;
      {
      __CrestLoad(744, (unsigned long )mem_18, (long long )*mem_18);
      __CrestLoad(743, (unsigned long )0, (long long )10);
      __CrestApply2(742, 13, (long long )((int )*mem_18 != 10));
# 404 "replace.c"
      if ((int )*mem_18 != 10) {
        __CrestBranch(745, 306, 1);
# 404 "replace.c"
        mem_19 = lin + *i;
        __CrestLoad(747, (unsigned long )mem_19, (long long )*mem_19);
        __CrestLoad(750, (unsigned long )(& j), (long long )j);
        __CrestLoad(749, (unsigned long )0, (long long )1);
        __CrestApply2(748, 0, (long long )(j + 1));
# 404 "replace.c"
        tmp___0 = locate(*mem_19, pat, j + 1);
        __CrestHandleReturn(752, (long long )tmp___0);
        __CrestStore(751, (unsigned long )(& tmp___0));
        {
        __CrestLoad(755, (unsigned long )(& tmp___0), (long long )tmp___0);
        __CrestLoad(754, (unsigned long )0, (long long )0);
        __CrestApply2(753, 13, (long long )(tmp___0 != 0));
# 404 "replace.c"
        if (tmp___0 != 0) {
          __CrestBranch(756, 308, 1);

        } else {
          __CrestBranch(757, 309, 0);
          __CrestLoad(758, (unsigned long )0, (long long )(char)1);
          __CrestStore(759, (unsigned long )(& advance));
# 405 "replace.c"
          advance = (char)1;
        }
        }
      } else {
        __CrestBranch(746, 310, 0);

      }
      }
      }
# 406 "replace.c"
      goto switch_break;
      switch_default:
# 408 "replace.c"
      mem_20 = pat + j;
      __CrestLoad(760, (unsigned long )mem_20, (long long )*mem_20);
# 408 "replace.c"
      Caseerror((int )*mem_20);
      __CrestClearStack(761);
      switch_break: ;
      }
      }
    } else {
      __CrestBranch(670, 314, 0);
# 377 "replace.c"
      fprintf((FILE * __restrict )stdout, (char const * __restrict )"in omatch: can\'t happen\n");
      __CrestClearStack(762);
# 378 "replace.c"
      abort();
      __CrestClearStack(763);
    }
    }
  }
  }
  }
  {
  __CrestLoad(766, (unsigned long )(& advance), (long long )advance);
  __CrestLoad(765, (unsigned long )0, (long long )0);
  __CrestApply2(764, 17, (long long )((int )advance >= 0));
# 412 "replace.c"
  if ((int )advance >= 0) {
    __CrestBranch(767, 316, 1);
    __CrestLoad(771, (unsigned long )i, (long long )*i);
    __CrestLoad(770, (unsigned long )(& advance), (long long )advance);
    __CrestApply2(769, 0, (long long )(*i + (int )advance));
    __CrestStore(772, (unsigned long )i);
# 414 "replace.c"
    *i += (int )advance;
    __CrestLoad(773, (unsigned long )0, (long long )((bool )1));
    __CrestStore(774, (unsigned long )(& result));
# 415 "replace.c"
    result = (bool )1;
  } else {
    __CrestBranch(768, 317, 0);
    __CrestLoad(775, (unsigned long )0, (long long )((bool )0));
    __CrestStore(776, (unsigned long )(& result));
# 417 "replace.c"
    result = (bool )0;
  }
  }
  {
  __CrestLoad(777, (unsigned long )(& result), (long long )result);
  __CrestReturn(778);
# 418 "replace.c"
  return (result);
  }
}
}
# 421 "replace.c"
int patsize(char *pat , int n )
{
  int size ;
  bool tmp ;
  char *mem_5 ;
  char *mem_6 ;
  char *mem_7 ;
  char *mem_8 ;

  {
  __CrestCall(780, 15);
  __CrestStore(779, (unsigned long )(& n));
# 427 "replace.c"
  mem_5 = pat + n;
  __CrestLoad(781, (unsigned long )mem_5, (long long )*mem_5);
# 427 "replace.c"
  tmp = in_pat_set(*mem_5);
  __CrestHandleReturn(783, (long long )tmp);
  __CrestStore(782, (unsigned long )(& tmp));
  {
  __CrestLoad(786, (unsigned long )(& tmp), (long long )tmp);
  __CrestLoad(785, (unsigned long )0, (long long )0);
  __CrestApply2(784, 13, (long long )(tmp != 0));
# 427 "replace.c"
  if (tmp != 0) {
    __CrestBranch(787, 321, 1);
    {
# 431 "replace.c"
    mem_6 = pat + n;
    {
    {
    __CrestLoad(791, (unsigned long )mem_6, (long long )*mem_6);
    __CrestLoad(790, (unsigned long )0, (long long )99);
    __CrestApply2(789, 12, (long long )((int )*mem_6 == 99));
# 433 "replace.c"
    if ((int )*mem_6 == 99) {
      __CrestBranch(792, 325, 1);
# 433 "replace.c"
      goto case_99;
    } else {
      __CrestBranch(793, 326, 0);

    }
    }
    {
    __CrestLoad(796, (unsigned long )mem_6, (long long )*mem_6);
    __CrestLoad(795, (unsigned long )0, (long long )63);
    __CrestApply2(794, 12, (long long )((int )*mem_6 == 63));
# 435 "replace.c"
    if ((int )*mem_6 == 63) {
      __CrestBranch(797, 328, 1);
# 435 "replace.c"
      goto case_63;
    } else {
      __CrestBranch(798, 329, 0);

    }
    }
    {
    __CrestLoad(801, (unsigned long )mem_6, (long long )*mem_6);
    __CrestLoad(800, (unsigned long )0, (long long )36);
    __CrestApply2(799, 12, (long long )((int )*mem_6 == 36));
# 435 "replace.c"
    if ((int )*mem_6 == 36) {
      __CrestBranch(802, 331, 1);
# 435 "replace.c"
      goto case_63;
    } else {
      __CrestBranch(803, 332, 0);

    }
    }
    {
    __CrestLoad(806, (unsigned long )mem_6, (long long )*mem_6);
    __CrestLoad(805, (unsigned long )0, (long long )37);
    __CrestApply2(804, 12, (long long )((int )*mem_6 == 37));
# 435 "replace.c"
    if ((int )*mem_6 == 37) {
      __CrestBranch(807, 334, 1);
# 435 "replace.c"
      goto case_63;
    } else {
      __CrestBranch(808, 335, 0);

    }
    }
    {
    __CrestLoad(811, (unsigned long )mem_6, (long long )*mem_6);
    __CrestLoad(810, (unsigned long )0, (long long )33);
    __CrestApply2(809, 12, (long long )((int )*mem_6 == 33));
# 438 "replace.c"
    if ((int )*mem_6 == 33) {
      __CrestBranch(812, 337, 1);
# 438 "replace.c"
      goto case_33;
    } else {
      __CrestBranch(813, 338, 0);

    }
    }
    {
    __CrestLoad(816, (unsigned long )mem_6, (long long )*mem_6);
    __CrestLoad(815, (unsigned long )0, (long long )91);
    __CrestApply2(814, 12, (long long )((int )*mem_6 == 91));
# 438 "replace.c"
    if ((int )*mem_6 == 91) {
      __CrestBranch(817, 340, 1);
# 438 "replace.c"
      goto case_33;
    } else {
      __CrestBranch(818, 341, 0);

    }
    }
    {
    __CrestLoad(821, (unsigned long )mem_6, (long long )*mem_6);
    __CrestLoad(820, (unsigned long )0, (long long )42);
    __CrestApply2(819, 12, (long long )((int )*mem_6 == 42));
# 441 "replace.c"
    if ((int )*mem_6 == 42) {
      __CrestBranch(822, 343, 1);
# 441 "replace.c"
      goto case_42;
    } else {
      __CrestBranch(823, 344, 0);

    }
    }
# 444 "replace.c"
    goto switch_default;
    case_99:
    __CrestLoad(824, (unsigned long )0, (long long )2);
    __CrestStore(825, (unsigned long )(& size));
# 433 "replace.c"
    size = 2;
# 433 "replace.c"
    goto switch_break;
    case_63:
    case_36:
    case_37:
    __CrestLoad(826, (unsigned long )0, (long long )1);
    __CrestStore(827, (unsigned long )(& size));
# 436 "replace.c"
    size = 1;
# 437 "replace.c"
    goto switch_break;
    case_33:
    case_91:
# 439 "replace.c"
    mem_7 = pat + (n + 1);
    __CrestLoad(830, (unsigned long )mem_7, (long long )*mem_7);
    __CrestLoad(829, (unsigned long )0, (long long )2);
    __CrestApply2(828, 0, (long long )((int )*mem_7 + 2));
    __CrestStore(831, (unsigned long )(& size));
# 439 "replace.c"
    size = (int )*mem_7 + 2;
# 440 "replace.c"
    goto switch_break;
    case_42:
    __CrestLoad(832, (unsigned long )0, (long long )1);
    __CrestStore(833, (unsigned long )(& size));
# 442 "replace.c"
    size = 1;
# 443 "replace.c"
    goto switch_break;
    switch_default:
# 445 "replace.c"
    mem_8 = pat + n;
    __CrestLoad(834, (unsigned long )mem_8, (long long )*mem_8);
# 445 "replace.c"
    Caseerror((int )*mem_8);
    __CrestClearStack(835);
    switch_break: ;
    }
    }
  } else {
    __CrestBranch(788, 356, 0);
# 428 "replace.c"
    fprintf((FILE * __restrict )stdout, (char const * __restrict )"in patsize: can\'t happen\n");
    __CrestClearStack(836);
# 429 "replace.c"
    abort();
    __CrestClearStack(837);
  }
  }
  {
  __CrestLoad(838, (unsigned long )(& size), (long long )size);
  __CrestReturn(839);
# 447 "replace.c"
  return (size);
  }
}
}
# 450 "replace.c"
int amatch(char *lin , int offset , char *pat , int j )
{
  int i ;
  int k ;
  bool result ;
  bool done ;
  int tmp ;
  int tmp___0 ;
  int tmp___1 ;
  char *mem_12 ;
  char *mem_13 ;
  char *mem_14 ;

  {
  __CrestCall(842, 16);
  __CrestStore(841, (unsigned long )(& j));
  __CrestStore(840, (unsigned long )(& offset));
  __CrestLoad(843, (unsigned long )0, (long long )((bool )0));
  __CrestStore(844, (unsigned long )(& done));
# 460 "replace.c"
  done = (bool )0;
  {
# 461 "replace.c"
  while (1) {
    while_continue: ;
    {
    __CrestLoad(847, (unsigned long )(& done), (long long )done);
    __CrestLoad(846, (unsigned long )0, (long long )0);
    __CrestApply2(845, 12, (long long )(done == 0));
# 461 "replace.c"
    if (done == 0) {
      __CrestBranch(848, 363, 1);
      {
# 461 "replace.c"
      mem_12 = pat + j;
      {
      __CrestLoad(852, (unsigned long )mem_12, (long long )*mem_12);
      __CrestLoad(851, (unsigned long )0, (long long )0);
      __CrestApply2(850, 13, (long long )((int )*mem_12 != 0));
# 461 "replace.c"
      if ((int )*mem_12 != 0) {
        __CrestBranch(853, 366, 1);

      } else {
        __CrestBranch(854, 367, 0);
# 461 "replace.c"
        goto while_break;
      }
      }
      }
    } else {
      __CrestBranch(849, 368, 0);
# 461 "replace.c"
      goto while_break;
    }
    }
    {
# 462 "replace.c"
    mem_13 = pat + j;
    {
    __CrestLoad(857, (unsigned long )mem_13, (long long )*mem_13);
    __CrestLoad(856, (unsigned long )0, (long long )42);
    __CrestApply2(855, 12, (long long )((int )*mem_13 == 42));
# 462 "replace.c"
    if ((int )*mem_13 == 42) {
      __CrestBranch(858, 372, 1);
      __CrestLoad(860, (unsigned long )(& j), (long long )j);
# 463 "replace.c"
      tmp = patsize(pat, j);
      __CrestHandleReturn(862, (long long )tmp);
      __CrestStore(861, (unsigned long )(& tmp));
      __CrestLoad(865, (unsigned long )(& j), (long long )j);
      __CrestLoad(864, (unsigned long )(& tmp), (long long )tmp);
      __CrestApply2(863, 0, (long long )(j + tmp));
      __CrestStore(866, (unsigned long )(& j));
# 463 "replace.c"
      j += tmp;
      __CrestLoad(867, (unsigned long )(& offset), (long long )offset);
      __CrestStore(868, (unsigned long )(& i));
# 464 "replace.c"
      i = offset;
      {
# 465 "replace.c"
      while (1) {
        while_continue___0: ;
        {
        __CrestLoad(871, (unsigned long )(& done), (long long )done);
        __CrestLoad(870, (unsigned long )0, (long long )0);
        __CrestApply2(869, 12, (long long )(done == 0));
# 465 "replace.c"
        if (done == 0) {
          __CrestBranch(872, 377, 1);
          {
# 465 "replace.c"
          mem_14 = lin + i;
          {
          __CrestLoad(876, (unsigned long )mem_14, (long long )*mem_14);
          __CrestLoad(875, (unsigned long )0, (long long )0);
          __CrestApply2(874, 13, (long long )((int )*mem_14 != 0));
# 465 "replace.c"
          if ((int )*mem_14 != 0) {
            __CrestBranch(877, 380, 1);

          } else {
            __CrestBranch(878, 381, 0);
# 465 "replace.c"
            goto while_break___0;
          }
          }
          }
        } else {
          __CrestBranch(873, 382, 0);
# 465 "replace.c"
          goto while_break___0;
        }
        }
        __CrestLoad(879, (unsigned long )(& j), (long long )j);
# 466 "replace.c"
        result = omatch(lin, & i, pat, j);
        __CrestHandleReturn(881, (long long )result);
        __CrestStore(880, (unsigned long )(& result));
        {
        __CrestLoad(884, (unsigned long )(& result), (long long )result);
        __CrestLoad(883, (unsigned long )0, (long long )0);
        __CrestApply2(882, 12, (long long )(result == 0));
# 467 "replace.c"
        if (result == 0) {
          __CrestBranch(885, 385, 1);
          __CrestLoad(887, (unsigned long )0, (long long )((bool )1));
          __CrestStore(888, (unsigned long )(& done));
# 468 "replace.c"
          done = (bool )1;
        } else {
          __CrestBranch(886, 386, 0);

        }
        }
      }
      while_break___0: ;
      }
      __CrestLoad(889, (unsigned long )0, (long long )((bool )0));
      __CrestStore(890, (unsigned long )(& done));
# 470 "replace.c"
      done = (bool )0;
      {
# 471 "replace.c"
      while (1) {
        while_continue___1: ;
        {
        __CrestLoad(893, (unsigned long )(& done), (long long )done);
        __CrestLoad(892, (unsigned long )0, (long long )0);
        __CrestApply2(891, 12, (long long )(done == 0));
# 471 "replace.c"
        if (done == 0) {
          __CrestBranch(894, 393, 1);
          {
          __CrestLoad(898, (unsigned long )(& i), (long long )i);
          __CrestLoad(897, (unsigned long )(& offset), (long long )offset);
          __CrestApply2(896, 17, (long long )(i >= offset));
# 471 "replace.c"
          if (i >= offset) {
            __CrestBranch(899, 394, 1);

          } else {
            __CrestBranch(900, 395, 0);
# 471 "replace.c"
            goto while_break___1;
          }
          }
        } else {
          __CrestBranch(895, 396, 0);
# 471 "replace.c"
          goto while_break___1;
        }
        }
        __CrestLoad(901, (unsigned long )(& j), (long long )j);
# 472 "replace.c"
        tmp___0 = patsize(pat, j);
        __CrestHandleReturn(903, (long long )tmp___0);
        __CrestStore(902, (unsigned long )(& tmp___0));
        __CrestLoad(904, (unsigned long )(& i), (long long )i);
        __CrestLoad(907, (unsigned long )(& j), (long long )j);
        __CrestLoad(906, (unsigned long )(& tmp___0), (long long )tmp___0);
        __CrestApply2(905, 0, (long long )(j + tmp___0));
# 472 "replace.c"
        k = amatch(lin, i, pat, j + tmp___0);
        __CrestHandleReturn(909, (long long )k);
        __CrestStore(908, (unsigned long )(& k));
        {
        __CrestLoad(912, (unsigned long )(& k), (long long )k);
        __CrestLoad(911, (unsigned long )0, (long long )0);
        __CrestApply2(910, 17, (long long )(k >= 0));
# 473 "replace.c"
        if (k >= 0) {
          __CrestBranch(913, 399, 1);
          __CrestLoad(915, (unsigned long )0, (long long )((bool )1));
          __CrestStore(916, (unsigned long )(& done));
# 474 "replace.c"
          done = (bool )1;
        } else {
          __CrestBranch(914, 400, 0);
          __CrestLoad(919, (unsigned long )(& i), (long long )i);
          __CrestLoad(918, (unsigned long )0, (long long )1);
          __CrestApply2(917, 1, (long long )(i - 1));
          __CrestStore(920, (unsigned long )(& i));
# 476 "replace.c"
          i --;
        }
        }
      }
      while_break___1: ;
      }
      __CrestLoad(921, (unsigned long )(& k), (long long )k);
      __CrestStore(922, (unsigned long )(& offset));
# 478 "replace.c"
      offset = k;
      __CrestLoad(923, (unsigned long )0, (long long )((bool )1));
      __CrestStore(924, (unsigned long )(& done));
# 479 "replace.c"
      done = (bool )1;
    } else {
      __CrestBranch(859, 403, 0);
      __CrestLoad(925, (unsigned long )(& j), (long long )j);
# 481 "replace.c"
      result = omatch(lin, & offset, pat, j);
      __CrestHandleReturn(927, (long long )result);
      __CrestStore(926, (unsigned long )(& result));
      {
      __CrestLoad(930, (unsigned long )(& result), (long long )result);
      __CrestLoad(929, (unsigned long )0, (long long )0);
      __CrestApply2(928, 12, (long long )(result == 0));
# 482 "replace.c"
      if (result == 0) {
        __CrestBranch(931, 405, 1);
        __CrestLoad(933, (unsigned long )0, (long long )-1);
        __CrestStore(934, (unsigned long )(& offset));
# 483 "replace.c"
        offset = -1;
        __CrestLoad(935, (unsigned long )0, (long long )((bool )1));
        __CrestStore(936, (unsigned long )(& done));
# 484 "replace.c"
        done = (bool )1;
      } else {
        __CrestBranch(932, 406, 0);
        __CrestLoad(937, (unsigned long )(& j), (long long )j);
# 486 "replace.c"
        tmp___1 = patsize(pat, j);
        __CrestHandleReturn(939, (long long )tmp___1);
        __CrestStore(938, (unsigned long )(& tmp___1));
        __CrestLoad(942, (unsigned long )(& j), (long long )j);
        __CrestLoad(941, (unsigned long )(& tmp___1), (long long )tmp___1);
        __CrestApply2(940, 0, (long long )(j + tmp___1));
        __CrestStore(943, (unsigned long )(& j));
# 486 "replace.c"
        j += tmp___1;
      }
      }
    }
    }
    }
  }
  while_break: ;
  }
  {
  __CrestLoad(944, (unsigned long )(& offset), (long long )offset);
  __CrestReturn(945);
# 488 "replace.c"
  return (offset);
  }
}
}
# 491 "replace.c"
void putsub(char *lin , int s1 , int s2 , char *sub )
{
  int i ;
  int j ;
  char *mem_7 ;
  char *mem_8 ;
  char *mem_9 ;
  char *mem_10 ;

  {
  __CrestCall(948, 17);
  __CrestStore(947, (unsigned long )(& s2));
  __CrestStore(946, (unsigned long )(& s1));
  __CrestLoad(949, (unsigned long )0, (long long )0);
  __CrestStore(950, (unsigned long )(& i));
# 500 "replace.c"
  i = 0;
  {
# 501 "replace.c"
  while (1) {
    while_continue: ;
    {
# 501 "replace.c"
    mem_7 = sub + i;
    {
    __CrestLoad(953, (unsigned long )mem_7, (long long )*mem_7);
    __CrestLoad(952, (unsigned long )0, (long long )0);
    __CrestApply2(951, 13, (long long )((int )*mem_7 != 0));
# 501 "replace.c"
    if ((int )*mem_7 != 0) {
      __CrestBranch(954, 416, 1);

    } else {
      __CrestBranch(955, 417, 0);
# 501 "replace.c"
      goto while_break;
    }
    }
    }
    {
# 502 "replace.c"
    mem_8 = sub + i;
    {
    __CrestLoad(958, (unsigned long )mem_8, (long long )*mem_8);
    __CrestLoad(957, (unsigned long )0, (long long )-1);
    __CrestApply2(956, 12, (long long )((int )*mem_8 == -1));
# 502 "replace.c"
    if ((int )*mem_8 == -1) {
      __CrestBranch(959, 421, 1);
      __CrestLoad(961, (unsigned long )(& s1), (long long )s1);
      __CrestStore(962, (unsigned long )(& j));
# 503 "replace.c"
      j = s1;
      {
# 503 "replace.c"
      while (1) {
        while_continue___0: ;
        {
        __CrestLoad(965, (unsigned long )(& j), (long long )j);
        __CrestLoad(964, (unsigned long )(& s2), (long long )s2);
        __CrestApply2(963, 16, (long long )(j < s2));
# 503 "replace.c"
        if (j < s2) {
          __CrestBranch(966, 426, 1);

        } else {
          __CrestBranch(967, 427, 0);
# 503 "replace.c"
          goto while_break___0;
        }
        }
# 505 "replace.c"
        mem_9 = lin + j;
        __CrestLoad(968, (unsigned long )mem_9, (long long )*mem_9);
# 505 "replace.c"
        fputc((int )*mem_9, stdout);
        __CrestClearStack(969);
        __CrestLoad(972, (unsigned long )(& j), (long long )j);
        __CrestLoad(971, (unsigned long )0, (long long )1);
        __CrestApply2(970, 0, (long long )(j + 1));
        __CrestStore(973, (unsigned long )(& j));
# 503 "replace.c"
        j ++;
      }
      while_break___0: ;
      }
    } else {
      __CrestBranch(960, 430, 0);
# 509 "replace.c"
      mem_10 = sub + i;
      __CrestLoad(974, (unsigned long )mem_10, (long long )*mem_10);
# 509 "replace.c"
      fputc((int )*mem_10, stdout);
      __CrestClearStack(975);
    }
    }
    }
    __CrestLoad(978, (unsigned long )(& i), (long long )i);
    __CrestLoad(977, (unsigned long )0, (long long )1);
    __CrestApply2(976, 0, (long long )(i + 1));
    __CrestStore(979, (unsigned long )(& i));
# 511 "replace.c"
    i ++;
  }
  while_break: ;
  }

  {
  __CrestReturn(980);
# 491 "replace.c"
  return;
  }
}
}
# 515 "replace.c"
void subline(char *lin , char *pat , char *sub )
{
  int i ;
  int lastm ;
  int m ;
  char *mem_7 ;
  char *mem_8 ;
  char *mem_9 ;

  {
  __CrestCall(981, 18);

  __CrestLoad(982, (unsigned long )0, (long long )-1);
  __CrestStore(983, (unsigned long )(& lastm));
# 523 "replace.c"
  lastm = -1;
  __CrestLoad(984, (unsigned long )0, (long long )0);
  __CrestStore(985, (unsigned long )(& i));
# 524 "replace.c"
  i = 0;
  {
# 525 "replace.c"
  while (1) {
    while_continue: ;
    {
# 525 "replace.c"
    mem_7 = lin + i;
    {
    __CrestLoad(988, (unsigned long )mem_7, (long long )*mem_7);
    __CrestLoad(987, (unsigned long )0, (long long )0);
    __CrestApply2(986, 13, (long long )((int )*mem_7 != 0));
# 525 "replace.c"
    if ((int )*mem_7 != 0) {
      __CrestBranch(989, 442, 1);

    } else {
      __CrestBranch(990, 443, 0);
# 525 "replace.c"
      goto while_break;
    }
    }
    }
    __CrestLoad(991, (unsigned long )(& i), (long long )i);
    __CrestLoad(992, (unsigned long )0, (long long )0);
# 527 "replace.c"
    m = amatch(lin, i, pat, 0);
    __CrestHandleReturn(994, (long long )m);
    __CrestStore(993, (unsigned long )(& m));
    {
    __CrestLoad(997, (unsigned long )(& m), (long long )m);
    __CrestLoad(996, (unsigned long )0, (long long )0);
    __CrestApply2(995, 17, (long long )(m >= 0));
# 528 "replace.c"
    if (m >= 0) {
      __CrestBranch(998, 446, 1);
      {
      __CrestLoad(1002, (unsigned long )(& lastm), (long long )lastm);
      __CrestLoad(1001, (unsigned long )(& m), (long long )m);
      __CrestApply2(1000, 13, (long long )(lastm != m));
# 528 "replace.c"
      if (lastm != m) {
        __CrestBranch(1003, 447, 1);
        __CrestLoad(1005, (unsigned long )(& i), (long long )i);
        __CrestLoad(1006, (unsigned long )(& m), (long long )m);
# 529 "replace.c"
        putsub(lin, i, m, sub);
        __CrestClearStack(1007);
        __CrestLoad(1008, (unsigned long )(& m), (long long )m);
        __CrestStore(1009, (unsigned long )(& lastm));
# 530 "replace.c"
        lastm = m;
      } else {
        __CrestBranch(1004, 448, 0);

      }
      }
    } else {
      __CrestBranch(999, 449, 0);

    }
    }
    {
    __CrestLoad(1012, (unsigned long )(& m), (long long )m);
    __CrestLoad(1011, (unsigned long )0, (long long )-1);
    __CrestApply2(1010, 12, (long long )(m == -1));
# 532 "replace.c"
    if (m == -1) {
      __CrestBranch(1013, 451, 1);
# 533 "replace.c"
      mem_8 = lin + i;
      __CrestLoad(1015, (unsigned long )mem_8, (long long )*mem_8);
# 533 "replace.c"
      fputc((int )*mem_8, stdout);
      __CrestClearStack(1016);
      __CrestLoad(1019, (unsigned long )(& i), (long long )i);
      __CrestLoad(1018, (unsigned long )0, (long long )1);
      __CrestApply2(1017, 0, (long long )(i + 1));
      __CrestStore(1020, (unsigned long )(& i));
# 534 "replace.c"
      i ++;
    } else {
      __CrestBranch(1014, 452, 0);
      {
      __CrestLoad(1023, (unsigned long )(& m), (long long )m);
      __CrestLoad(1022, (unsigned long )(& i), (long long )i);
      __CrestApply2(1021, 12, (long long )(m == i));
# 532 "replace.c"
      if (m == i) {
        __CrestBranch(1024, 453, 1);
# 533 "replace.c"
        mem_9 = lin + i;
        __CrestLoad(1026, (unsigned long )mem_9, (long long )*mem_9);
# 533 "replace.c"
        fputc((int )*mem_9, stdout);
        __CrestClearStack(1027);
        __CrestLoad(1030, (unsigned long )(& i), (long long )i);
        __CrestLoad(1029, (unsigned long )0, (long long )1);
        __CrestApply2(1028, 0, (long long )(i + 1));
        __CrestStore(1031, (unsigned long )(& i));
# 534 "replace.c"
        i ++;
      } else {
        __CrestBranch(1025, 454, 0);
        __CrestLoad(1032, (unsigned long )(& m), (long long )m);
        __CrestStore(1033, (unsigned long )(& i));
# 536 "replace.c"
        i = m;
      }
      }
    }
    }
  }
  while_break: ;
  }

  {
  __CrestReturn(1034);
# 515 "replace.c"
  return;
  }
}
}
# 540 "replace.c"
void change(char *pat , char *sub )
{
  string line ;
  bool result ;

  {
  __CrestCall(1035, 19);

  __CrestLoad(1036, (unsigned long )0, (long long )100);
# 547 "replace.c"
  result = getline2(line, 100);
  __CrestHandleReturn(1038, (long long )result);
  __CrestStore(1037, (unsigned long )(& result));
  {
  __CrestLoad(1041, (unsigned long )(& result), (long long )result);
  __CrestLoad(1040, (unsigned long )0, (long long )0);
  __CrestApply2(1039, 13, (long long )(result != 0));
# 548 "replace.c"
  if (result != 0) {
    __CrestBranch(1042, 460, 1);
# 549 "replace.c"
    subline(line, pat, sub);
    __CrestClearStack(1044);
  } else {
    __CrestBranch(1043, 461, 0);

  }
  }

  {
  __CrestReturn(1045);
# 540 "replace.c"
  return;
  }
}
}
# 553 "replace.c"
int main(void)
{
  string pat ;
  string sub ;
  bool result ;
  string input1 ;
  string input2 ;
  int tmp ;
  int __retres8 ;

  {
  __globinit_replace();
  __CrestCall(1046, 20);
# 570 "replace.c"
  __CrestChar(& input1[0]);
# 571 "replace.c"
  __CrestChar(& input1[1]);
# 572 "replace.c"
  __CrestChar(& input1[2]);
# 573 "replace.c"
  __CrestChar(& input1[3]);
# 574 "replace.c"
  __CrestChar(& input1[4]);
# 575 "replace.c"
  __CrestChar(& input1[5]);
# 576 "replace.c"
  __CrestChar(& input1[6]);
# 577 "replace.c"
  __CrestChar(& input1[7]);
# 578 "replace.c"
  __CrestChar(& input1[8]);
  __CrestLoad(1047, (unsigned long )0, (long long )(char)0);
  __CrestStore(1048, (unsigned long )(& input1[9]));
# 580 "replace.c"
  input1[9] = (char)0;
# 582 "replace.c"
  tmp = getpat(input1, pat);
  __CrestHandleReturn(1050, (long long )tmp);
  __CrestStore(1049, (unsigned long )(& tmp));
  __CrestLoad(1051, (unsigned long )(& tmp), (long long )tmp);
  __CrestStore(1052, (unsigned long )(& result));
# 582 "replace.c"
  result = (bool )tmp;
  __CrestLoad(1055, (unsigned long )(& result), (long long )result);
  __CrestLoad(1054, (unsigned long )0, (long long )0);
  __CrestApply2(1053, 12, (long long )(result == 0));
# 583 "replace.c"
  if (result == 0) {
    __CrestBranch(1056, 466, 1);
# 586 "replace.c"
    fprintf((FILE * __restrict )stdout, (char const * __restrict )"change: illegal \"from\" pattern\n");
    __CrestClearStack(1058);
    __CrestLoad(1059, (unsigned long )0, (long long )2);
# 587 "replace.c"
    exit(2);
    __CrestClearStack(1060);
  } else {
    __CrestBranch(1057, 467, 0);

  }
# 597 "replace.c"
  __CrestChar(& input2[0]);
# 598 "replace.c"
  __CrestChar(& input2[1]);
# 599 "replace.c"
  __CrestChar(& input2[2]);
# 600 "replace.c"
  __CrestChar(& input2[3]);
# 601 "replace.c"
  __CrestChar(& input2[4]);
# 602 "replace.c"
  __CrestChar(& input2[5]);
# 603 "replace.c"
  __CrestChar(& input2[6]);
# 604 "replace.c"
  __CrestChar(& input2[7]);
# 605 "replace.c"
  __CrestChar(& input2[8]);
  __CrestLoad(1061, (unsigned long )0, (long long )(char)0);
  __CrestStore(1062, (unsigned long )(& input2[9]));
# 607 "replace.c"
  input2[9] = (char)0;
# 609 "replace.c"
  result = getsub(input2, sub);
  __CrestHandleReturn(1064, (long long )result);
  __CrestStore(1063, (unsigned long )(& result));
  __CrestLoad(1067, (unsigned long )(& result), (long long )result);
  __CrestLoad(1066, (unsigned long )0, (long long )0);
  __CrestApply2(1065, 12, (long long )(result == 0));
# 610 "replace.c"
  if (result == 0) {
    __CrestBranch(1068, 470, 1);
# 612 "replace.c"
    fprintf((FILE * __restrict )stdout, (char const * __restrict )"change: illegal \"to\" string\n");
    __CrestClearStack(1070);
    __CrestLoad(1071, (unsigned long )0, (long long )3);
# 613 "replace.c"
    exit(3);
    __CrestClearStack(1072);
  } else {
    __CrestBranch(1069, 471, 0);

  }
# 616 "replace.c"
  change(pat, sub);
  __CrestClearStack(1073);
  __CrestLoad(1074, (unsigned long )0, (long long )0);
  __CrestStore(1075, (unsigned long )(& __retres8));
# 617 "replace.c"
  __retres8 = 0;
  __CrestLoad(1076, (unsigned long )(& __retres8), (long long )__retres8);
  __CrestReturn(1077);
# 553 "replace.c"
  return (__retres8);
}
}
# 620 "replace.c"
void Caseerror(int n )
{


  {
  __CrestCall(1079, 21);
  __CrestStore(1078, (unsigned long )(& n));
  __CrestLoad(1080, (unsigned long )(& n), (long long )n);
# 624 "replace.c"
  fprintf((FILE * __restrict )stdout, (char const * __restrict )"Missing case limb: line %d\n",
          n);
  __CrestClearStack(1081);
  __CrestLoad(1082, (unsigned long )0, (long long )4);
# 625 "replace.c"
  exit(4);
  __CrestClearStack(1083);
  {
  __CrestReturn(1084);
# 620 "replace.c"
  return;
  }
}
}
void __globinit_replace(void)
{


  {
  __CrestInit();
}
}
