# 1 "./obstack.cil.c"
# 1 "/home/yavuz/crest-ppc3/benchmarks/grep-2.2/src//"
# 1 "<command-line>"
# 1 "/usr/include/stdc-predef.h" 1 3 4
# 1 "<command-line>" 2
# 1 "./obstack.cil.c"



extern void __CrestInit(void) __attribute__((__crest_skip__)) ;
extern void __CrestHandleReturn(int id , long long val ) __attribute__((__crest_skip__)) ;
extern void __CrestReturn(int id ) __attribute__((__crest_skip__)) ;
extern void __CrestCall(int id , unsigned int fid ) __attribute__((__crest_skip__)) ;
extern void __CrestBranch(int id , int bid , unsigned char b ) __attribute__((__crest_skip__)) ;
extern void __CrestApply2(int id , int op , long long val ) __attribute__((__crest_skip__)) ;
extern void __CrestApply1(int id , int op , long long val ) __attribute__((__crest_skip__)) ;
extern void __CrestClearStack(int id ) __attribute__((__crest_skip__)) ;
extern void __CrestStore(int id , unsigned long addr ) __attribute__((__crest_skip__)) ;
extern void __CrestLoad(int id , unsigned long addr , long long val ) __attribute__((__crest_skip__)) ;
void __globinit_obstack(void)
{


  {
  __CrestInit();
}
}
