# 1 "search.c"
# 1 "/home/yavuz/crest/benchmarks/grep-2.2/src//"
# 1 "<command-line>"
# 1 "/usr/include/stdc-predef.h" 1 3 4
# 1 "<command-line>" 2
# 1 "search.c"
# 22 "search.c"
# 1 "../config.h" 1
# 23 "search.c" 2

# 1 "/usr/include/x86_64-linux-gnu/sys/types.h" 1 3 4
# 25 "/usr/include/x86_64-linux-gnu/sys/types.h" 3 4
# 1 "/usr/include/features.h" 1 3 4
# 374 "/usr/include/features.h" 3 4
# 1 "/usr/include/x86_64-linux-gnu/sys/cdefs.h" 1 3 4
# 385 "/usr/include/x86_64-linux-gnu/sys/cdefs.h" 3 4
# 1 "/usr/include/x86_64-linux-gnu/bits/wordsize.h" 1 3 4
# 386 "/usr/include/x86_64-linux-gnu/sys/cdefs.h" 2 3 4
# 375 "/usr/include/features.h" 2 3 4
# 398 "/usr/include/features.h" 3 4
# 1 "/usr/include/x86_64-linux-gnu/gnu/stubs.h" 1 3 4
# 10 "/usr/include/x86_64-linux-gnu/gnu/stubs.h" 3 4
# 1 "/usr/include/x86_64-linux-gnu/gnu/stubs-64.h" 1 3 4
# 11 "/usr/include/x86_64-linux-gnu/gnu/stubs.h" 2 3 4
# 399 "/usr/include/features.h" 2 3 4
# 26 "/usr/include/x86_64-linux-gnu/sys/types.h" 2 3 4



# 1 "/usr/include/x86_64-linux-gnu/bits/types.h" 1 3 4
# 27 "/usr/include/x86_64-linux-gnu/bits/types.h" 3 4
# 1 "/usr/include/x86_64-linux-gnu/bits/wordsize.h" 1 3 4
# 28 "/usr/include/x86_64-linux-gnu/bits/types.h" 2 3 4


typedef unsigned char __u_char;
typedef unsigned short int __u_short;
typedef unsigned int __u_int;
typedef unsigned long int __u_long;


typedef signed char __int8_t;
typedef unsigned char __uint8_t;
typedef signed short int __int16_t;
typedef unsigned short int __uint16_t;
typedef signed int __int32_t;
typedef unsigned int __uint32_t;

typedef signed long int __int64_t;
typedef unsigned long int __uint64_t;







typedef long int __quad_t;
typedef unsigned long int __u_quad_t;
# 121 "/usr/include/x86_64-linux-gnu/bits/types.h" 3 4
# 1 "/usr/include/x86_64-linux-gnu/bits/typesizes.h" 1 3 4
# 122 "/usr/include/x86_64-linux-gnu/bits/types.h" 2 3 4


typedef unsigned long int __dev_t;
typedef unsigned int __uid_t;
typedef unsigned int __gid_t;
typedef unsigned long int __ino_t;
typedef unsigned long int __ino64_t;
typedef unsigned int __mode_t;
typedef unsigned long int __nlink_t;
typedef long int __off_t;
typedef long int __off64_t;
typedef int __pid_t;
typedef struct { int __val[2]; } __fsid_t;
typedef long int __clock_t;
typedef unsigned long int __rlim_t;
typedef unsigned long int __rlim64_t;
typedef unsigned int __id_t;
typedef long int __time_t;
typedef unsigned int __useconds_t;
typedef long int __suseconds_t;

typedef int __daddr_t;
typedef int __key_t;


typedef int __clockid_t;


typedef void * __timer_t;


typedef long int __blksize_t;




typedef long int __blkcnt_t;
typedef long int __blkcnt64_t;


typedef unsigned long int __fsblkcnt_t;
typedef unsigned long int __fsblkcnt64_t;


typedef unsigned long int __fsfilcnt_t;
typedef unsigned long int __fsfilcnt64_t;


typedef long int __fsword_t;

typedef long int __ssize_t;


typedef long int __syscall_slong_t;

typedef unsigned long int __syscall_ulong_t;



typedef __off64_t __loff_t;
typedef __quad_t *__qaddr_t;
typedef char *__caddr_t;


typedef long int __intptr_t;


typedef unsigned int __socklen_t;
# 30 "/usr/include/x86_64-linux-gnu/sys/types.h" 2 3 4



typedef __u_char u_char;
typedef __u_short u_short;
typedef __u_int u_int;
typedef __u_long u_long;
typedef __quad_t quad_t;
typedef __u_quad_t u_quad_t;
typedef __fsid_t fsid_t;




typedef __loff_t loff_t;





typedef __ino64_t ino_t;
# 60 "/usr/include/x86_64-linux-gnu/sys/types.h" 3 4
typedef __dev_t dev_t;




typedef __gid_t gid_t;




typedef __mode_t mode_t;




typedef __nlink_t nlink_t;




typedef __uid_t uid_t;







typedef __off64_t off_t;
# 98 "/usr/include/x86_64-linux-gnu/sys/types.h" 3 4
typedef __pid_t pid_t;





typedef __id_t id_t;




typedef __ssize_t ssize_t;





typedef __daddr_t daddr_t;
typedef __caddr_t caddr_t;





typedef __key_t key_t;
# 132 "/usr/include/x86_64-linux-gnu/sys/types.h" 3 4
# 1 "/usr/include/time.h" 1 3 4
# 57 "/usr/include/time.h" 3 4


typedef __clock_t clock_t;



# 73 "/usr/include/time.h" 3 4


typedef __time_t time_t;



# 91 "/usr/include/time.h" 3 4
typedef __clockid_t clockid_t;
# 103 "/usr/include/time.h" 3 4
typedef __timer_t timer_t;
# 133 "/usr/include/x86_64-linux-gnu/sys/types.h" 2 3 4
# 146 "/usr/include/x86_64-linux-gnu/sys/types.h" 3 4
# 1 "/usr/lib/gcc/x86_64-linux-gnu/4.8/include/stddef.h" 1 3 4
# 212 "/usr/lib/gcc/x86_64-linux-gnu/4.8/include/stddef.h" 3 4
typedef long unsigned int size_t;
# 147 "/usr/include/x86_64-linux-gnu/sys/types.h" 2 3 4



typedef unsigned long int ulong;
typedef unsigned short int ushort;
typedef unsigned int uint;
# 194 "/usr/include/x86_64-linux-gnu/sys/types.h" 3 4
typedef int int8_t __attribute__ ((__mode__ (__QI__)));
typedef int int16_t __attribute__ ((__mode__ (__HI__)));
typedef int int32_t __attribute__ ((__mode__ (__SI__)));
typedef int int64_t __attribute__ ((__mode__ (__DI__)));


typedef unsigned int u_int8_t __attribute__ ((__mode__ (__QI__)));
typedef unsigned int u_int16_t __attribute__ ((__mode__ (__HI__)));
typedef unsigned int u_int32_t __attribute__ ((__mode__ (__SI__)));
typedef unsigned int u_int64_t __attribute__ ((__mode__ (__DI__)));

typedef int register_t __attribute__ ((__mode__ (__word__)));
# 216 "/usr/include/x86_64-linux-gnu/sys/types.h" 3 4
# 1 "/usr/include/endian.h" 1 3 4
# 36 "/usr/include/endian.h" 3 4
# 1 "/usr/include/x86_64-linux-gnu/bits/endian.h" 1 3 4
# 37 "/usr/include/endian.h" 2 3 4
# 60 "/usr/include/endian.h" 3 4
# 1 "/usr/include/x86_64-linux-gnu/bits/byteswap.h" 1 3 4
# 28 "/usr/include/x86_64-linux-gnu/bits/byteswap.h" 3 4
# 1 "/usr/include/x86_64-linux-gnu/bits/wordsize.h" 1 3 4
# 29 "/usr/include/x86_64-linux-gnu/bits/byteswap.h" 2 3 4






# 1 "/usr/include/x86_64-linux-gnu/bits/byteswap-16.h" 1 3 4
# 36 "/usr/include/x86_64-linux-gnu/bits/byteswap.h" 2 3 4
# 44 "/usr/include/x86_64-linux-gnu/bits/byteswap.h" 3 4
static __inline unsigned int
__bswap_32 (unsigned int __bsx)
{
  return __builtin_bswap32 (__bsx);
}
# 108 "/usr/include/x86_64-linux-gnu/bits/byteswap.h" 3 4
static __inline __uint64_t
__bswap_64 (__uint64_t __bsx)
{
  return __builtin_bswap64 (__bsx);
}
# 61 "/usr/include/endian.h" 2 3 4
# 217 "/usr/include/x86_64-linux-gnu/sys/types.h" 2 3 4


# 1 "/usr/include/x86_64-linux-gnu/sys/select.h" 1 3 4
# 30 "/usr/include/x86_64-linux-gnu/sys/select.h" 3 4
# 1 "/usr/include/x86_64-linux-gnu/bits/select.h" 1 3 4
# 22 "/usr/include/x86_64-linux-gnu/bits/select.h" 3 4
# 1 "/usr/include/x86_64-linux-gnu/bits/wordsize.h" 1 3 4
# 23 "/usr/include/x86_64-linux-gnu/bits/select.h" 2 3 4
# 31 "/usr/include/x86_64-linux-gnu/sys/select.h" 2 3 4


# 1 "/usr/include/x86_64-linux-gnu/bits/sigset.h" 1 3 4
# 22 "/usr/include/x86_64-linux-gnu/bits/sigset.h" 3 4
typedef int __sig_atomic_t;




typedef struct
  {
    unsigned long int __val[(1024 / (8 * sizeof (unsigned long int)))];
  } __sigset_t;
# 34 "/usr/include/x86_64-linux-gnu/sys/select.h" 2 3 4



typedef __sigset_t sigset_t;





# 1 "/usr/include/time.h" 1 3 4
# 120 "/usr/include/time.h" 3 4
struct timespec
  {
    __time_t tv_sec;
    __syscall_slong_t tv_nsec;
  };
# 44 "/usr/include/x86_64-linux-gnu/sys/select.h" 2 3 4

# 1 "/usr/include/x86_64-linux-gnu/bits/time.h" 1 3 4
# 30 "/usr/include/x86_64-linux-gnu/bits/time.h" 3 4
struct timeval
  {
    __time_t tv_sec;
    __suseconds_t tv_usec;
  };
# 46 "/usr/include/x86_64-linux-gnu/sys/select.h" 2 3 4


typedef __suseconds_t suseconds_t;





typedef long int __fd_mask;
# 64 "/usr/include/x86_64-linux-gnu/sys/select.h" 3 4
typedef struct
  {






    __fd_mask __fds_bits[1024 / (8 * (int) sizeof (__fd_mask))];


  } fd_set;






typedef __fd_mask fd_mask;
# 96 "/usr/include/x86_64-linux-gnu/sys/select.h" 3 4

# 106 "/usr/include/x86_64-linux-gnu/sys/select.h" 3 4
extern int select (int __nfds, fd_set *__restrict __readfds,
     fd_set *__restrict __writefds,
     fd_set *__restrict __exceptfds,
     struct timeval *__restrict __timeout);
# 118 "/usr/include/x86_64-linux-gnu/sys/select.h" 3 4
extern int pselect (int __nfds, fd_set *__restrict __readfds,
      fd_set *__restrict __writefds,
      fd_set *__restrict __exceptfds,
      const struct timespec *__restrict __timeout,
      const __sigset_t *__restrict __sigmask);
# 131 "/usr/include/x86_64-linux-gnu/sys/select.h" 3 4

# 220 "/usr/include/x86_64-linux-gnu/sys/types.h" 2 3 4


# 1 "/usr/include/x86_64-linux-gnu/sys/sysmacros.h" 1 3 4
# 24 "/usr/include/x86_64-linux-gnu/sys/sysmacros.h" 3 4


__extension__
extern unsigned int gnu_dev_major (unsigned long long int __dev)
     __attribute__ ((__nothrow__ , __leaf__)) __attribute__ ((__const__));
__extension__
extern unsigned int gnu_dev_minor (unsigned long long int __dev)
     __attribute__ ((__nothrow__ , __leaf__)) __attribute__ ((__const__));
__extension__
extern unsigned long long int gnu_dev_makedev (unsigned int __major,
            unsigned int __minor)
     __attribute__ ((__nothrow__ , __leaf__)) __attribute__ ((__const__));
# 58 "/usr/include/x86_64-linux-gnu/sys/sysmacros.h" 3 4

# 223 "/usr/include/x86_64-linux-gnu/sys/types.h" 2 3 4





typedef __blksize_t blksize_t;
# 248 "/usr/include/x86_64-linux-gnu/sys/types.h" 3 4
typedef __blkcnt64_t blkcnt_t;



typedef __fsblkcnt64_t fsblkcnt_t;



typedef __fsfilcnt64_t fsfilcnt_t;
# 270 "/usr/include/x86_64-linux-gnu/sys/types.h" 3 4
# 1 "/usr/include/x86_64-linux-gnu/bits/pthreadtypes.h" 1 3 4
# 21 "/usr/include/x86_64-linux-gnu/bits/pthreadtypes.h" 3 4
# 1 "/usr/include/x86_64-linux-gnu/bits/wordsize.h" 1 3 4
# 22 "/usr/include/x86_64-linux-gnu/bits/pthreadtypes.h" 2 3 4
# 60 "/usr/include/x86_64-linux-gnu/bits/pthreadtypes.h" 3 4
typedef unsigned long int pthread_t;


union pthread_attr_t
{
  char __size[56];
  long int __align;
};

typedef union pthread_attr_t pthread_attr_t;





typedef struct __pthread_internal_list
{
  struct __pthread_internal_list *__prev;
  struct __pthread_internal_list *__next;
} __pthread_list_t;
# 90 "/usr/include/x86_64-linux-gnu/bits/pthreadtypes.h" 3 4
typedef union
{
  struct __pthread_mutex_s
  {
    int __lock;
    unsigned int __count;
    int __owner;

    unsigned int __nusers;



    int __kind;

    short __spins;
    short __elision;
    __pthread_list_t __list;
# 124 "/usr/include/x86_64-linux-gnu/bits/pthreadtypes.h" 3 4
  } __data;
  char __size[40];
  long int __align;
} pthread_mutex_t;

typedef union
{
  char __size[4];
  int __align;
} pthread_mutexattr_t;




typedef union
{
  struct
  {
    int __lock;
    unsigned int __futex;
    __extension__ unsigned long long int __total_seq;
    __extension__ unsigned long long int __wakeup_seq;
    __extension__ unsigned long long int __woken_seq;
    void *__mutex;
    unsigned int __nwaiters;
    unsigned int __broadcast_seq;
  } __data;
  char __size[48];
  __extension__ long long int __align;
} pthread_cond_t;

typedef union
{
  char __size[4];
  int __align;
} pthread_condattr_t;



typedef unsigned int pthread_key_t;



typedef int pthread_once_t;





typedef union
{

  struct
  {
    int __lock;
    unsigned int __nr_readers;
    unsigned int __readers_wakeup;
    unsigned int __writer_wakeup;
    unsigned int __nr_readers_queued;
    unsigned int __nr_writers_queued;
    int __writer;
    int __shared;
    unsigned long int __pad1;
    unsigned long int __pad2;


    unsigned int __flags;

  } __data;
# 211 "/usr/include/x86_64-linux-gnu/bits/pthreadtypes.h" 3 4
  char __size[56];
  long int __align;
} pthread_rwlock_t;

typedef union
{
  char __size[8];
  long int __align;
} pthread_rwlockattr_t;





typedef volatile int pthread_spinlock_t;




typedef union
{
  char __size[32];
  long int __align;
} pthread_barrier_t;

typedef union
{
  char __size[4];
  int __align;
} pthread_barrierattr_t;
# 271 "/usr/include/x86_64-linux-gnu/sys/types.h" 2 3 4



# 25 "search.c" 2
# 1 "system.h" 1
# 23 "system.h"
  typedef void * ptr_t;
# 36 "system.h"
# 1 "/usr/include/fcntl.h" 1 3 4
# 28 "/usr/include/fcntl.h" 3 4







# 1 "/usr/include/x86_64-linux-gnu/bits/fcntl.h" 1 3 4
# 35 "/usr/include/x86_64-linux-gnu/bits/fcntl.h" 3 4
struct flock
  {
    short int l_type;
    short int l_whence;




    __off64_t l_start;
    __off64_t l_len;

    __pid_t l_pid;
  };
# 61 "/usr/include/x86_64-linux-gnu/bits/fcntl.h" 3 4
# 1 "/usr/include/x86_64-linux-gnu/bits/fcntl-linux.h" 1 3 4
# 341 "/usr/include/x86_64-linux-gnu/bits/fcntl-linux.h" 3 4

# 415 "/usr/include/x86_64-linux-gnu/bits/fcntl-linux.h" 3 4

# 61 "/usr/include/x86_64-linux-gnu/bits/fcntl.h" 2 3 4
# 36 "/usr/include/fcntl.h" 2 3 4
# 67 "/usr/include/fcntl.h" 3 4
# 1 "/usr/include/time.h" 1 3 4
# 68 "/usr/include/fcntl.h" 2 3 4
# 1 "/usr/include/x86_64-linux-gnu/bits/stat.h" 1 3 4
# 46 "/usr/include/x86_64-linux-gnu/bits/stat.h" 3 4
struct stat
  {
    __dev_t st_dev;




    __ino_t st_ino;







    __nlink_t st_nlink;
    __mode_t st_mode;

    __uid_t st_uid;
    __gid_t st_gid;

    int __pad0;

    __dev_t st_rdev;




    __off_t st_size;



    __blksize_t st_blksize;

    __blkcnt_t st_blocks;
# 91 "/usr/include/x86_64-linux-gnu/bits/stat.h" 3 4
    struct timespec st_atim;
    struct timespec st_mtim;
    struct timespec st_ctim;
# 106 "/usr/include/x86_64-linux-gnu/bits/stat.h" 3 4
    __syscall_slong_t __glibc_reserved[3];
# 115 "/usr/include/x86_64-linux-gnu/bits/stat.h" 3 4
  };
# 69 "/usr/include/fcntl.h" 2 3 4
# 137 "/usr/include/fcntl.h" 3 4
extern int fcntl (int __fd, int __cmd, ...);
# 149 "/usr/include/fcntl.h" 3 4
extern int open (const char *__file, int __oflag, ...) __asm__ ("" "open64")
     __attribute__ ((__nonnull__ (1)));
# 174 "/usr/include/fcntl.h" 3 4
extern int openat (int __fd, const char *__file, int __oflag, ...) __asm__ ("" "openat64")
                    __attribute__ ((__nonnull__ (2)));
# 195 "/usr/include/fcntl.h" 3 4
extern int creat (const char *__file, mode_t __mode) __asm__ ("" "creat64")
                  __attribute__ ((__nonnull__ (1)));
# 224 "/usr/include/fcntl.h" 3 4
extern int lockf (int __fd, int __cmd, __off64_t __len) __asm__ ("" "lockf64");
# 242 "/usr/include/fcntl.h" 3 4
extern int posix_fadvise (int __fd, __off64_t __offset, __off64_t __len, int __advise) __asm__ ("" "posix_fadvise64") __attribute__ ((__nothrow__ , __leaf__))

                      ;
# 263 "/usr/include/fcntl.h" 3 4
extern int posix_fallocate (int __fd, __off64_t __offset, __off64_t __len) __asm__ ("" "posix_fallocate64")

                           ;
# 282 "/usr/include/fcntl.h" 3 4

# 37 "system.h" 2
# 1 "/usr/include/unistd.h" 1 3 4
# 27 "/usr/include/unistd.h" 3 4

# 202 "/usr/include/unistd.h" 3 4
# 1 "/usr/include/x86_64-linux-gnu/bits/posix_opt.h" 1 3 4
# 203 "/usr/include/unistd.h" 2 3 4



# 1 "/usr/include/x86_64-linux-gnu/bits/environments.h" 1 3 4
# 22 "/usr/include/x86_64-linux-gnu/bits/environments.h" 3 4
# 1 "/usr/include/x86_64-linux-gnu/bits/wordsize.h" 1 3 4
# 23 "/usr/include/x86_64-linux-gnu/bits/environments.h" 2 3 4
# 207 "/usr/include/unistd.h" 2 3 4
# 226 "/usr/include/unistd.h" 3 4
# 1 "/usr/lib/gcc/x86_64-linux-gnu/4.8/include/stddef.h" 1 3 4
# 227 "/usr/include/unistd.h" 2 3 4
# 255 "/usr/include/unistd.h" 3 4
typedef __useconds_t useconds_t;
# 267 "/usr/include/unistd.h" 3 4
typedef __intptr_t intptr_t;






typedef __socklen_t socklen_t;
# 287 "/usr/include/unistd.h" 3 4
extern int access (const char *__name, int __type) __attribute__ ((__nothrow__ , __leaf__)) __attribute__ ((__nonnull__ (1)));
# 304 "/usr/include/unistd.h" 3 4
extern int faccessat (int __fd, const char *__file, int __type, int __flag)
     __attribute__ ((__nothrow__ , __leaf__)) __attribute__ ((__nonnull__ (2))) ;
# 337 "/usr/include/unistd.h" 3 4
extern __off64_t lseek (int __fd, __off64_t __offset, int __whence) __asm__ ("" "lseek64") __attribute__ ((__nothrow__ , __leaf__))

             ;
# 353 "/usr/include/unistd.h" 3 4
extern int close (int __fd);






extern ssize_t read (int __fd, void *__buf, size_t __nbytes) ;





extern ssize_t write (int __fd, const void *__buf, size_t __n) ;
# 388 "/usr/include/unistd.h" 3 4
extern ssize_t pread (int __fd, void *__buf, size_t __nbytes, __off64_t __offset) __asm__ ("" "pread64")

                    ;
extern ssize_t pwrite (int __fd, const void *__buf, size_t __nbytes, __off64_t __offset) __asm__ ("" "pwrite64")

                     ;
# 417 "/usr/include/unistd.h" 3 4
extern int pipe (int __pipedes[2]) __attribute__ ((__nothrow__ , __leaf__)) ;
# 432 "/usr/include/unistd.h" 3 4
extern unsigned int alarm (unsigned int __seconds) __attribute__ ((__nothrow__ , __leaf__));
# 444 "/usr/include/unistd.h" 3 4
extern unsigned int sleep (unsigned int __seconds);







extern __useconds_t ualarm (__useconds_t __value, __useconds_t __interval)
     __attribute__ ((__nothrow__ , __leaf__));






extern int usleep (__useconds_t __useconds);
# 469 "/usr/include/unistd.h" 3 4
extern int pause (void);



extern int chown (const char *__file, __uid_t __owner, __gid_t __group)
     __attribute__ ((__nothrow__ , __leaf__)) __attribute__ ((__nonnull__ (1))) ;



extern int fchown (int __fd, __uid_t __owner, __gid_t __group) __attribute__ ((__nothrow__ , __leaf__)) ;




extern int lchown (const char *__file, __uid_t __owner, __gid_t __group)
     __attribute__ ((__nothrow__ , __leaf__)) __attribute__ ((__nonnull__ (1))) ;






extern int fchownat (int __fd, const char *__file, __uid_t __owner,
       __gid_t __group, int __flag)
     __attribute__ ((__nothrow__ , __leaf__)) __attribute__ ((__nonnull__ (2))) ;



extern int chdir (const char *__path) __attribute__ ((__nothrow__ , __leaf__)) __attribute__ ((__nonnull__ (1))) ;



extern int fchdir (int __fd) __attribute__ ((__nothrow__ , __leaf__)) ;
# 511 "/usr/include/unistd.h" 3 4
extern char *getcwd (char *__buf, size_t __size) __attribute__ ((__nothrow__ , __leaf__)) ;
# 525 "/usr/include/unistd.h" 3 4
extern char *getwd (char *__buf)
     __attribute__ ((__nothrow__ , __leaf__)) __attribute__ ((__nonnull__ (1))) __attribute__ ((__deprecated__)) ;




extern int dup (int __fd) __attribute__ ((__nothrow__ , __leaf__)) ;


extern int dup2 (int __fd, int __fd2) __attribute__ ((__nothrow__ , __leaf__));
# 543 "/usr/include/unistd.h" 3 4
extern char **__environ;







extern int execve (const char *__path, char *const __argv[],
     char *const __envp[]) __attribute__ ((__nothrow__ , __leaf__)) __attribute__ ((__nonnull__ (1, 2)));




extern int fexecve (int __fd, char *const __argv[], char *const __envp[])
     __attribute__ ((__nothrow__ , __leaf__)) __attribute__ ((__nonnull__ (2)));




extern int execv (const char *__path, char *const __argv[])
     __attribute__ ((__nothrow__ , __leaf__)) __attribute__ ((__nonnull__ (1, 2)));



extern int execle (const char *__path, const char *__arg, ...)
     __attribute__ ((__nothrow__ , __leaf__)) __attribute__ ((__nonnull__ (1, 2)));



extern int execl (const char *__path, const char *__arg, ...)
     __attribute__ ((__nothrow__ , __leaf__)) __attribute__ ((__nonnull__ (1, 2)));



extern int execvp (const char *__file, char *const __argv[])
     __attribute__ ((__nothrow__ , __leaf__)) __attribute__ ((__nonnull__ (1, 2)));




extern int execlp (const char *__file, const char *__arg, ...)
     __attribute__ ((__nothrow__ , __leaf__)) __attribute__ ((__nonnull__ (1, 2)));
# 598 "/usr/include/unistd.h" 3 4
extern int nice (int __inc) __attribute__ ((__nothrow__ , __leaf__)) ;




extern void _exit (int __status) __attribute__ ((__noreturn__));





# 1 "/usr/include/x86_64-linux-gnu/bits/confname.h" 1 3 4
# 24 "/usr/include/x86_64-linux-gnu/bits/confname.h" 3 4
enum
  {
    _PC_LINK_MAX,

    _PC_MAX_CANON,

    _PC_MAX_INPUT,

    _PC_NAME_MAX,

    _PC_PATH_MAX,

    _PC_PIPE_BUF,

    _PC_CHOWN_RESTRICTED,

    _PC_NO_TRUNC,

    _PC_VDISABLE,

    _PC_SYNC_IO,

    _PC_ASYNC_IO,

    _PC_PRIO_IO,

    _PC_SOCK_MAXBUF,

    _PC_FILESIZEBITS,

    _PC_REC_INCR_XFER_SIZE,

    _PC_REC_MAX_XFER_SIZE,

    _PC_REC_MIN_XFER_SIZE,

    _PC_REC_XFER_ALIGN,

    _PC_ALLOC_SIZE_MIN,

    _PC_SYMLINK_MAX,

    _PC_2_SYMLINKS

  };


enum
  {
    _SC_ARG_MAX,

    _SC_CHILD_MAX,

    _SC_CLK_TCK,

    _SC_NGROUPS_MAX,

    _SC_OPEN_MAX,

    _SC_STREAM_MAX,

    _SC_TZNAME_MAX,

    _SC_JOB_CONTROL,

    _SC_SAVED_IDS,

    _SC_REALTIME_SIGNALS,

    _SC_PRIORITY_SCHEDULING,

    _SC_TIMERS,

    _SC_ASYNCHRONOUS_IO,

    _SC_PRIORITIZED_IO,

    _SC_SYNCHRONIZED_IO,

    _SC_FSYNC,

    _SC_MAPPED_FILES,

    _SC_MEMLOCK,

    _SC_MEMLOCK_RANGE,

    _SC_MEMORY_PROTECTION,

    _SC_MESSAGE_PASSING,

    _SC_SEMAPHORES,

    _SC_SHARED_MEMORY_OBJECTS,

    _SC_AIO_LISTIO_MAX,

    _SC_AIO_MAX,

    _SC_AIO_PRIO_DELTA_MAX,

    _SC_DELAYTIMER_MAX,

    _SC_MQ_OPEN_MAX,

    _SC_MQ_PRIO_MAX,

    _SC_VERSION,

    _SC_PAGESIZE,


    _SC_RTSIG_MAX,

    _SC_SEM_NSEMS_MAX,

    _SC_SEM_VALUE_MAX,

    _SC_SIGQUEUE_MAX,

    _SC_TIMER_MAX,




    _SC_BC_BASE_MAX,

    _SC_BC_DIM_MAX,

    _SC_BC_SCALE_MAX,

    _SC_BC_STRING_MAX,

    _SC_COLL_WEIGHTS_MAX,

    _SC_EQUIV_CLASS_MAX,

    _SC_EXPR_NEST_MAX,

    _SC_LINE_MAX,

    _SC_RE_DUP_MAX,

    _SC_CHARCLASS_NAME_MAX,


    _SC_2_VERSION,

    _SC_2_C_BIND,

    _SC_2_C_DEV,

    _SC_2_FORT_DEV,

    _SC_2_FORT_RUN,

    _SC_2_SW_DEV,

    _SC_2_LOCALEDEF,


    _SC_PII,

    _SC_PII_XTI,

    _SC_PII_SOCKET,

    _SC_PII_INTERNET,

    _SC_PII_OSI,

    _SC_POLL,

    _SC_SELECT,

    _SC_UIO_MAXIOV,

    _SC_IOV_MAX = _SC_UIO_MAXIOV,

    _SC_PII_INTERNET_STREAM,

    _SC_PII_INTERNET_DGRAM,

    _SC_PII_OSI_COTS,

    _SC_PII_OSI_CLTS,

    _SC_PII_OSI_M,

    _SC_T_IOV_MAX,



    _SC_THREADS,

    _SC_THREAD_SAFE_FUNCTIONS,

    _SC_GETGR_R_SIZE_MAX,

    _SC_GETPW_R_SIZE_MAX,

    _SC_LOGIN_NAME_MAX,

    _SC_TTY_NAME_MAX,

    _SC_THREAD_DESTRUCTOR_ITERATIONS,

    _SC_THREAD_KEYS_MAX,

    _SC_THREAD_STACK_MIN,

    _SC_THREAD_THREADS_MAX,

    _SC_THREAD_ATTR_STACKADDR,

    _SC_THREAD_ATTR_STACKSIZE,

    _SC_THREAD_PRIORITY_SCHEDULING,

    _SC_THREAD_PRIO_INHERIT,

    _SC_THREAD_PRIO_PROTECT,

    _SC_THREAD_PROCESS_SHARED,


    _SC_NPROCESSORS_CONF,

    _SC_NPROCESSORS_ONLN,

    _SC_PHYS_PAGES,

    _SC_AVPHYS_PAGES,

    _SC_ATEXIT_MAX,

    _SC_PASS_MAX,


    _SC_XOPEN_VERSION,

    _SC_XOPEN_XCU_VERSION,

    _SC_XOPEN_UNIX,

    _SC_XOPEN_CRYPT,

    _SC_XOPEN_ENH_I18N,

    _SC_XOPEN_SHM,


    _SC_2_CHAR_TERM,

    _SC_2_C_VERSION,

    _SC_2_UPE,


    _SC_XOPEN_XPG2,

    _SC_XOPEN_XPG3,

    _SC_XOPEN_XPG4,


    _SC_CHAR_BIT,

    _SC_CHAR_MAX,

    _SC_CHAR_MIN,

    _SC_INT_MAX,

    _SC_INT_MIN,

    _SC_LONG_BIT,

    _SC_WORD_BIT,

    _SC_MB_LEN_MAX,

    _SC_NZERO,

    _SC_SSIZE_MAX,

    _SC_SCHAR_MAX,

    _SC_SCHAR_MIN,

    _SC_SHRT_MAX,

    _SC_SHRT_MIN,

    _SC_UCHAR_MAX,

    _SC_UINT_MAX,

    _SC_ULONG_MAX,

    _SC_USHRT_MAX,


    _SC_NL_ARGMAX,

    _SC_NL_LANGMAX,

    _SC_NL_MSGMAX,

    _SC_NL_NMAX,

    _SC_NL_SETMAX,

    _SC_NL_TEXTMAX,


    _SC_XBS5_ILP32_OFF32,

    _SC_XBS5_ILP32_OFFBIG,

    _SC_XBS5_LP64_OFF64,

    _SC_XBS5_LPBIG_OFFBIG,


    _SC_XOPEN_LEGACY,

    _SC_XOPEN_REALTIME,

    _SC_XOPEN_REALTIME_THREADS,


    _SC_ADVISORY_INFO,

    _SC_BARRIERS,

    _SC_BASE,

    _SC_C_LANG_SUPPORT,

    _SC_C_LANG_SUPPORT_R,

    _SC_CLOCK_SELECTION,

    _SC_CPUTIME,

    _SC_THREAD_CPUTIME,

    _SC_DEVICE_IO,

    _SC_DEVICE_SPECIFIC,

    _SC_DEVICE_SPECIFIC_R,

    _SC_FD_MGMT,

    _SC_FIFO,

    _SC_PIPE,

    _SC_FILE_ATTRIBUTES,

    _SC_FILE_LOCKING,

    _SC_FILE_SYSTEM,

    _SC_MONOTONIC_CLOCK,

    _SC_MULTI_PROCESS,

    _SC_SINGLE_PROCESS,

    _SC_NETWORKING,

    _SC_READER_WRITER_LOCKS,

    _SC_SPIN_LOCKS,

    _SC_REGEXP,

    _SC_REGEX_VERSION,

    _SC_SHELL,

    _SC_SIGNALS,

    _SC_SPAWN,

    _SC_SPORADIC_SERVER,

    _SC_THREAD_SPORADIC_SERVER,

    _SC_SYSTEM_DATABASE,

    _SC_SYSTEM_DATABASE_R,

    _SC_TIMEOUTS,

    _SC_TYPED_MEMORY_OBJECTS,

    _SC_USER_GROUPS,

    _SC_USER_GROUPS_R,

    _SC_2_PBS,

    _SC_2_PBS_ACCOUNTING,

    _SC_2_PBS_LOCATE,

    _SC_2_PBS_MESSAGE,

    _SC_2_PBS_TRACK,

    _SC_SYMLOOP_MAX,

    _SC_STREAMS,

    _SC_2_PBS_CHECKPOINT,


    _SC_V6_ILP32_OFF32,

    _SC_V6_ILP32_OFFBIG,

    _SC_V6_LP64_OFF64,

    _SC_V6_LPBIG_OFFBIG,


    _SC_HOST_NAME_MAX,

    _SC_TRACE,

    _SC_TRACE_EVENT_FILTER,

    _SC_TRACE_INHERIT,

    _SC_TRACE_LOG,


    _SC_LEVEL1_ICACHE_SIZE,

    _SC_LEVEL1_ICACHE_ASSOC,

    _SC_LEVEL1_ICACHE_LINESIZE,

    _SC_LEVEL1_DCACHE_SIZE,

    _SC_LEVEL1_DCACHE_ASSOC,

    _SC_LEVEL1_DCACHE_LINESIZE,

    _SC_LEVEL2_CACHE_SIZE,

    _SC_LEVEL2_CACHE_ASSOC,

    _SC_LEVEL2_CACHE_LINESIZE,

    _SC_LEVEL3_CACHE_SIZE,

    _SC_LEVEL3_CACHE_ASSOC,

    _SC_LEVEL3_CACHE_LINESIZE,

    _SC_LEVEL4_CACHE_SIZE,

    _SC_LEVEL4_CACHE_ASSOC,

    _SC_LEVEL4_CACHE_LINESIZE,



    _SC_IPV6 = _SC_LEVEL1_ICACHE_SIZE + 50,

    _SC_RAW_SOCKETS,


    _SC_V7_ILP32_OFF32,

    _SC_V7_ILP32_OFFBIG,

    _SC_V7_LP64_OFF64,

    _SC_V7_LPBIG_OFFBIG,


    _SC_SS_REPL_MAX,


    _SC_TRACE_EVENT_NAME_MAX,

    _SC_TRACE_NAME_MAX,

    _SC_TRACE_SYS_MAX,

    _SC_TRACE_USER_EVENT_MAX,


    _SC_XOPEN_STREAMS,


    _SC_THREAD_ROBUST_PRIO_INHERIT,

    _SC_THREAD_ROBUST_PRIO_PROTECT

  };


enum
  {
    _CS_PATH,


    _CS_V6_WIDTH_RESTRICTED_ENVS,



    _CS_GNU_LIBC_VERSION,

    _CS_GNU_LIBPTHREAD_VERSION,


    _CS_V5_WIDTH_RESTRICTED_ENVS,



    _CS_V7_WIDTH_RESTRICTED_ENVS,



    _CS_LFS_CFLAGS = 1000,

    _CS_LFS_LDFLAGS,

    _CS_LFS_LIBS,

    _CS_LFS_LINTFLAGS,

    _CS_LFS64_CFLAGS,

    _CS_LFS64_LDFLAGS,

    _CS_LFS64_LIBS,

    _CS_LFS64_LINTFLAGS,


    _CS_XBS5_ILP32_OFF32_CFLAGS = 1100,

    _CS_XBS5_ILP32_OFF32_LDFLAGS,

    _CS_XBS5_ILP32_OFF32_LIBS,

    _CS_XBS5_ILP32_OFF32_LINTFLAGS,

    _CS_XBS5_ILP32_OFFBIG_CFLAGS,

    _CS_XBS5_ILP32_OFFBIG_LDFLAGS,

    _CS_XBS5_ILP32_OFFBIG_LIBS,

    _CS_XBS5_ILP32_OFFBIG_LINTFLAGS,

    _CS_XBS5_LP64_OFF64_CFLAGS,

    _CS_XBS5_LP64_OFF64_LDFLAGS,

    _CS_XBS5_LP64_OFF64_LIBS,

    _CS_XBS5_LP64_OFF64_LINTFLAGS,

    _CS_XBS5_LPBIG_OFFBIG_CFLAGS,

    _CS_XBS5_LPBIG_OFFBIG_LDFLAGS,

    _CS_XBS5_LPBIG_OFFBIG_LIBS,

    _CS_XBS5_LPBIG_OFFBIG_LINTFLAGS,


    _CS_POSIX_V6_ILP32_OFF32_CFLAGS,

    _CS_POSIX_V6_ILP32_OFF32_LDFLAGS,

    _CS_POSIX_V6_ILP32_OFF32_LIBS,

    _CS_POSIX_V6_ILP32_OFF32_LINTFLAGS,

    _CS_POSIX_V6_ILP32_OFFBIG_CFLAGS,

    _CS_POSIX_V6_ILP32_OFFBIG_LDFLAGS,

    _CS_POSIX_V6_ILP32_OFFBIG_LIBS,

    _CS_POSIX_V6_ILP32_OFFBIG_LINTFLAGS,

    _CS_POSIX_V6_LP64_OFF64_CFLAGS,

    _CS_POSIX_V6_LP64_OFF64_LDFLAGS,

    _CS_POSIX_V6_LP64_OFF64_LIBS,

    _CS_POSIX_V6_LP64_OFF64_LINTFLAGS,

    _CS_POSIX_V6_LPBIG_OFFBIG_CFLAGS,

    _CS_POSIX_V6_LPBIG_OFFBIG_LDFLAGS,

    _CS_POSIX_V6_LPBIG_OFFBIG_LIBS,

    _CS_POSIX_V6_LPBIG_OFFBIG_LINTFLAGS,


    _CS_POSIX_V7_ILP32_OFF32_CFLAGS,

    _CS_POSIX_V7_ILP32_OFF32_LDFLAGS,

    _CS_POSIX_V7_ILP32_OFF32_LIBS,

    _CS_POSIX_V7_ILP32_OFF32_LINTFLAGS,

    _CS_POSIX_V7_ILP32_OFFBIG_CFLAGS,

    _CS_POSIX_V7_ILP32_OFFBIG_LDFLAGS,

    _CS_POSIX_V7_ILP32_OFFBIG_LIBS,

    _CS_POSIX_V7_ILP32_OFFBIG_LINTFLAGS,

    _CS_POSIX_V7_LP64_OFF64_CFLAGS,

    _CS_POSIX_V7_LP64_OFF64_LDFLAGS,

    _CS_POSIX_V7_LP64_OFF64_LIBS,

    _CS_POSIX_V7_LP64_OFF64_LINTFLAGS,

    _CS_POSIX_V7_LPBIG_OFFBIG_CFLAGS,

    _CS_POSIX_V7_LPBIG_OFFBIG_LDFLAGS,

    _CS_POSIX_V7_LPBIG_OFFBIG_LIBS,

    _CS_POSIX_V7_LPBIG_OFFBIG_LINTFLAGS,


    _CS_V6_ENV,

    _CS_V7_ENV

  };
# 610 "/usr/include/unistd.h" 2 3 4


extern long int pathconf (const char *__path, int __name)
     __attribute__ ((__nothrow__ , __leaf__)) __attribute__ ((__nonnull__ (1)));


extern long int fpathconf (int __fd, int __name) __attribute__ ((__nothrow__ , __leaf__));


extern long int sysconf (int __name) __attribute__ ((__nothrow__ , __leaf__));



extern size_t confstr (int __name, char *__buf, size_t __len) __attribute__ ((__nothrow__ , __leaf__));




extern __pid_t getpid (void) __attribute__ ((__nothrow__ , __leaf__));


extern __pid_t getppid (void) __attribute__ ((__nothrow__ , __leaf__));


extern __pid_t getpgrp (void) __attribute__ ((__nothrow__ , __leaf__));


extern __pid_t __getpgid (__pid_t __pid) __attribute__ ((__nothrow__ , __leaf__));

extern __pid_t getpgid (__pid_t __pid) __attribute__ ((__nothrow__ , __leaf__));






extern int setpgid (__pid_t __pid, __pid_t __pgid) __attribute__ ((__nothrow__ , __leaf__));
# 660 "/usr/include/unistd.h" 3 4
extern int setpgrp (void) __attribute__ ((__nothrow__ , __leaf__));






extern __pid_t setsid (void) __attribute__ ((__nothrow__ , __leaf__));



extern __pid_t getsid (__pid_t __pid) __attribute__ ((__nothrow__ , __leaf__));



extern __uid_t getuid (void) __attribute__ ((__nothrow__ , __leaf__));


extern __uid_t geteuid (void) __attribute__ ((__nothrow__ , __leaf__));


extern __gid_t getgid (void) __attribute__ ((__nothrow__ , __leaf__));


extern __gid_t getegid (void) __attribute__ ((__nothrow__ , __leaf__));




extern int getgroups (int __size, __gid_t __list[]) __attribute__ ((__nothrow__ , __leaf__)) ;
# 700 "/usr/include/unistd.h" 3 4
extern int setuid (__uid_t __uid) __attribute__ ((__nothrow__ , __leaf__)) ;




extern int setreuid (__uid_t __ruid, __uid_t __euid) __attribute__ ((__nothrow__ , __leaf__)) ;




extern int seteuid (__uid_t __uid) __attribute__ ((__nothrow__ , __leaf__)) ;






extern int setgid (__gid_t __gid) __attribute__ ((__nothrow__ , __leaf__)) ;




extern int setregid (__gid_t __rgid, __gid_t __egid) __attribute__ ((__nothrow__ , __leaf__)) ;




extern int setegid (__gid_t __gid) __attribute__ ((__nothrow__ , __leaf__)) ;
# 756 "/usr/include/unistd.h" 3 4
extern __pid_t fork (void) __attribute__ ((__nothrow__));







extern __pid_t vfork (void) __attribute__ ((__nothrow__ , __leaf__));





extern char *ttyname (int __fd) __attribute__ ((__nothrow__ , __leaf__));



extern int ttyname_r (int __fd, char *__buf, size_t __buflen)
     __attribute__ ((__nothrow__ , __leaf__)) __attribute__ ((__nonnull__ (2))) ;



extern int isatty (int __fd) __attribute__ ((__nothrow__ , __leaf__));





extern int ttyslot (void) __attribute__ ((__nothrow__ , __leaf__));




extern int link (const char *__from, const char *__to)
     __attribute__ ((__nothrow__ , __leaf__)) __attribute__ ((__nonnull__ (1, 2))) ;




extern int linkat (int __fromfd, const char *__from, int __tofd,
     const char *__to, int __flags)
     __attribute__ ((__nothrow__ , __leaf__)) __attribute__ ((__nonnull__ (2, 4))) ;




extern int symlink (const char *__from, const char *__to)
     __attribute__ ((__nothrow__ , __leaf__)) __attribute__ ((__nonnull__ (1, 2))) ;




extern ssize_t readlink (const char *__restrict __path,
    char *__restrict __buf, size_t __len)
     __attribute__ ((__nothrow__ , __leaf__)) __attribute__ ((__nonnull__ (1, 2))) ;




extern int symlinkat (const char *__from, int __tofd,
        const char *__to) __attribute__ ((__nothrow__ , __leaf__)) __attribute__ ((__nonnull__ (1, 3))) ;


extern ssize_t readlinkat (int __fd, const char *__restrict __path,
      char *__restrict __buf, size_t __len)
     __attribute__ ((__nothrow__ , __leaf__)) __attribute__ ((__nonnull__ (2, 3))) ;



extern int unlink (const char *__name) __attribute__ ((__nothrow__ , __leaf__)) __attribute__ ((__nonnull__ (1)));



extern int unlinkat (int __fd, const char *__name, int __flag)
     __attribute__ ((__nothrow__ , __leaf__)) __attribute__ ((__nonnull__ (2)));



extern int rmdir (const char *__path) __attribute__ ((__nothrow__ , __leaf__)) __attribute__ ((__nonnull__ (1)));



extern __pid_t tcgetpgrp (int __fd) __attribute__ ((__nothrow__ , __leaf__));


extern int tcsetpgrp (int __fd, __pid_t __pgrp_id) __attribute__ ((__nothrow__ , __leaf__));






extern char *getlogin (void);







extern int getlogin_r (char *__name, size_t __name_len) __attribute__ ((__nonnull__ (1)));




extern int setlogin (const char *__name) __attribute__ ((__nothrow__ , __leaf__)) __attribute__ ((__nonnull__ (1)));
# 871 "/usr/include/unistd.h" 3 4
# 1 "./getopt.h" 1 3 4
# 35 "./getopt.h" 3 4
extern char *optarg;
# 49 "./getopt.h" 3 4
extern int optind;




extern int opterr;



extern int optopt;
# 81 "./getopt.h" 3 4
struct option
{

  const char *name;





  int has_arg;
  int *flag;
  int val;
};
# 106 "./getopt.h" 3 4
extern int getopt (int argc, char *const *argv, const char *shortopts);



extern int getopt_long (int argc, char *const *argv, const char *shortopts,
          const struct option *longopts, int *longind);
extern int getopt_long_only (int argc, char *const *argv,
        const char *shortopts,
               const struct option *longopts, int *longind);


extern int _getopt_internal (int argc, char *const *argv,
        const char *shortopts,
               const struct option *longopts, int *longind,
        int long_only);
# 872 "/usr/include/unistd.h" 2 3 4







extern int gethostname (char *__name, size_t __len) __attribute__ ((__nothrow__ , __leaf__)) __attribute__ ((__nonnull__ (1)));






extern int sethostname (const char *__name, size_t __len)
     __attribute__ ((__nothrow__ , __leaf__)) __attribute__ ((__nonnull__ (1))) ;



extern int sethostid (long int __id) __attribute__ ((__nothrow__ , __leaf__)) ;





extern int getdomainname (char *__name, size_t __len)
     __attribute__ ((__nothrow__ , __leaf__)) __attribute__ ((__nonnull__ (1))) ;
extern int setdomainname (const char *__name, size_t __len)
     __attribute__ ((__nothrow__ , __leaf__)) __attribute__ ((__nonnull__ (1))) ;





extern int vhangup (void) __attribute__ ((__nothrow__ , __leaf__));


extern int revoke (const char *__file) __attribute__ ((__nothrow__ , __leaf__)) __attribute__ ((__nonnull__ (1))) ;







extern int profil (unsigned short int *__sample_buffer, size_t __size,
     size_t __offset, unsigned int __scale)
     __attribute__ ((__nothrow__ , __leaf__)) __attribute__ ((__nonnull__ (1)));





extern int acct (const char *__name) __attribute__ ((__nothrow__ , __leaf__));



extern char *getusershell (void) __attribute__ ((__nothrow__ , __leaf__));
extern void endusershell (void) __attribute__ ((__nothrow__ , __leaf__));
extern void setusershell (void) __attribute__ ((__nothrow__ , __leaf__));





extern int daemon (int __nochdir, int __noclose) __attribute__ ((__nothrow__ , __leaf__)) ;






extern int chroot (const char *__path) __attribute__ ((__nothrow__ , __leaf__)) __attribute__ ((__nonnull__ (1))) ;



extern char *getpass (const char *__prompt) __attribute__ ((__nonnull__ (1)));







extern int fsync (int __fd);
# 969 "/usr/include/unistd.h" 3 4
extern long int gethostid (void);


extern void sync (void) __attribute__ ((__nothrow__ , __leaf__));





extern int getpagesize (void) __attribute__ ((__nothrow__ , __leaf__)) __attribute__ ((__const__));




extern int getdtablesize (void) __attribute__ ((__nothrow__ , __leaf__));
# 997 "/usr/include/unistd.h" 3 4
extern int truncate (const char *__file, __off64_t __length) __asm__ ("" "truncate64") __attribute__ ((__nothrow__ , __leaf__))

                  __attribute__ ((__nonnull__ (1))) ;
# 1019 "/usr/include/unistd.h" 3 4
extern int ftruncate (int __fd, __off64_t __length) __asm__ ("" "ftruncate64") __attribute__ ((__nothrow__ , __leaf__))
                        ;
# 1037 "/usr/include/unistd.h" 3 4
extern int brk (void *__addr) __attribute__ ((__nothrow__ , __leaf__)) ;





extern void *sbrk (intptr_t __delta) __attribute__ ((__nothrow__ , __leaf__));
# 1058 "/usr/include/unistd.h" 3 4
extern long int syscall (long int __sysno, ...) __attribute__ ((__nothrow__ , __leaf__));
# 1112 "/usr/include/unistd.h" 3 4
extern int fdatasync (int __fildes);
# 1151 "/usr/include/unistd.h" 3 4

# 38 "system.h" 2
# 67 "system.h"
# 1 "/usr/include/stdlib.h" 1 3 4
# 32 "/usr/include/stdlib.h" 3 4
# 1 "/usr/lib/gcc/x86_64-linux-gnu/4.8/include/stddef.h" 1 3 4
# 324 "/usr/lib/gcc/x86_64-linux-gnu/4.8/include/stddef.h" 3 4
typedef int wchar_t;
# 33 "/usr/include/stdlib.h" 2 3 4








# 1 "/usr/include/x86_64-linux-gnu/bits/waitflags.h" 1 3 4
# 50 "/usr/include/x86_64-linux-gnu/bits/waitflags.h" 3 4
typedef enum
{
  P_ALL,
  P_PID,
  P_PGID
} idtype_t;
# 42 "/usr/include/stdlib.h" 2 3 4
# 1 "/usr/include/x86_64-linux-gnu/bits/waitstatus.h" 1 3 4
# 66 "/usr/include/x86_64-linux-gnu/bits/waitstatus.h" 3 4
union wait
  {
    int w_status;
    struct
      {

 unsigned int __w_termsig:7;
 unsigned int __w_coredump:1;
 unsigned int __w_retcode:8;
 unsigned int:16;







      } __wait_terminated;
    struct
      {

 unsigned int __w_stopval:8;
 unsigned int __w_stopsig:8;
 unsigned int:16;






      } __wait_stopped;
  };
# 43 "/usr/include/stdlib.h" 2 3 4
# 67 "/usr/include/stdlib.h" 3 4
typedef union
  {
    union wait *__uptr;
    int *__iptr;
  } __WAIT_STATUS __attribute__ ((__transparent_union__));
# 95 "/usr/include/stdlib.h" 3 4


typedef struct
  {
    int quot;
    int rem;
  } div_t;



typedef struct
  {
    long int quot;
    long int rem;
  } ldiv_t;







__extension__ typedef struct
  {
    long long int quot;
    long long int rem;
  } lldiv_t;


# 139 "/usr/include/stdlib.h" 3 4
extern size_t __ctype_get_mb_cur_max (void) __attribute__ ((__nothrow__ , __leaf__)) ;




extern double atof (const char *__nptr)
     __attribute__ ((__nothrow__ , __leaf__)) __attribute__ ((__pure__)) __attribute__ ((__nonnull__ (1))) ;

extern int atoi (const char *__nptr)
     __attribute__ ((__nothrow__ , __leaf__)) __attribute__ ((__pure__)) __attribute__ ((__nonnull__ (1))) ;

extern long int atol (const char *__nptr)
     __attribute__ ((__nothrow__ , __leaf__)) __attribute__ ((__pure__)) __attribute__ ((__nonnull__ (1))) ;





__extension__ extern long long int atoll (const char *__nptr)
     __attribute__ ((__nothrow__ , __leaf__)) __attribute__ ((__pure__)) __attribute__ ((__nonnull__ (1))) ;





extern double strtod (const char *__restrict __nptr,
        char **__restrict __endptr)
     __attribute__ ((__nothrow__ , __leaf__)) __attribute__ ((__nonnull__ (1)));





extern float strtof (const char *__restrict __nptr,
       char **__restrict __endptr) __attribute__ ((__nothrow__ , __leaf__)) __attribute__ ((__nonnull__ (1)));

extern long double strtold (const char *__restrict __nptr,
       char **__restrict __endptr)
     __attribute__ ((__nothrow__ , __leaf__)) __attribute__ ((__nonnull__ (1)));





extern long int strtol (const char *__restrict __nptr,
   char **__restrict __endptr, int __base)
     __attribute__ ((__nothrow__ , __leaf__)) __attribute__ ((__nonnull__ (1)));

extern unsigned long int strtoul (const char *__restrict __nptr,
      char **__restrict __endptr, int __base)
     __attribute__ ((__nothrow__ , __leaf__)) __attribute__ ((__nonnull__ (1)));




__extension__
extern long long int strtoq (const char *__restrict __nptr,
        char **__restrict __endptr, int __base)
     __attribute__ ((__nothrow__ , __leaf__)) __attribute__ ((__nonnull__ (1)));

__extension__
extern unsigned long long int strtouq (const char *__restrict __nptr,
           char **__restrict __endptr, int __base)
     __attribute__ ((__nothrow__ , __leaf__)) __attribute__ ((__nonnull__ (1)));





__extension__
extern long long int strtoll (const char *__restrict __nptr,
         char **__restrict __endptr, int __base)
     __attribute__ ((__nothrow__ , __leaf__)) __attribute__ ((__nonnull__ (1)));

__extension__
extern unsigned long long int strtoull (const char *__restrict __nptr,
     char **__restrict __endptr, int __base)
     __attribute__ ((__nothrow__ , __leaf__)) __attribute__ ((__nonnull__ (1)));

# 305 "/usr/include/stdlib.h" 3 4
extern char *l64a (long int __n) __attribute__ ((__nothrow__ , __leaf__)) ;


extern long int a64l (const char *__s)
     __attribute__ ((__nothrow__ , __leaf__)) __attribute__ ((__pure__)) __attribute__ ((__nonnull__ (1))) ;
# 321 "/usr/include/stdlib.h" 3 4
extern long int random (void) __attribute__ ((__nothrow__ , __leaf__));


extern void srandom (unsigned int __seed) __attribute__ ((__nothrow__ , __leaf__));





extern char *initstate (unsigned int __seed, char *__statebuf,
   size_t __statelen) __attribute__ ((__nothrow__ , __leaf__)) __attribute__ ((__nonnull__ (2)));



extern char *setstate (char *__statebuf) __attribute__ ((__nothrow__ , __leaf__)) __attribute__ ((__nonnull__ (1)));







struct random_data
  {
    int32_t *fptr;
    int32_t *rptr;
    int32_t *state;
    int rand_type;
    int rand_deg;
    int rand_sep;
    int32_t *end_ptr;
  };

extern int random_r (struct random_data *__restrict __buf,
       int32_t *__restrict __result) __attribute__ ((__nothrow__ , __leaf__)) __attribute__ ((__nonnull__ (1, 2)));

extern int srandom_r (unsigned int __seed, struct random_data *__buf)
     __attribute__ ((__nothrow__ , __leaf__)) __attribute__ ((__nonnull__ (2)));

extern int initstate_r (unsigned int __seed, char *__restrict __statebuf,
   size_t __statelen,
   struct random_data *__restrict __buf)
     __attribute__ ((__nothrow__ , __leaf__)) __attribute__ ((__nonnull__ (2, 4)));

extern int setstate_r (char *__restrict __statebuf,
         struct random_data *__restrict __buf)
     __attribute__ ((__nothrow__ , __leaf__)) __attribute__ ((__nonnull__ (1, 2)));






extern int rand (void) __attribute__ ((__nothrow__ , __leaf__));

extern void srand (unsigned int __seed) __attribute__ ((__nothrow__ , __leaf__));




extern int rand_r (unsigned int *__seed) __attribute__ ((__nothrow__ , __leaf__));







extern double drand48 (void) __attribute__ ((__nothrow__ , __leaf__));
extern double erand48 (unsigned short int __xsubi[3]) __attribute__ ((__nothrow__ , __leaf__)) __attribute__ ((__nonnull__ (1)));


extern long int lrand48 (void) __attribute__ ((__nothrow__ , __leaf__));
extern long int nrand48 (unsigned short int __xsubi[3])
     __attribute__ ((__nothrow__ , __leaf__)) __attribute__ ((__nonnull__ (1)));


extern long int mrand48 (void) __attribute__ ((__nothrow__ , __leaf__));
extern long int jrand48 (unsigned short int __xsubi[3])
     __attribute__ ((__nothrow__ , __leaf__)) __attribute__ ((__nonnull__ (1)));


extern void srand48 (long int __seedval) __attribute__ ((__nothrow__ , __leaf__));
extern unsigned short int *seed48 (unsigned short int __seed16v[3])
     __attribute__ ((__nothrow__ , __leaf__)) __attribute__ ((__nonnull__ (1)));
extern void lcong48 (unsigned short int __param[7]) __attribute__ ((__nothrow__ , __leaf__)) __attribute__ ((__nonnull__ (1)));





struct drand48_data
  {
    unsigned short int __x[3];
    unsigned short int __old_x[3];
    unsigned short int __c;
    unsigned short int __init;
    __extension__ unsigned long long int __a;

  };


extern int drand48_r (struct drand48_data *__restrict __buffer,
        double *__restrict __result) __attribute__ ((__nothrow__ , __leaf__)) __attribute__ ((__nonnull__ (1, 2)));
extern int erand48_r (unsigned short int __xsubi[3],
        struct drand48_data *__restrict __buffer,
        double *__restrict __result) __attribute__ ((__nothrow__ , __leaf__)) __attribute__ ((__nonnull__ (1, 2)));


extern int lrand48_r (struct drand48_data *__restrict __buffer,
        long int *__restrict __result)
     __attribute__ ((__nothrow__ , __leaf__)) __attribute__ ((__nonnull__ (1, 2)));
extern int nrand48_r (unsigned short int __xsubi[3],
        struct drand48_data *__restrict __buffer,
        long int *__restrict __result)
     __attribute__ ((__nothrow__ , __leaf__)) __attribute__ ((__nonnull__ (1, 2)));


extern int mrand48_r (struct drand48_data *__restrict __buffer,
        long int *__restrict __result)
     __attribute__ ((__nothrow__ , __leaf__)) __attribute__ ((__nonnull__ (1, 2)));
extern int jrand48_r (unsigned short int __xsubi[3],
        struct drand48_data *__restrict __buffer,
        long int *__restrict __result)
     __attribute__ ((__nothrow__ , __leaf__)) __attribute__ ((__nonnull__ (1, 2)));


extern int srand48_r (long int __seedval, struct drand48_data *__buffer)
     __attribute__ ((__nothrow__ , __leaf__)) __attribute__ ((__nonnull__ (2)));

extern int seed48_r (unsigned short int __seed16v[3],
       struct drand48_data *__buffer) __attribute__ ((__nothrow__ , __leaf__)) __attribute__ ((__nonnull__ (1, 2)));

extern int lcong48_r (unsigned short int __param[7],
        struct drand48_data *__buffer)
     __attribute__ ((__nothrow__ , __leaf__)) __attribute__ ((__nonnull__ (1, 2)));









extern void *malloc (size_t __size) __attribute__ ((__nothrow__ , __leaf__)) __attribute__ ((__malloc__)) ;

extern void *calloc (size_t __nmemb, size_t __size)
     __attribute__ ((__nothrow__ , __leaf__)) __attribute__ ((__malloc__)) ;










extern void *realloc (void *__ptr, size_t __size)
     __attribute__ ((__nothrow__ , __leaf__)) __attribute__ ((__warn_unused_result__));

extern void free (void *__ptr) __attribute__ ((__nothrow__ , __leaf__));




extern void cfree (void *__ptr) __attribute__ ((__nothrow__ , __leaf__));



# 1 "/usr/include/alloca.h" 1 3 4
# 24 "/usr/include/alloca.h" 3 4
# 1 "/usr/lib/gcc/x86_64-linux-gnu/4.8/include/stddef.h" 1 3 4
# 25 "/usr/include/alloca.h" 2 3 4







extern void *alloca (size_t __size) __attribute__ ((__nothrow__ , __leaf__));






# 493 "/usr/include/stdlib.h" 2 3 4





extern void *system_valloc (size_t __size) __attribute__ ((__nothrow__ , __leaf__)) __attribute__ ((__malloc__)) ;




extern int posix_memalign (void **__memptr, size_t __alignment, size_t __size)
     __attribute__ ((__nothrow__ , __leaf__)) __attribute__ ((__nonnull__ (1))) ;
# 513 "/usr/include/stdlib.h" 3 4


extern void abort (void) __attribute__ ((__nothrow__ , __leaf__)) __attribute__ ((__noreturn__));



extern int atexit (void (*__func) (void)) __attribute__ ((__nothrow__ , __leaf__)) __attribute__ ((__nonnull__ (1)));
# 530 "/usr/include/stdlib.h" 3 4





extern int on_exit (void (*__func) (int __status, void *__arg), void *__arg)
     __attribute__ ((__nothrow__ , __leaf__)) __attribute__ ((__nonnull__ (1)));






extern void exit (int __status) __attribute__ ((__nothrow__ , __leaf__)) __attribute__ ((__noreturn__));













extern void _Exit (int __status) __attribute__ ((__nothrow__ , __leaf__)) __attribute__ ((__noreturn__));






extern char *getenv (const char *__name) __attribute__ ((__nothrow__ , __leaf__)) __attribute__ ((__nonnull__ (1))) ;

# 578 "/usr/include/stdlib.h" 3 4
extern int putenv (char *__string) __attribute__ ((__nothrow__ , __leaf__)) __attribute__ ((__nonnull__ (1)));





extern int setenv (const char *__name, const char *__value, int __replace)
     __attribute__ ((__nothrow__ , __leaf__)) __attribute__ ((__nonnull__ (2)));


extern int unsetenv (const char *__name) __attribute__ ((__nothrow__ , __leaf__)) __attribute__ ((__nonnull__ (1)));






extern int clearenv (void) __attribute__ ((__nothrow__ , __leaf__));
# 606 "/usr/include/stdlib.h" 3 4
extern char *mktemp (char *__template) __attribute__ ((__nothrow__ , __leaf__)) __attribute__ ((__nonnull__ (1)));
# 623 "/usr/include/stdlib.h" 3 4
extern int mkstemp (char *__template) __asm__ ("" "mkstemp64")
     __attribute__ ((__nonnull__ (1))) ;
# 645 "/usr/include/stdlib.h" 3 4
extern int mkstemps (char *__template, int __suffixlen) __asm__ ("" "mkstemps64")
                     __attribute__ ((__nonnull__ (1))) ;
# 663 "/usr/include/stdlib.h" 3 4
extern char *mkdtemp (char *__template) __attribute__ ((__nothrow__ , __leaf__)) __attribute__ ((__nonnull__ (1))) ;
# 712 "/usr/include/stdlib.h" 3 4





extern int system (const char *__command) ;

# 734 "/usr/include/stdlib.h" 3 4
extern char *realpath (const char *__restrict __name,
         char *__restrict __resolved) __attribute__ ((__nothrow__ , __leaf__)) ;






typedef int (*__compar_fn_t) (const void *, const void *);
# 752 "/usr/include/stdlib.h" 3 4



extern void *bsearch (const void *__key, const void *__base,
        size_t __nmemb, size_t __size, __compar_fn_t __compar)
     __attribute__ ((__nonnull__ (1, 2, 5))) ;







extern void qsort (void *__base, size_t __nmemb, size_t __size,
     __compar_fn_t __compar) __attribute__ ((__nonnull__ (1, 4)));
# 775 "/usr/include/stdlib.h" 3 4
extern int abs (int __x) __attribute__ ((__nothrow__ , __leaf__)) __attribute__ ((__const__)) ;
extern long int labs (long int __x) __attribute__ ((__nothrow__ , __leaf__)) __attribute__ ((__const__)) ;



__extension__ extern long long int llabs (long long int __x)
     __attribute__ ((__nothrow__ , __leaf__)) __attribute__ ((__const__)) ;







extern div_t div (int __numer, int __denom)
     __attribute__ ((__nothrow__ , __leaf__)) __attribute__ ((__const__)) ;
extern ldiv_t ldiv (long int __numer, long int __denom)
     __attribute__ ((__nothrow__ , __leaf__)) __attribute__ ((__const__)) ;




__extension__ extern lldiv_t lldiv (long long int __numer,
        long long int __denom)
     __attribute__ ((__nothrow__ , __leaf__)) __attribute__ ((__const__)) ;

# 812 "/usr/include/stdlib.h" 3 4
extern char *ecvt (double __value, int __ndigit, int *__restrict __decpt,
     int *__restrict __sign) __attribute__ ((__nothrow__ , __leaf__)) __attribute__ ((__nonnull__ (3, 4))) ;




extern char *fcvt (double __value, int __ndigit, int *__restrict __decpt,
     int *__restrict __sign) __attribute__ ((__nothrow__ , __leaf__)) __attribute__ ((__nonnull__ (3, 4))) ;




extern char *gcvt (double __value, int __ndigit, char *__buf)
     __attribute__ ((__nothrow__ , __leaf__)) __attribute__ ((__nonnull__ (3))) ;




extern char *qecvt (long double __value, int __ndigit,
      int *__restrict __decpt, int *__restrict __sign)
     __attribute__ ((__nothrow__ , __leaf__)) __attribute__ ((__nonnull__ (3, 4))) ;
extern char *qfcvt (long double __value, int __ndigit,
      int *__restrict __decpt, int *__restrict __sign)
     __attribute__ ((__nothrow__ , __leaf__)) __attribute__ ((__nonnull__ (3, 4))) ;
extern char *qgcvt (long double __value, int __ndigit, char *__buf)
     __attribute__ ((__nothrow__ , __leaf__)) __attribute__ ((__nonnull__ (3))) ;




extern int ecvt_r (double __value, int __ndigit, int *__restrict __decpt,
     int *__restrict __sign, char *__restrict __buf,
     size_t __len) __attribute__ ((__nothrow__ , __leaf__)) __attribute__ ((__nonnull__ (3, 4, 5)));
extern int fcvt_r (double __value, int __ndigit, int *__restrict __decpt,
     int *__restrict __sign, char *__restrict __buf,
     size_t __len) __attribute__ ((__nothrow__ , __leaf__)) __attribute__ ((__nonnull__ (3, 4, 5)));

extern int qecvt_r (long double __value, int __ndigit,
      int *__restrict __decpt, int *__restrict __sign,
      char *__restrict __buf, size_t __len)
     __attribute__ ((__nothrow__ , __leaf__)) __attribute__ ((__nonnull__ (3, 4, 5)));
extern int qfcvt_r (long double __value, int __ndigit,
      int *__restrict __decpt, int *__restrict __sign,
      char *__restrict __buf, size_t __len)
     __attribute__ ((__nothrow__ , __leaf__)) __attribute__ ((__nonnull__ (3, 4, 5)));






extern int mblen (const char *__s, size_t __n) __attribute__ ((__nothrow__ , __leaf__));


extern int mbtowc (wchar_t *__restrict __pwc,
     const char *__restrict __s, size_t __n) __attribute__ ((__nothrow__ , __leaf__));


extern int wctomb (char *__s, wchar_t __wchar) __attribute__ ((__nothrow__ , __leaf__));



extern size_t mbstowcs (wchar_t *__restrict __pwcs,
   const char *__restrict __s, size_t __n) __attribute__ ((__nothrow__ , __leaf__));

extern size_t wcstombs (char *__restrict __s,
   const wchar_t *__restrict __pwcs, size_t __n)
     __attribute__ ((__nothrow__ , __leaf__));








extern int rpmatch (const char *__response) __attribute__ ((__nothrow__ , __leaf__)) __attribute__ ((__nonnull__ (1))) ;
# 899 "/usr/include/stdlib.h" 3 4
extern int getsubopt (char **__restrict __optionp,
        char *const *__restrict __tokens,
        char **__restrict __valuep)
     __attribute__ ((__nothrow__ , __leaf__)) __attribute__ ((__nonnull__ (1, 2, 3))) ;
# 951 "/usr/include/stdlib.h" 3 4
extern int getloadavg (double __loadavg[], int __nelem)
     __attribute__ ((__nothrow__ , __leaf__)) __attribute__ ((__nonnull__ (1)));


# 1 "/usr/include/x86_64-linux-gnu/bits/stdlib-float.h" 1 3 4
# 956 "/usr/include/stdlib.h" 2 3 4
# 968 "/usr/include/stdlib.h" 3 4

# 68 "system.h" 2
# 79 "system.h"
ptr_t valloc();



# 1 "/usr/lib/gcc/x86_64-linux-gnu/4.8/include/stddef.h" 1 3 4
# 147 "/usr/lib/gcc/x86_64-linux-gnu/4.8/include/stddef.h" 3 4
typedef long int ptrdiff_t;
# 84 "system.h" 2


# 1 "/usr/lib/gcc/x86_64-linux-gnu/4.8/include-fixed/limits.h" 1 3 4
# 34 "/usr/lib/gcc/x86_64-linux-gnu/4.8/include-fixed/limits.h" 3 4
# 1 "/usr/lib/gcc/x86_64-linux-gnu/4.8/include-fixed/syslimits.h" 1 3 4






# 1 "/usr/lib/gcc/x86_64-linux-gnu/4.8/include-fixed/limits.h" 1 3 4
# 168 "/usr/lib/gcc/x86_64-linux-gnu/4.8/include-fixed/limits.h" 3 4
# 1 "/usr/include/limits.h" 1 3 4
# 143 "/usr/include/limits.h" 3 4
# 1 "/usr/include/x86_64-linux-gnu/bits/posix1_lim.h" 1 3 4
# 160 "/usr/include/x86_64-linux-gnu/bits/posix1_lim.h" 3 4
# 1 "/usr/include/x86_64-linux-gnu/bits/local_lim.h" 1 3 4
# 38 "/usr/include/x86_64-linux-gnu/bits/local_lim.h" 3 4
# 1 "/usr/include/linux/limits.h" 1 3 4
# 39 "/usr/include/x86_64-linux-gnu/bits/local_lim.h" 2 3 4
# 161 "/usr/include/x86_64-linux-gnu/bits/posix1_lim.h" 2 3 4
# 144 "/usr/include/limits.h" 2 3 4



# 1 "/usr/include/x86_64-linux-gnu/bits/posix2_lim.h" 1 3 4
# 148 "/usr/include/limits.h" 2 3 4
# 169 "/usr/lib/gcc/x86_64-linux-gnu/4.8/include-fixed/limits.h" 2 3 4
# 8 "/usr/lib/gcc/x86_64-linux-gnu/4.8/include-fixed/syslimits.h" 2 3 4
# 35 "/usr/lib/gcc/x86_64-linux-gnu/4.8/include-fixed/limits.h" 2 3 4
# 87 "system.h" 2
# 99 "system.h"
# 1 "/usr/include/string.h" 1 3 4
# 27 "/usr/include/string.h" 3 4





# 1 "/usr/lib/gcc/x86_64-linux-gnu/4.8/include/stddef.h" 1 3 4
# 33 "/usr/include/string.h" 2 3 4
# 44 "/usr/include/string.h" 3 4


extern void *memcpy (void *__restrict __dest, const void *__restrict __src,
       size_t __n) __attribute__ ((__nothrow__ , __leaf__)) __attribute__ ((__nonnull__ (1, 2)));


extern void *memmove (void *__dest, const void *__src, size_t __n)
     __attribute__ ((__nothrow__ , __leaf__)) __attribute__ ((__nonnull__ (1, 2)));






extern void *memccpy (void *__restrict __dest, const void *__restrict __src,
        int __c, size_t __n)
     __attribute__ ((__nothrow__ , __leaf__)) __attribute__ ((__nonnull__ (1, 2)));





extern void *memset (void *__s, int __c, size_t __n) __attribute__ ((__nothrow__ , __leaf__)) __attribute__ ((__nonnull__ (1)));


extern int memcmp (const void *__s1, const void *__s2, size_t __n)
     __attribute__ ((__nothrow__ , __leaf__)) __attribute__ ((__pure__)) __attribute__ ((__nonnull__ (1, 2)));
# 96 "/usr/include/string.h" 3 4
extern void *memchr (const void *__s, int __c, size_t __n)
      __attribute__ ((__nothrow__ , __leaf__)) __attribute__ ((__pure__)) __attribute__ ((__nonnull__ (1)));


# 127 "/usr/include/string.h" 3 4


extern char *strcpy (char *__restrict __dest, const char *__restrict __src)
     __attribute__ ((__nothrow__ , __leaf__)) __attribute__ ((__nonnull__ (1, 2)));

extern char *strncpy (char *__restrict __dest,
        const char *__restrict __src, size_t __n)
     __attribute__ ((__nothrow__ , __leaf__)) __attribute__ ((__nonnull__ (1, 2)));


extern char *strcat (char *__restrict __dest, const char *__restrict __src)
     __attribute__ ((__nothrow__ , __leaf__)) __attribute__ ((__nonnull__ (1, 2)));

extern char *strncat (char *__restrict __dest, const char *__restrict __src,
        size_t __n) __attribute__ ((__nothrow__ , __leaf__)) __attribute__ ((__nonnull__ (1, 2)));


extern int strcmp (const char *__s1, const char *__s2)
     __attribute__ ((__nothrow__ , __leaf__)) __attribute__ ((__pure__)) __attribute__ ((__nonnull__ (1, 2)));

extern int strncmp (const char *__s1, const char *__s2, size_t __n)
     __attribute__ ((__nothrow__ , __leaf__)) __attribute__ ((__pure__)) __attribute__ ((__nonnull__ (1, 2)));


extern int strcoll (const char *__s1, const char *__s2)
     __attribute__ ((__nothrow__ , __leaf__)) __attribute__ ((__pure__)) __attribute__ ((__nonnull__ (1, 2)));

extern size_t strxfrm (char *__restrict __dest,
         const char *__restrict __src, size_t __n)
     __attribute__ ((__nothrow__ , __leaf__)) __attribute__ ((__nonnull__ (2)));






# 1 "/usr/include/xlocale.h" 1 3 4
# 27 "/usr/include/xlocale.h" 3 4
typedef struct __locale_struct
{

  struct __locale_data *__locales[13];


  const unsigned short int *__ctype_b;
  const int *__ctype_tolower;
  const int *__ctype_toupper;


  const char *__names[13];
} *__locale_t;


typedef __locale_t locale_t;
# 164 "/usr/include/string.h" 2 3 4


extern int strcoll_l (const char *__s1, const char *__s2, __locale_t __l)
     __attribute__ ((__nothrow__ , __leaf__)) __attribute__ ((__pure__)) __attribute__ ((__nonnull__ (1, 2, 3)));

extern size_t strxfrm_l (char *__dest, const char *__src, size_t __n,
    __locale_t __l) __attribute__ ((__nothrow__ , __leaf__)) __attribute__ ((__nonnull__ (2, 4)));





extern char *strdup (const char *__s)
     __attribute__ ((__nothrow__ , __leaf__)) __attribute__ ((__malloc__)) __attribute__ ((__nonnull__ (1)));






extern char *strndup (const char *__string, size_t __n)
     __attribute__ ((__nothrow__ , __leaf__)) __attribute__ ((__malloc__)) __attribute__ ((__nonnull__ (1)));
# 211 "/usr/include/string.h" 3 4

# 236 "/usr/include/string.h" 3 4
extern char *strchr (const char *__s, int __c)
     __attribute__ ((__nothrow__ , __leaf__)) __attribute__ ((__pure__)) __attribute__ ((__nonnull__ (1)));
# 263 "/usr/include/string.h" 3 4
extern char *strrchr (const char *__s, int __c)
     __attribute__ ((__nothrow__ , __leaf__)) __attribute__ ((__pure__)) __attribute__ ((__nonnull__ (1)));


# 282 "/usr/include/string.h" 3 4



extern size_t strcspn (const char *__s, const char *__reject)
     __attribute__ ((__nothrow__ , __leaf__)) __attribute__ ((__pure__)) __attribute__ ((__nonnull__ (1, 2)));


extern size_t strspn (const char *__s, const char *__accept)
     __attribute__ ((__nothrow__ , __leaf__)) __attribute__ ((__pure__)) __attribute__ ((__nonnull__ (1, 2)));
# 315 "/usr/include/string.h" 3 4
extern char *strpbrk (const char *__s, const char *__accept)
     __attribute__ ((__nothrow__ , __leaf__)) __attribute__ ((__pure__)) __attribute__ ((__nonnull__ (1, 2)));
# 342 "/usr/include/string.h" 3 4
extern char *strstr (const char *__haystack, const char *__needle)
     __attribute__ ((__nothrow__ , __leaf__)) __attribute__ ((__pure__)) __attribute__ ((__nonnull__ (1, 2)));




extern char *strtok (char *__restrict __s, const char *__restrict __delim)
     __attribute__ ((__nothrow__ , __leaf__)) __attribute__ ((__nonnull__ (2)));




extern char *__strtok_r (char *__restrict __s,
    const char *__restrict __delim,
    char **__restrict __save_ptr)
     __attribute__ ((__nothrow__ , __leaf__)) __attribute__ ((__nonnull__ (2, 3)));

extern char *strtok_r (char *__restrict __s, const char *__restrict __delim,
         char **__restrict __save_ptr)
     __attribute__ ((__nothrow__ , __leaf__)) __attribute__ ((__nonnull__ (2, 3)));
# 397 "/usr/include/string.h" 3 4


extern size_t strlen (const char *__s)
     __attribute__ ((__nothrow__ , __leaf__)) __attribute__ ((__pure__)) __attribute__ ((__nonnull__ (1)));





extern size_t strnlen (const char *__string, size_t __maxlen)
     __attribute__ ((__nothrow__ , __leaf__)) __attribute__ ((__pure__)) __attribute__ ((__nonnull__ (1)));





extern char *strerror (int __errnum) __attribute__ ((__nothrow__ , __leaf__));

# 427 "/usr/include/string.h" 3 4
extern int strerror_r (int __errnum, char *__buf, size_t __buflen) __asm__ ("" "__xpg_strerror_r") __attribute__ ((__nothrow__ , __leaf__))

                        __attribute__ ((__nonnull__ (2)));
# 445 "/usr/include/string.h" 3 4
extern char *strerror_l (int __errnum, __locale_t __l) __attribute__ ((__nothrow__ , __leaf__));





extern void __bzero (void *__s, size_t __n) __attribute__ ((__nothrow__ , __leaf__)) __attribute__ ((__nonnull__ (1)));



extern void bcopy (const void *__src, void *__dest, size_t __n)
     __attribute__ ((__nothrow__ , __leaf__)) __attribute__ ((__nonnull__ (1, 2)));


extern void bzero (void *__s, size_t __n) __attribute__ ((__nothrow__ , __leaf__)) __attribute__ ((__nonnull__ (1)));


extern int bcmp (const void *__s1, const void *__s2, size_t __n)
     __attribute__ ((__nothrow__ , __leaf__)) __attribute__ ((__pure__)) __attribute__ ((__nonnull__ (1, 2)));
# 489 "/usr/include/string.h" 3 4
extern char *index (const char *__s, int __c)
     __attribute__ ((__nothrow__ , __leaf__)) __attribute__ ((__pure__)) __attribute__ ((__nonnull__ (1)));
# 517 "/usr/include/string.h" 3 4
extern char *rindex (const char *__s, int __c)
     __attribute__ ((__nothrow__ , __leaf__)) __attribute__ ((__pure__)) __attribute__ ((__nonnull__ (1)));




extern int ffs (int __i) __attribute__ ((__nothrow__ , __leaf__)) __attribute__ ((__const__));
# 534 "/usr/include/string.h" 3 4
extern int strcasecmp (const char *__s1, const char *__s2)
     __attribute__ ((__nothrow__ , __leaf__)) __attribute__ ((__pure__)) __attribute__ ((__nonnull__ (1, 2)));


extern int strncasecmp (const char *__s1, const char *__s2, size_t __n)
     __attribute__ ((__nothrow__ , __leaf__)) __attribute__ ((__pure__)) __attribute__ ((__nonnull__ (1, 2)));
# 557 "/usr/include/string.h" 3 4
extern char *strsep (char **__restrict __stringp,
       const char *__restrict __delim)
     __attribute__ ((__nothrow__ , __leaf__)) __attribute__ ((__nonnull__ (1, 2)));




extern char *strsignal (int __sig) __attribute__ ((__nothrow__ , __leaf__));


extern char *__stpcpy (char *__restrict __dest, const char *__restrict __src)
     __attribute__ ((__nothrow__ , __leaf__)) __attribute__ ((__nonnull__ (1, 2)));
extern char *stpcpy (char *__restrict __dest, const char *__restrict __src)
     __attribute__ ((__nothrow__ , __leaf__)) __attribute__ ((__nonnull__ (1, 2)));



extern char *__stpncpy (char *__restrict __dest,
   const char *__restrict __src, size_t __n)
     __attribute__ ((__nothrow__ , __leaf__)) __attribute__ ((__nonnull__ (1, 2)));
extern char *stpncpy (char *__restrict __dest,
        const char *__restrict __src, size_t __n)
     __attribute__ ((__nothrow__ , __leaf__)) __attribute__ ((__nonnull__ (1, 2)));
# 644 "/usr/include/string.h" 3 4

# 100 "system.h" 2
# 113 "system.h"
# 1 "/usr/include/errno.h" 1 3 4
# 31 "/usr/include/errno.h" 3 4




# 1 "/usr/include/x86_64-linux-gnu/bits/errno.h" 1 3 4
# 24 "/usr/include/x86_64-linux-gnu/bits/errno.h" 3 4
# 1 "/usr/include/linux/errno.h" 1 3 4
# 1 "/usr/include/x86_64-linux-gnu/asm/errno.h" 1 3 4
# 1 "/usr/include/asm-generic/errno.h" 1 3 4



# 1 "/usr/include/asm-generic/errno-base.h" 1 3 4
# 5 "/usr/include/asm-generic/errno.h" 2 3 4
# 1 "/usr/include/x86_64-linux-gnu/asm/errno.h" 2 3 4
# 1 "/usr/include/linux/errno.h" 2 3 4
# 25 "/usr/include/x86_64-linux-gnu/bits/errno.h" 2 3 4
# 50 "/usr/include/x86_64-linux-gnu/bits/errno.h" 3 4
extern int *__errno_location (void) __attribute__ ((__nothrow__ , __leaf__)) __attribute__ ((__const__));
# 36 "/usr/include/errno.h" 2 3 4
# 58 "/usr/include/errno.h" 3 4

# 114 "system.h" 2
# 124 "system.h"
# 1 "/usr/include/ctype.h" 1 3 4
# 28 "/usr/include/ctype.h" 3 4

# 46 "/usr/include/ctype.h" 3 4
enum
{
  _ISupper = ((0) < 8 ? ((1 << (0)) << 8) : ((1 << (0)) >> 8)),
  _ISlower = ((1) < 8 ? ((1 << (1)) << 8) : ((1 << (1)) >> 8)),
  _ISalpha = ((2) < 8 ? ((1 << (2)) << 8) : ((1 << (2)) >> 8)),
  _ISdigit = ((3) < 8 ? ((1 << (3)) << 8) : ((1 << (3)) >> 8)),
  _ISxdigit = ((4) < 8 ? ((1 << (4)) << 8) : ((1 << (4)) >> 8)),
  _ISspace = ((5) < 8 ? ((1 << (5)) << 8) : ((1 << (5)) >> 8)),
  _ISprint = ((6) < 8 ? ((1 << (6)) << 8) : ((1 << (6)) >> 8)),
  _ISgraph = ((7) < 8 ? ((1 << (7)) << 8) : ((1 << (7)) >> 8)),
  _ISblank = ((8) < 8 ? ((1 << (8)) << 8) : ((1 << (8)) >> 8)),
  _IScntrl = ((9) < 8 ? ((1 << (9)) << 8) : ((1 << (9)) >> 8)),
  _ISpunct = ((10) < 8 ? ((1 << (10)) << 8) : ((1 << (10)) >> 8)),
  _ISalnum = ((11) < 8 ? ((1 << (11)) << 8) : ((1 << (11)) >> 8))
};
# 79 "/usr/include/ctype.h" 3 4
extern const unsigned short int **__ctype_b_loc (void)
     __attribute__ ((__nothrow__ , __leaf__)) __attribute__ ((__const__));
extern const __int32_t **__ctype_tolower_loc (void)
     __attribute__ ((__nothrow__ , __leaf__)) __attribute__ ((__const__));
extern const __int32_t **__ctype_toupper_loc (void)
     __attribute__ ((__nothrow__ , __leaf__)) __attribute__ ((__const__));
# 104 "/usr/include/ctype.h" 3 4






extern int isalnum (int) __attribute__ ((__nothrow__ , __leaf__));
extern int isalpha (int) __attribute__ ((__nothrow__ , __leaf__));
extern int iscntrl (int) __attribute__ ((__nothrow__ , __leaf__));
extern int isdigit (int) __attribute__ ((__nothrow__ , __leaf__));
extern int islower (int) __attribute__ ((__nothrow__ , __leaf__));
extern int isgraph (int) __attribute__ ((__nothrow__ , __leaf__));
extern int isprint (int) __attribute__ ((__nothrow__ , __leaf__));
extern int ispunct (int) __attribute__ ((__nothrow__ , __leaf__));
extern int isspace (int) __attribute__ ((__nothrow__ , __leaf__));
extern int isupper (int) __attribute__ ((__nothrow__ , __leaf__));
extern int isxdigit (int) __attribute__ ((__nothrow__ , __leaf__));



extern int tolower (int __c) __attribute__ ((__nothrow__ , __leaf__));


extern int toupper (int __c) __attribute__ ((__nothrow__ , __leaf__));








extern int isblank (int) __attribute__ ((__nothrow__ , __leaf__));


# 150 "/usr/include/ctype.h" 3 4
extern int isascii (int __c) __attribute__ ((__nothrow__ , __leaf__));



extern int toascii (int __c) __attribute__ ((__nothrow__ , __leaf__));



extern int _toupper (int) __attribute__ ((__nothrow__ , __leaf__));
extern int _tolower (int) __attribute__ ((__nothrow__ , __leaf__));
# 271 "/usr/include/ctype.h" 3 4
extern int isalnum_l (int, __locale_t) __attribute__ ((__nothrow__ , __leaf__));
extern int isalpha_l (int, __locale_t) __attribute__ ((__nothrow__ , __leaf__));
extern int iscntrl_l (int, __locale_t) __attribute__ ((__nothrow__ , __leaf__));
extern int isdigit_l (int, __locale_t) __attribute__ ((__nothrow__ , __leaf__));
extern int islower_l (int, __locale_t) __attribute__ ((__nothrow__ , __leaf__));
extern int isgraph_l (int, __locale_t) __attribute__ ((__nothrow__ , __leaf__));
extern int isprint_l (int, __locale_t) __attribute__ ((__nothrow__ , __leaf__));
extern int ispunct_l (int, __locale_t) __attribute__ ((__nothrow__ , __leaf__));
extern int isspace_l (int, __locale_t) __attribute__ ((__nothrow__ , __leaf__));
extern int isupper_l (int, __locale_t) __attribute__ ((__nothrow__ , __leaf__));
extern int isxdigit_l (int, __locale_t) __attribute__ ((__nothrow__ , __leaf__));

extern int isblank_l (int, __locale_t) __attribute__ ((__nothrow__ , __leaf__));



extern int __tolower_l (int __c, __locale_t __l) __attribute__ ((__nothrow__ , __leaf__));
extern int tolower_l (int __c, __locale_t __l) __attribute__ ((__nothrow__ , __leaf__));


extern int __toupper_l (int __c, __locale_t __l) __attribute__ ((__nothrow__ , __leaf__));
extern int toupper_l (int __c, __locale_t __l) __attribute__ ((__nothrow__ , __leaf__));
# 347 "/usr/include/ctype.h" 3 4

# 125 "system.h" 2
# 159 "system.h"
# 1 "../intl/libintl.h" 1
# 36 "../intl/libintl.h"
# 1 "/usr/include/locale.h" 1 3 4
# 28 "/usr/include/locale.h" 3 4
# 1 "/usr/lib/gcc/x86_64-linux-gnu/4.8/include/stddef.h" 1 3 4
# 29 "/usr/include/locale.h" 2 3 4
# 1 "/usr/include/x86_64-linux-gnu/bits/locale.h" 1 3 4
# 30 "/usr/include/locale.h" 2 3 4


# 50 "/usr/include/locale.h" 3 4



struct lconv
{


  char *decimal_point;
  char *thousands_sep;





  char *grouping;





  char *int_curr_symbol;
  char *currency_symbol;
  char *mon_decimal_point;
  char *mon_thousands_sep;
  char *mon_grouping;
  char *positive_sign;
  char *negative_sign;
  char int_frac_digits;
  char frac_digits;

  char p_cs_precedes;

  char p_sep_by_space;

  char n_cs_precedes;

  char n_sep_by_space;






  char p_sign_posn;
  char n_sign_posn;


  char int_p_cs_precedes;

  char int_p_sep_by_space;

  char int_n_cs_precedes;

  char int_n_sep_by_space;






  char int_p_sign_posn;
  char int_n_sign_posn;
# 120 "/usr/include/locale.h" 3 4
};



extern char *setlocale (int __category, const char *__locale) __attribute__ ((__nothrow__ , __leaf__));


extern struct lconv *localeconv (void) __attribute__ ((__nothrow__ , __leaf__));


# 151 "/usr/include/locale.h" 3 4
extern __locale_t newlocale (int __category_mask, const char *__locale,
        __locale_t __base) __attribute__ ((__nothrow__ , __leaf__));
# 186 "/usr/include/locale.h" 3 4
extern __locale_t duplocale (__locale_t __dataset) __attribute__ ((__nothrow__ , __leaf__));



extern void freelocale (__locale_t __dataset) __attribute__ ((__nothrow__ , __leaf__));






extern __locale_t uselocale (__locale_t __dataset) __attribute__ ((__nothrow__ , __leaf__));








# 37 "../intl/libintl.h" 2
# 72 "../intl/libintl.h"
struct _msg_ent
{
  const char *_msg;
  int _msg_number;
};
# 94 "../intl/libintl.h"
extern char *gettext (const char *__msgid);
extern char *gettext__ (const char *__msgid);



extern char *dgettext (const char *__domainname, const char *__msgid);
extern char *dgettext__ (const char *__domainname, const char *__msgid)
                          ;



extern char *dcgettext (const char *__domainname, const char *__msgid, int __category)
                    ;
extern char *dcgettext__ (const char *__domainname, const char *__msgid, int __category)
                                           ;





extern char *textdomain (const char *__domainname);
extern char *textdomain__ (const char *__domainname);



extern char *bindtextdomain (const char *__domainname, const char *__dirname)
                             ;
extern char *bindtextdomain__ (const char *__domainname, const char *__dirname)
                               ;
# 160 "system.h" 2
# 26 "search.c" 2
# 1 "grep.h" 1
# 19 "grep.h"
extern void fatal (const char *, int);
extern char *xmalloc (size_t size);
extern char *xrealloc (char *ptr, size_t size);





extern struct matcher
{
  char *name;
  void (*compile) (char *, size_t);
  char *(*execute) (char *, size_t, char **);
} matchers[];


extern char *matcher;



extern int match_icase;
extern int match_words;
extern int match_lines;
# 27 "search.c" 2
# 1 "regex.h" 1
# 45 "regex.h"
typedef long int s_reg_t;
typedef unsigned long int active_reg_t;






typedef unsigned long int reg_syntax_t;
# 168 "regex.h"
extern reg_syntax_t re_syntax_options;
# 284 "regex.h"
typedef enum
{
  REG_NOERROR = 0,
  REG_NOMATCH,



  REG_BADPAT,
  REG_ECOLLATE,
  REG_ECTYPE,
  REG_EESCAPE,
  REG_ESUBREG,
  REG_EBRACK,
  REG_EPAREN,
  REG_EBRACE,
  REG_BADBR,
  REG_ERANGE,
  REG_ESPACE,
  REG_BADRPT,


  REG_EEND,
  REG_ESIZE,
  REG_ERPAREN
} reg_errcode_t;
# 320 "regex.h"
struct re_pattern_buffer
{




  unsigned char *buffer;


  unsigned long int allocated;


  unsigned long int used;


  reg_syntax_t syntax;




  char *fastmap;





  char * translate;


  size_t re_nsub;






  unsigned can_be_null : 1;
# 365 "regex.h"
  unsigned regs_allocated : 2;



  unsigned fastmap_accurate : 1;



  unsigned no_sub : 1;



  unsigned not_bol : 1;


  unsigned not_eol : 1;


  unsigned newline_anchor : 1;


};

typedef struct re_pattern_buffer regex_t;


typedef int regoff_t;




struct re_registers
{
  unsigned num_regs;
  regoff_t *start;
  regoff_t *end;
};
# 415 "regex.h"
typedef struct
{
  regoff_t rm_so;
  regoff_t rm_eo;
} regmatch_t;
# 441 "regex.h"
extern reg_syntax_t re_set_syntax (reg_syntax_t syntax);




extern const char *re_compile_pattern
  (const char *pattern, size_t length, struct re_pattern_buffer *buffer)
                                               ;





extern int re_compile_fastmap (struct re_pattern_buffer *buffer);







extern int re_search
  (struct re_pattern_buffer *buffer, const char *string, int length, int start, int range, struct re_registers *regs)
                                                                         ;




extern int re_search_2
  (struct re_pattern_buffer *buffer, const char *string1, int length1, const char *string2, int length2, int start, int range, struct re_registers *regs, int stop)

                                                                        ;




extern int re_match
  (struct re_pattern_buffer *buffer, const char *string, int length, int start, struct re_registers *regs)
                                                               ;



extern int re_match_2
  (struct re_pattern_buffer *buffer, const char *string1, int length1, const char *string2, int length2, int start, struct re_registers *regs, int stop)

                                                             ;
# 501 "regex.h"
extern void re_set_registers
  (struct re_pattern_buffer *buffer, struct re_registers *regs, unsigned num_regs, regoff_t *starts, regoff_t *ends)
                                                                  ;
# 514 "regex.h"
extern int regcomp (regex_t *preg, const char *pattern, int cflags);
extern int regexec
  (const regex_t *preg, const char *string, size_t nmatch, regmatch_t pmatch[], int eflags)
                                              ;
extern size_t regerror
  (int errcode, const regex_t *preg, char *errbuf, size_t errbuf_size)
                                 ;
extern void regfree (regex_t *preg);
# 28 "search.c" 2
# 1 "dfa.h" 1
# 57 "dfa.h"
typedef int charclass[(((1 << 8) + (8 * sizeof (int)) - 1) / (8 * sizeof (int)))];





typedef enum
{
  END = -1,







  EMPTY = (1 << 8),


  BACKREF,






  BEGLINE,



  ENDLINE,



  BEGWORD,



  ENDWORD,



  LIMWORD,



  NOTLIMWORD,



  QMARK,



  STAR,



  PLUS,



  REPMN,



  CAT,




  OR,


  ORTOP,


  LPAREN,


  RPAREN,

  CSET


} token;
# 201 "dfa.h"
typedef struct
{
  unsigned index;
  unsigned constraint;
} position;


typedef struct
{
  position *elems;
  int nelem;
} position_set;




typedef struct
{
  int hash;
  position_set elems;
  char newline;
  char letter;
  char backref;
  unsigned char constraint;
  int first_end;
} dfa_state;



struct dfamust
{
  int exact;
  char *must;
  struct dfamust *next;
};


struct dfa
{

  charclass *charclasses;
  int cindex;
  int calloc;


  token *tokens;
  int tindex;
  int talloc;
  int depth;


  int nleaves;
  int nregexps;



  dfa_state *states;
  int sindex;
  int salloc;


  position_set *follows;






  int searchflag;
# 278 "dfa.h"
  int tralloc;

  int trcount;

  int **trans;




  int **realtrans;

  int **fails;

  int *success;

  int *newlines;






  struct dfamust *musts;


};
# 325 "dfa.h"
extern void dfasyntax (reg_syntax_t, int);




extern void dfacomp (char *, size_t, struct dfa *, int);
# 344 "dfa.h"
extern char *dfaexec (struct dfa *, char *, char *, int, int *, int *);


extern void dfafree (struct dfa *);




extern void dfainit (struct dfa *);


extern void dfaparse (char *, size_t, struct dfa *);



extern void dfaanalyze (struct dfa *, int);



extern void dfastate (int, struct dfa *, int []);







extern void dfaerror (const char *);
# 29 "search.c" 2
# 1 "kwset.h" 1
# 23 "kwset.h"
struct kwsmatch
{
  int index;
  char *beg[1];
  size_t size[1];
};

typedef ptr_t kwset_t;





extern kwset_t kwsalloc (char *);




extern char *kwsincr (kwset_t, char *, size_t);



extern char *kwsprep (kwset_t);







extern char *kwsexec (kwset_t, char *, size_t, struct kwsmatch *);


extern void kwsfree (kwset_t);
# 30 "search.c" 2



static void Gcompile (char *, size_t);
static void Ecompile (char *, size_t);
static char *EGexecute (char *, size_t, char **);
static void Fcompile (char *, size_t);
static char *Fexecute (char *, size_t, char **);
static void kwsinit (void);


struct matcher matchers[] = {
  { "default", Gcompile, EGexecute },
  { "grep", Gcompile, EGexecute },
  { "ggrep", Gcompile, EGexecute },
  { "egrep", Ecompile, EGexecute },
  { "posix-egrep", Ecompile, EGexecute },
  { "awk", Ecompile, EGexecute },
  { "gegrep", Ecompile, EGexecute },
  { "fgrep", Fcompile, Fexecute },
  { "gfgrep", Fcompile, Fexecute },
  { 0, 0, 0 },
};





static struct dfa dfa;


static struct re_pattern_buffer regex;




static kwset_t kwset;




static int lastexact;

void
dfaerror(mesg)
  const char *mesg;
{
  fatal(mesg, 0);
}

static void
kwsinit()
{
  static char trans[((127 * 2 + 1) + 1)];
  int i;

  if (match_icase)
    for (i = 0; i < ((127 * 2 + 1) + 1); ++i)
      trans[i] = (((((i) & ~0x7f) == 0) && ((*__ctype_b_loc ())[(int) ((i))] & (unsigned short int) _ISupper)) ? tolower(i) : (i));

  if (!(kwset = kwsalloc(match_icase ? trans : (char *) 0)))
    fatal("memory exhausted", 0);
}





static void
kwsmusts()
{
  struct dfamust *dm;
  char *err;

  if (dfa.musts)
    {
      kwsinit();



      for (dm = dfa.musts; dm; dm = dm->next)
 {
   if (!dm->exact)
     continue;
   ++lastexact;
   if ((err = kwsincr(kwset, dm->must, strlen(dm->must))) != 0)
     fatal(err, 0);
 }


      for (dm = dfa.musts; dm; dm = dm->next)
 {
   if (dm->exact)
     continue;
   if ((err = kwsincr(kwset, dm->must, strlen(dm->must))) != 0)
     fatal(err, 0);
 }
      if ((err = kwsprep(kwset)) != 0)
 fatal(err, 0);
    }
}

static void
Gcompile(pattern, size)
     char *pattern;
     size_t size;
{
  const char *err;

  re_set_syntax(((((unsigned long int) 1) << 1) | ((((unsigned long int) 1) << 1) << 1) | ((((((((((unsigned long int) 1) << 1) << 1) << 1) << 1) << 1) << 1) << 1) << 1) | (((((((((((unsigned long int) 1) << 1) << 1) << 1) << 1) << 1) << 1) << 1) << 1) << 1) | (((((((((((((unsigned long int) 1) << 1) << 1) << 1) << 1) << 1) << 1) << 1) << 1) << 1) << 1) << 1)) | ((((((((((unsigned long int) 1) << 1) << 1) << 1) << 1) << 1) << 1) << 1) << 1));
  dfasyntax(((((unsigned long int) 1) << 1) | ((((unsigned long int) 1) << 1) << 1) | ((((((((((unsigned long int) 1) << 1) << 1) << 1) << 1) << 1) << 1) << 1) << 1) | (((((((((((unsigned long int) 1) << 1) << 1) << 1) << 1) << 1) << 1) << 1) << 1) << 1) | (((((((((((((unsigned long int) 1) << 1) << 1) << 1) << 1) << 1) << 1) << 1) << 1) << 1) << 1) << 1)) | ((((((((((unsigned long int) 1) << 1) << 1) << 1) << 1) << 1) << 1) << 1) << 1), match_icase);

  if ((err = re_compile_pattern(pattern, size, &regex)) != 0)
    fatal(err, 0);

  dfainit(&dfa);





  if (match_words || match_lines)
    {






      char *n = malloc(size + 50);
      int i = 0;

      strcpy(n, "");

      if (match_lines)
 strcpy(n, "^\\(");
      if (match_words)
 strcpy(n, "\\(^\\|[^0-9A-Za-z_]\\)\\(");

      i = strlen(n);
      memcpy(n + i, pattern, size);
      i += size;

      if (match_words)
 strcpy(n + i, "\\)\\([^0-9A-Za-z_]\\|$\\)");
      if (match_lines)
 strcpy(n + i, "\\)$");

      i += strlen(n + i);
      dfacomp(n, i, &dfa, 1);
    }
  else
    dfacomp(pattern, size, &dfa, 1);

  kwsmusts();
}

static void
Ecompile(pattern, size)
     char *pattern;
     size_t size;
{
  const char *err;

  if (strcmp(matcher, "posix-egrep") == 0)
    {
      re_set_syntax(((((((unsigned long int) 1) << 1) << 1) | (((((unsigned long int) 1) << 1) << 1) << 1) | ((((((unsigned long int) 1) << 1) << 1) << 1) << 1) | ((((((((((unsigned long int) 1) << 1) << 1) << 1) << 1) << 1) << 1) << 1) << 1) | (((((((((((((unsigned long int) 1) << 1) << 1) << 1) << 1) << 1) << 1) << 1) << 1) << 1) << 1) << 1) | (((((((((((((((unsigned long int) 1) << 1) << 1) << 1) << 1) << 1) << 1) << 1) << 1) << 1) << 1) << 1) << 1) << 1) | (((((((((((((((((unsigned long int) 1) << 1) << 1) << 1) << 1) << 1) << 1) << 1) << 1) << 1) << 1) << 1) << 1) << 1) << 1) << 1)) | (((((((((((unsigned long int) 1) << 1) << 1) << 1) << 1) << 1) << 1) << 1) << 1) << 1) | ((((((((((((((unsigned long int) 1) << 1) << 1) << 1) << 1) << 1) << 1) << 1) << 1) << 1) << 1) << 1) << 1)));
      dfasyntax(((((((unsigned long int) 1) << 1) << 1) | (((((unsigned long int) 1) << 1) << 1) << 1) | ((((((unsigned long int) 1) << 1) << 1) << 1) << 1) | ((((((((((unsigned long int) 1) << 1) << 1) << 1) << 1) << 1) << 1) << 1) << 1) | (((((((((((((unsigned long int) 1) << 1) << 1) << 1) << 1) << 1) << 1) << 1) << 1) << 1) << 1) << 1) | (((((((((((((((unsigned long int) 1) << 1) << 1) << 1) << 1) << 1) << 1) << 1) << 1) << 1) << 1) << 1) << 1) << 1) | (((((((((((((((((unsigned long int) 1) << 1) << 1) << 1) << 1) << 1) << 1) << 1) << 1) << 1) << 1) << 1) << 1) << 1) << 1) << 1)) | (((((((((((unsigned long int) 1) << 1) << 1) << 1) << 1) << 1) << 1) << 1) << 1) << 1) | ((((((((((((((unsigned long int) 1) << 1) << 1) << 1) << 1) << 1) << 1) << 1) << 1) << 1) << 1) << 1) << 1)), match_icase);
    }
  else if (strcmp(matcher, "awk") == 0)
    {
      re_set_syntax((((unsigned long int) 1) | (((((((((unsigned long int) 1) << 1) << 1) << 1) << 1) << 1) << 1) << 1) | (((((((((((((((unsigned long int) 1) << 1) << 1) << 1) << 1) << 1) << 1) << 1) << 1) << 1) << 1) << 1) << 1) << 1) | ((((((((((((((((unsigned long int) 1) << 1) << 1) << 1) << 1) << 1) << 1) << 1) << 1) << 1) << 1) << 1) << 1) << 1) << 1) | (((((((((((((((((unsigned long int) 1) << 1) << 1) << 1) << 1) << 1) << 1) << 1) << 1) << 1) << 1) << 1) << 1) << 1) << 1) << 1) | ((((((((((((((((((unsigned long int) 1) << 1) << 1) << 1) << 1) << 1) << 1) << 1) << 1) << 1) << 1) << 1) << 1) << 1) << 1) << 1) << 1) | ((((((((unsigned long int) 1) << 1) << 1) << 1) << 1) << 1) << 1) | (((((unsigned long int) 1) << 1) << 1) << 1) | (((((((((((((((((((unsigned long int) 1) << 1) << 1) << 1) << 1) << 1) << 1) << 1) << 1) << 1) << 1) << 1) << 1) << 1) << 1) << 1) << 1) << 1) | (((((((((((((((((((((unsigned long int) 1) << 1) << 1) << 1) << 1) << 1) << 1) << 1) << 1) << 1) << 1) << 1) << 1) << 1) << 1) << 1) << 1) << 1) << 1) << 1)));
      dfasyntax((((unsigned long int) 1) | (((((((((unsigned long int) 1) << 1) << 1) << 1) << 1) << 1) << 1) << 1) | (((((((((((((((unsigned long int) 1) << 1) << 1) << 1) << 1) << 1) << 1) << 1) << 1) << 1) << 1) << 1) << 1) << 1) | ((((((((((((((((unsigned long int) 1) << 1) << 1) << 1) << 1) << 1) << 1) << 1) << 1) << 1) << 1) << 1) << 1) << 1) << 1) | (((((((((((((((((unsigned long int) 1) << 1) << 1) << 1) << 1) << 1) << 1) << 1) << 1) << 1) << 1) << 1) << 1) << 1) << 1) << 1) | ((((((((((((((((((unsigned long int) 1) << 1) << 1) << 1) << 1) << 1) << 1) << 1) << 1) << 1) << 1) << 1) << 1) << 1) << 1) << 1) << 1) | ((((((((unsigned long int) 1) << 1) << 1) << 1) << 1) << 1) << 1) | (((((unsigned long int) 1) << 1) << 1) << 1) | (((((((((((((((((((unsigned long int) 1) << 1) << 1) << 1) << 1) << 1) << 1) << 1) << 1) << 1) << 1) << 1) << 1) << 1) << 1) << 1) << 1) << 1) | (((((((((((((((((((((unsigned long int) 1) << 1) << 1) << 1) << 1) << 1) << 1) << 1) << 1) << 1) << 1) << 1) << 1) << 1) << 1) << 1) << 1) << 1) << 1) << 1)), match_icase);
    }
  else
    {
      re_set_syntax((((((unsigned long int) 1) << 1) << 1) | (((((unsigned long int) 1) << 1) << 1) << 1) | ((((((unsigned long int) 1) << 1) << 1) << 1) << 1) | ((((((((((unsigned long int) 1) << 1) << 1) << 1) << 1) << 1) << 1) << 1) << 1) | (((((((((((((unsigned long int) 1) << 1) << 1) << 1) << 1) << 1) << 1) << 1) << 1) << 1) << 1) << 1) | (((((((((((((((unsigned long int) 1) << 1) << 1) << 1) << 1) << 1) << 1) << 1) << 1) << 1) << 1) << 1) << 1) << 1) | (((((((((((((((((unsigned long int) 1) << 1) << 1) << 1) << 1) << 1) << 1) << 1) << 1) << 1) << 1) << 1) << 1) << 1) << 1) << 1)));
      dfasyntax((((((unsigned long int) 1) << 1) << 1) | (((((unsigned long int) 1) << 1) << 1) << 1) | ((((((unsigned long int) 1) << 1) << 1) << 1) << 1) | ((((((((((unsigned long int) 1) << 1) << 1) << 1) << 1) << 1) << 1) << 1) << 1) | (((((((((((((unsigned long int) 1) << 1) << 1) << 1) << 1) << 1) << 1) << 1) << 1) << 1) << 1) << 1) | (((((((((((((((unsigned long int) 1) << 1) << 1) << 1) << 1) << 1) << 1) << 1) << 1) << 1) << 1) << 1) << 1) << 1) | (((((((((((((((((unsigned long int) 1) << 1) << 1) << 1) << 1) << 1) << 1) << 1) << 1) << 1) << 1) << 1) << 1) << 1) << 1) << 1)), match_icase);
    }

  if ((err = re_compile_pattern(pattern, size, &regex)) != 0)
    fatal(err, 0);

  dfainit(&dfa);





  if (match_words || match_lines)
    {






      char *n = malloc(size + 50);
      int i = 0;

      strcpy(n, "");

      if (match_lines)
 strcpy(n, "^(");
      if (match_words)
 strcpy(n, "(^|[^0-9A-Za-z_])(");

      i = strlen(n);
      memcpy(n + i, pattern, size);
      i += size;

      if (match_words)
 strcpy(n + i, ")([^0-9A-Za-z_]|$)");
      if (match_lines)
 strcpy(n + i, ")$");

      i += strlen(n + i);
      dfacomp(n, i, &dfa, 1);
    }
  else
    dfacomp(pattern, size, &dfa, 1);

  kwsmusts();
}

static char *
EGexecute(buf, size, endp)
     char *buf;
     size_t size;
     char **endp;
{
  register char *buflim, *beg, *end, save;
  int backref, start, len;
  struct kwsmatch kwsm;
  static struct re_registers regs;


  buflim = buf + size;

  for (beg = end = buf; end < buflim; beg = end + 1)
    {
      if (kwset)
 {

   beg = kwsexec(kwset, beg, buflim - beg, &kwsm);
   if (!beg)
     goto failure;


   end = memchr(beg, '\n', buflim - beg);
   if (!end)
     end = buflim;
   while (beg > buf && beg[-1] != '\n')
     --beg;
   save = *end;
   if (kwsm.index < lastexact)
     goto success;
   if (!dfaexec(&dfa, beg, end, 0, (int *) 0, &backref))
     {
       *end = save;
       continue;
     }
   *end = save;

   if (!backref)
     goto success;
 }
      else
 {

   save = *buflim;
   beg = dfaexec(&dfa, beg, buflim, 0, (int *) 0, &backref);
   *buflim = save;
   if (!beg)
     goto failure;

   end = memchr(beg, '\n', buflim - beg);
   if (!end)
     end = buflim;
   while (beg > buf && beg[-1] != '\n')
     --beg;

   if (!backref)
     goto success;
 }


      regex.not_eol = 0;
      if ((start = re_search(&regex, beg, end - beg, 0, end - beg, &regs)) >= 0)
 {
   len = regs.end[0] - start;
   if ((!match_lines && !match_words)
       || (match_lines && len == end - beg))
     goto success;






   if (match_words)
     while (start >= 0)
       {
  if ((start == 0 || !(((((beg[start - 1]) & ~0x7f) == 0) && ((*__ctype_b_loc ())[(int) ((beg[start - 1]))] & (unsigned short int) _ISalnum)) || (beg[start - 1]) == '_'))
      && (len == end - beg || !(((((beg[start + len]) & ~0x7f) == 0) && ((*__ctype_b_loc ())[(int) ((beg[start + len]))] & (unsigned short int) _ISalnum)) || (beg[start + len]) == '_')))
    goto success;
  if (len > 0)
    {

      --len;
      regex.not_eol = 1;
      len = re_match(&regex, beg, start + len, start, &regs);
    }
  if (len <= 0)
    {

      if (start == end - beg)
        break;
      ++start;
      regex.not_eol = 0;
      start = re_search(&regex, beg, end - beg,
          start, end - beg - start, &regs);
      len = regs.end[0] - start;
    }
       }
 }
    }

 failure:
  return 0;

 success:
  *endp = end < buflim ? end + 1 : end;
  return beg;
}

static void
Fcompile(pattern, size)
     char *pattern;
     size_t size;
{
  char *beg, *lim, *err;

  kwsinit();
  beg = pattern;
  do
    {
      for (lim = beg; lim < pattern + size && *lim != '\n'; ++lim)
 ;
      if ((err = kwsincr(kwset, beg, lim - beg)) != 0)
 fatal(err, 0);
      if (lim < pattern + size)
 ++lim;
      beg = lim;
    }
  while (beg < pattern + size);

  if ((err = kwsprep(kwset)) != 0)
    fatal(err, 0);
}

static char *
Fexecute(buf, size, endp)
     char *buf;
     size_t size;
     char **endp;
{
  register char *beg, *try, *end;
  register size_t len;
  struct kwsmatch kwsmatch;

  for (beg = buf; beg <= buf + size; ++beg)
    {
      if (!(beg = kwsexec(kwset, beg, buf + size - beg, &kwsmatch)))
 return 0;
      len = kwsmatch.size[0];
      if (match_lines)
 {
   if (beg > buf && beg[-1] != '\n')
     continue;
   if (beg + len < buf + size && beg[len] != '\n')
     continue;
   goto success;
 }
      else if (match_words)
 for (try = beg; len && try;)
   {
     if (try > buf && ((((((unsigned char) try[-1]) & ~0x7f) == 0) && ((*__ctype_b_loc ())[(int) (((unsigned char) try[-1]))] & (unsigned short int) _ISalnum)) || ((unsigned char) try[-1]) == '_'))
       break;
     if (try + len < buf + size && ((((((unsigned char) try[len]) & ~0x7f) == 0) && ((*__ctype_b_loc ())[(int) (((unsigned char) try[len]))] & (unsigned short int) _ISalnum)) || ((unsigned char) try[len]) == '_'))
       {
  try = kwsexec(kwset, beg, --len, &kwsmatch);
  len = kwsmatch.size[0];
       }
     else
       goto success;
   }
      else
 goto success;
    }

  return 0;

 success:
  if ((end = memchr(beg + len, '\n', (buf + size) - (beg + len))) != 0)
    ++end;
  else
    end = buf + size;
  *endp = end;
  while (beg > buf && beg[-1] != '\n')
    --beg;
  return beg;
}
